aquNOG00001	R
aquNOG00002	C
aquNOG00003	M
aquNOG00004	I
aquNOG00005	E
aquNOG00006	R
aquNOG00007	P
aquNOG00008	U
aquNOG00010	J
aquNOG00012	F
aquNOG00013	J
aquNOG00014	E
aquNOG00015	O
aquNOG00016	G
aquNOG00017	S
aquNOG00018	S
aquNOG00019	J
aquNOG00020	E
aquNOG00021	NU
aquNOG00022	OU
aquNOG00023	P
aquNOG00024	O
aquNOG00025	G
aquNOG00026	M
aquNOG00027	H
aquNOG00028	H
aquNOG00031	T
aquNOG00032	J
aquNOG00033	M
aquNOG00034	O
aquNOG00035	C
aquNOG00036	G
aquNOG00037	N
aquNOG00038	F
aquNOG00039	M
aquNOG00040	P
aquNOG00041	C
aquNOG00043	M
aquNOG00044	H
aquNOG00045	E
aquNOG00046	M
aquNOG00047	L
aquNOG00048	R
aquNOG00049	L
aquNOG00050	C
aquNOG00051	R
aquNOG00052	M
aquNOG00053	M
aquNOG00054	BQ
aquNOG00055	C
aquNOG00056	C
aquNOG00058	O
aquNOG00059	C
aquNOG00060	J
aquNOG00061	E
aquNOG00062	H
aquNOG00063	R
aquNOG00064	H
aquNOG00066	E
aquNOG00067	R
aquNOG00068	R
aquNOG00069	H
aquNOG00070	G
aquNOG00071	M
aquNOG00072	M
aquNOG00073	S
aquNOG00074	J
aquNOG00075	E
aquNOG00076	J
aquNOG00077	C
aquNOG00078	E
aquNOG00079	F
aquNOG00080	C
aquNOG00081	G
aquNOG00082	O
aquNOG00084	H
aquNOG00085	G
aquNOG00086	G
aquNOG00087	H
aquNOG00088	L
aquNOG00089	I
aquNOG00090	U
aquNOG00092	O
aquNOG00093	P
aquNOG00094	N
aquNOG00095	L
aquNOG00096	J
aquNOG00097	V
aquNOG00098	I
aquNOG00099	K
aquNOG00101	O
aquNOG00102	C
aquNOG00104	C
aquNOG00105	H
aquNOG00107	E
aquNOG00108	M
aquNOG00109	BQ
aquNOG00110	T
aquNOG00111	C
aquNOG00112	O
aquNOG00113	C
aquNOG00114	I
aquNOG00115	O
aquNOG00116	K
aquNOG00117	R
aquNOG00118	S
aquNOG00119	L
aquNOG00120	U
aquNOG00121	R
aquNOG00123	M
aquNOG00124	F
aquNOG00125	S
aquNOG00126	H
aquNOG00128	U
aquNOG00129	L
aquNOG00130	H
aquNOG00131	E
aquNOG00132	P
aquNOG00133	J
aquNOG00134	U
aquNOG00135	M
aquNOG00136	H
aquNOG00137	O
aquNOG00138	H
aquNOG00139	M
aquNOG00140	D
aquNOG00142	K
aquNOG00143	S
aquNOG00144	L
aquNOG00145	H
aquNOG00146	E
aquNOG00147	E
aquNOG00149	S
aquNOG00150	E
aquNOG00151	R
aquNOG00152	E
aquNOG00153	J
aquNOG00154	O
aquNOG00155	L
aquNOG00157	U
aquNOG00158	O
aquNOG00160	J
aquNOG00161	F
aquNOG00162	E
aquNOG00163	L
aquNOG00164	T
aquNOG00165	C
aquNOG00166	D
aquNOG00167	H
aquNOG00168	O
aquNOG00169	N
aquNOG00170	NU
aquNOG00171	S
aquNOG00172	S
aquNOG00173	H
aquNOG00174	J
aquNOG00176	J
aquNOG00177	C
aquNOG00178	C
aquNOG00180	M
aquNOG00181	H
aquNOG00182	R
aquNOG00183	S
aquNOG00185	C
aquNOG00186	R
aquNOG00187	R
aquNOG00188	M
aquNOG00189	H
aquNOG00190	J
aquNOG00191	E
aquNOG00192	F
aquNOG00193	K
aquNOG00194	J
aquNOG00195	R
aquNOG00196	K
aquNOG00197	C
aquNOG00198	L
aquNOG00199	F
aquNOG00200	C
aquNOG00201	E
aquNOG00202	C
aquNOG00203	P
aquNOG00204	J
aquNOG00205	J
aquNOG00206	R
aquNOG00207	T
aquNOG00208	J
aquNOG00209	C
aquNOG00210	J
aquNOG00211	J
aquNOG00212	G
aquNOG00214	C
aquNOG00215	R
aquNOG00216	O
aquNOG00217	C
aquNOG00218	J
aquNOG00220	J
aquNOG00221	J
aquNOG00222	P
aquNOG00223	C
aquNOG00224	I
aquNOG00225	J
aquNOG00228	C
aquNOG00229	C
aquNOG00230	M
aquNOG00231	L
aquNOG00232	J
aquNOG00233	R
aquNOG00235	L
aquNOG00236	R
aquNOG00238	T
aquNOG00239	M
aquNOG00240	M
aquNOG00242	N
aquNOG00244	T
aquNOG00245	P
aquNOG00246	H
aquNOG00247	E
aquNOG00249	H
aquNOG00250	D
aquNOG00251	I
aquNOG00252	R
aquNOG00253	H
aquNOG00254	I
aquNOG00255	C
aquNOG00256	C
aquNOG00257	D
aquNOG00258	E
aquNOG00259	L
aquNOG00261	E
aquNOG00262	F
aquNOG00263	S
aquNOG00264	H
aquNOG00265	N
aquNOG00266	E
aquNOG00267	S
aquNOG00269	N
aquNOG00270	T
aquNOG00271	P
aquNOG00272	F
aquNOG00274	P
aquNOG00276	E
aquNOG00277	J
aquNOG00278	D
aquNOG00279	O
aquNOG00280	C
aquNOG00281	H
aquNOG00282	L
aquNOG00283	E
aquNOG00284	C
aquNOG00285	M
aquNOG00286	C
aquNOG00287	O
aquNOG00288	F
aquNOG00289	T
aquNOG00290	C
aquNOG00291	K
aquNOG00292	S
aquNOG00293	M
aquNOG00296	E
aquNOG00297	I
aquNOG00298	K
aquNOG00299	K
aquNOG00300	O
aquNOG00301	O
aquNOG00302	C
aquNOG00303	H
aquNOG00304	H
aquNOG00305	P
aquNOG00306	T
aquNOG00307	L
aquNOG00308	C
aquNOG00309	J
aquNOG00310	J
aquNOG00311	R
aquNOG00312	P
aquNOG00313	J
aquNOG00314	F
aquNOG00316	G
aquNOG00317	G
aquNOG00318	P
aquNOG00319	L
aquNOG00320	J
aquNOG00321	EP
aquNOG00322	J
aquNOG00323	F
aquNOG00324	J
aquNOG00325	S
aquNOG00327	V
aquNOG00328	M
aquNOG00329	P
aquNOG00330	J
aquNOG00331	H
aquNOG00332	NU
aquNOG00333	P
aquNOG00334	C
aquNOG00335	M
aquNOG00336	H
aquNOG00337	M
aquNOG00339	M
aquNOG00340	J
aquNOG00341	T
aquNOG00342	C
aquNOG00343	H
aquNOG00344	J
aquNOG00345	L
aquNOG00346	S
aquNOG00347	E
aquNOG00349	F
aquNOG00350	K
aquNOG00352	O
aquNOG00353	Q
aquNOG00354	L
aquNOG00355	M
aquNOG00356	E
aquNOG00357	C
aquNOG00358	H
aquNOG00359	L
aquNOG00360	F
aquNOG00361	C
aquNOG00362	G
aquNOG00363	S
aquNOG00364	C
aquNOG00365	L
aquNOG00367	K
aquNOG00368	M
aquNOG00370	T
aquNOG00372	U
aquNOG00373	C
aquNOG00374	J
aquNOG00375	N
aquNOG00376	E
aquNOG00378	T
aquNOG00379	C
aquNOG00380	G
aquNOG00381	C
aquNOG00382	R
aquNOG00383	I
aquNOG00385	C
aquNOG00386	P
aquNOG00387	U
aquNOG00388	E
aquNOG00389	P
aquNOG00390	J
aquNOG00391	H
aquNOG00392	C
aquNOG00393	J
aquNOG00394	J
aquNOG00395	J
aquNOG00396	P
aquNOG00399	G
aquNOG00401	K
aquNOG00402	P
aquNOG00403	P
aquNOG00404	M
aquNOG00405	E
aquNOG00406	O
aquNOG00407	R
aquNOG00408	O
aquNOG00409	C
aquNOG00410	R
aquNOG00411	L
aquNOG00412	J
aquNOG00413	E
aquNOG00414	S
aquNOG00415	E
aquNOG00416	E
aquNOG00417	C
aquNOG00418	E
aquNOG00419	C
aquNOG00420	E
aquNOG00421	R
aquNOG00422	J
aquNOG00423	C
aquNOG00424	S
aquNOG00425	E
aquNOG00426	H
aquNOG00427	C
aquNOG00428	F
aquNOG00429	O
aquNOG00430	J
aquNOG00431	P
aquNOG00432	M
aquNOG00433	F
aquNOG00434	CO
aquNOG00435	H
aquNOG00436	C
aquNOG00437	E
aquNOG00438	M
aquNOG00439	E
aquNOG00440	C
aquNOG00441	S
aquNOG00442	C
aquNOG00443	L
aquNOG00444	C
aquNOG00445	E
aquNOG00446	M
aquNOG00447	M
aquNOG00448	J
aquNOG00449	J
aquNOG00450	P
aquNOG00451	L
aquNOG00452	E
aquNOG00453	M
aquNOG00454	C
aquNOG00455	L
aquNOG00456	O
aquNOG00457	E
aquNOG00458	M
aquNOG00460	P
aquNOG00461	D
aquNOG00462	C
aquNOG00463	J
aquNOG00464	K
aquNOG00465	G
aquNOG00466	R
aquNOG00467	M
aquNOG00468	U
aquNOG00469	R
aquNOG00470	I
aquNOG00471	G
aquNOG00472	O
aquNOG00474	M
aquNOG00475	M
aquNOG00476	C
aquNOG00477	M
aquNOG00478	S
aquNOG00479	S
aquNOG00480	L
aquNOG00481	O
aquNOG00482	C
aquNOG00483	P
aquNOG00484	I
aquNOG00485	J
aquNOG00486	T
aquNOG00487	S
aquNOG00488	R
aquNOG00489	K
aquNOG00490	H
aquNOG00491	M
aquNOG00492	J
aquNOG00494	C
aquNOG00495	H
aquNOG00496	E
aquNOG00498	L
aquNOG00500	E
aquNOG00501	H
aquNOG00502	L
aquNOG00503	C
aquNOG00504	H
aquNOG00506	S
aquNOG00507	P
aquNOG00508	C
aquNOG00511	Q
aquNOG00513	M
aquNOG00514	E
aquNOG00516	L
aquNOG00517	D
aquNOG00519	U
aquNOG00520	C
aquNOG00521	O
aquNOG00523	E
aquNOG00524	M
aquNOG00525	L
aquNOG00527	F
aquNOG00528	T
aquNOG00529	E
aquNOG00530	S
aquNOG00531	S
aquNOG00532	L
aquNOG00534	E
aquNOG00535	H
aquNOG00536	F
aquNOG00537	J
aquNOG00538	L
aquNOG00539	OU
aquNOG00540	G
aquNOG00541	R
aquNOG00542	M
aquNOG00543	E
aquNOG00544	E
aquNOG00545	L
aquNOG00546	H
aquNOG00547	M
aquNOG00548	C
aquNOG00549	CP
aquNOG00550	M
aquNOG00551	C
aquNOG00552	G
aquNOG00554	E
aquNOG00555	P
aquNOG00556	S
aquNOG00557	J
aquNOG00558	H
aquNOG00559	O
aquNOG00561	E
aquNOG00562	J
aquNOG00565	J
aquNOG00566	O
aquNOG00567	O
aquNOG00568	T
aquNOG00569	C
aquNOG00570	J
aquNOG00571	J
aquNOG00572	C
aquNOG00573	G
aquNOG00574	E
aquNOG00575	C
aquNOG00576	C
aquNOG00577	J
aquNOG00578	R
aquNOG00579	U
aquNOG00580	G
aquNOG00581	G
aquNOG00583	I
aquNOG00584	M
aquNOG00585	S
aquNOG00586	M
aquNOG00588	M
aquNOG00589	C
aquNOG00590	J
aquNOG00591	P
aquNOG00592	C
aquNOG00593	J
aquNOG00594	J
aquNOG00596	E
aquNOG00598	M
aquNOG00599	C
aquNOG00600	F
aquNOG00601	I
aquNOG00602	M
aquNOG00603	H
aquNOG00604	S
aquNOG00605	O
aquNOG00606	K
aquNOG00607	OT
aquNOG00608	S
aquNOG00609	NU
aquNOG00610	R
aquNOG00611	G
aquNOG00612	C
aquNOG00613	H
aquNOG00614	G
aquNOG00615	E
aquNOG00617	S
aquNOG00619	C
aquNOG00620	M
aquNOG00621	P
aquNOG00622	R
aquNOG00623	E
aquNOG00624	T
aquNOG00625	G
aquNOG00627	S
aquNOG00628	O
aquNOG00629	I
aquNOG00630	G
aquNOG00631	C
aquNOG00632	O
aquNOG00633	R
aquNOG00634	H
aquNOG00635	C
aquNOG00636	E
aquNOG00637	H
aquNOG00638	J
aquNOG00639	N
aquNOG00640	M
aquNOG00641	G
aquNOG00642	C
aquNOG00643	O
aquNOG00644	G
aquNOG00645	C
aquNOG00646	S
aquNOG00648	M
aquNOG00649	C
aquNOG00650	J
aquNOG00651	M
aquNOG00652	J
aquNOG00653	L
aquNOG00654	E
aquNOG00655	C
aquNOG00656	T
aquNOG00657	M
aquNOG00658	M
aquNOG00659	S
aquNOG00661	P
aquNOG00663	M
aquNOG00664	R
aquNOG00665	C
aquNOG00666	H
aquNOG00667	G
aquNOG00668	R
aquNOG00669	J
aquNOG00670	S
aquNOG00671	V
aquNOG00672	J
aquNOG00673	C
aquNOG00674	O
aquNOG00676	G
aquNOG00677	H
aquNOG00679	C
aquNOG00681	H
aquNOG00682	S
aquNOG00683	F
aquNOG00684	F
aquNOG00686	F
aquNOG00687	E
aquNOG00689	M
aquNOG00690	H
aquNOG00691	H
aquNOG00692	M
aquNOG00693	P
aquNOG00694	F
aquNOG00695	C
aquNOG00696	C
aquNOG00697	P
aquNOG00698	S
aquNOG00699	C
aquNOG00700	S
aquNOG00701	E
aquNOG00702	J
aquNOG00703	P
aquNOG00704	CP
aquNOG00705	H
aquNOG00707	S
aquNOG00709	H
aquNOG00711	P
aquNOG00712	E
aquNOG00714	J
aquNOG00715	E
aquNOG00716	S
aquNOG00717	C
aquNOG00718	S
aquNOG00719	S
aquNOG00720	N
aquNOG00721	P
aquNOG00722	E
aquNOG00723	E
aquNOG00726	R
aquNOG00728	I
aquNOG00730	E
aquNOG00731	N
aquNOG00735	V
aquNOG00736	F
aquNOG00737	M
aquNOG00738	N
aquNOG00739	E
aquNOG00741	U
aquNOG00742	M
aquNOG00743	G
aquNOG00744	Q
aquNOG00745	M
aquNOG00747	M
aquNOG00748	S
aquNOG00749	J
aquNOG00750	E
aquNOG00751	P
aquNOG00752	H
aquNOG00753	P
aquNOG00754	S
aquNOG00755	E
aquNOG00756	C
aquNOG00757	P
aquNOG00758	E
aquNOG00759	O
aquNOG00760	O
aquNOG00761	F
aquNOG00762	E
aquNOG00763	T
aquNOG00765	E
aquNOG00767	S
aquNOG00768	C
aquNOG00769	O
aquNOG00771	E
aquNOG00772	E
aquNOG00773	S
aquNOG00774	N
aquNOG00775	D
aquNOG00776	I
aquNOG00777	L
aquNOG00778	C
aquNOG00779	O
aquNOG00780	M
aquNOG00781	L
aquNOG00782	D
aquNOG00784	S
aquNOG00787	K
aquNOG00788	E
aquNOG00789	J
aquNOG00790	L
aquNOG00791	E
aquNOG00792	N
aquNOG00793	O
aquNOG00794	M
aquNOG00796	F
aquNOG00798	S
aquNOG00799	R
aquNOG00800	E
aquNOG00802	F
aquNOG00804	C
aquNOG00805	G
aquNOG00806	E
aquNOG00807	S
aquNOG00808	C
aquNOG00809	C
aquNOG00810	I
aquNOG00811	E
aquNOG00812	S
aquNOG00813	C
aquNOG00814	P
aquNOG00815	P
aquNOG00816	M
aquNOG00817	L
aquNOG00819	R
aquNOG00820	NOU
aquNOG00822	L
aquNOG00823	O
aquNOG00824	D
aquNOG00825	F
aquNOG00826	P
aquNOG00828	F
aquNOG00829	E
aquNOG00830	E
aquNOG00831	E
aquNOG00832	C
aquNOG00834	R
aquNOG00835	L
aquNOG00836	H
aquNOG00837	L
aquNOG00838	M
aquNOG00839	U
aquNOG00841	P
aquNOG00842	S
aquNOG00844	J
aquNOG00845	P
aquNOG00846	F
aquNOG00848	M
aquNOG00850	E
aquNOG00851	V
aquNOG00852	V
aquNOG00854	G
aquNOG00855	I
aquNOG00856	C
aquNOG00857	L
aquNOG00858	G
aquNOG00859	C
aquNOG00860	C
aquNOG00861	C
aquNOG00862	C
aquNOG00863	C
aquNOG00864	P
aquNOG00865	P
aquNOG00866	M
aquNOG00868	S
aquNOG00870	H
aquNOG00871	E
aquNOG00872	L
aquNOG00873	T
aquNOG00876	C
aquNOG00877	J
aquNOG00878	G
aquNOG00879	M
aquNOG00880	E
aquNOG00882	L
aquNOG00883	K
aquNOG00885	L
aquNOG00886	R
aquNOG00887	P
aquNOG00889	E
aquNOG00890	C
aquNOG00892	R
aquNOG00893	P
aquNOG00894	O
aquNOG00895	E
aquNOG00896	I
aquNOG00897	L
aquNOG00898	S
aquNOG00899	L
aquNOG00900	L
aquNOG00904	C
aquNOG00905	G
aquNOG00907	H
aquNOG00909	R
aquNOG00911	H
aquNOG00912	G
aquNOG00913	O
aquNOG00915	S
aquNOG00916	G
aquNOG00917	J
aquNOG00918	C
aquNOG00919	T
aquNOG00921	V
aquNOG00923	J
aquNOG00924	M
aquNOG00925	F
aquNOG00926	R
aquNOG00927	G
aquNOG00928	M
aquNOG00929	S
aquNOG00930	F
aquNOG00931	M
aquNOG00932	N
aquNOG00934	R
aquNOG00935	C
aquNOG00937	R
aquNOG00938	L
aquNOG00939	R
aquNOG00940	C
aquNOG00941	MU
aquNOG00942	C
aquNOG00943	K
aquNOG00944	C
aquNOG00947	H
aquNOG00948	I
aquNOG00949	EH
aquNOG00950	C
aquNOG00951	C
aquNOG00952	C
aquNOG00953	L
aquNOG00956	N
aquNOG00957	M
aquNOG00958	H
aquNOG00959	E
aquNOG00960	E
aquNOG00961	N
aquNOG00965	J
aquNOG00968	S
aquNOG00969	E
aquNOG00970	C
aquNOG00971	S
aquNOG00972	P
aquNOG00973	J
aquNOG00974	O
aquNOG00975	M
aquNOG00982	L
aquNOG00984	L
aquNOG00985	S
aquNOG00986	M
aquNOG00987	F
aquNOG00988	R
aquNOG00989	T
aquNOG00991	L
aquNOG00992	F
aquNOG00993	T
aquNOG00994	M
aquNOG00995	J
aquNOG00996	F
aquNOG00997	G
aquNOG00998	M
aquNOG00999	V
aquNOG01000	F
aquNOG01001	R
aquNOG01002	Q
aquNOG01004	R
aquNOG01005	S
aquNOG01006	L
aquNOG01009	Q
aquNOG01011	S
aquNOG01014	U
aquNOG01015	M
aquNOG01016	E
aquNOG01017	C
aquNOG01019	V
aquNOG01021	O
aquNOG01022	E
aquNOG01023	M
aquNOG01024	R
aquNOG01025	C
aquNOG01026	R
aquNOG01027	S
aquNOG01028	NT
aquNOG01029	K
aquNOG01030	K
aquNOG01033	E
aquNOG01034	C
aquNOG01036	J
aquNOG01037	S
aquNOG01038	L
aquNOG01040	S
aquNOG01041	Q
aquNOG01042	S
aquNOG01043	I
aquNOG01044	S
aquNOG01045	G
aquNOG01046	R
aquNOG01047	M
aquNOG01048	G
aquNOG01049	C
aquNOG01050	R
aquNOG01051	L
aquNOG01052	G
aquNOG01053	S
aquNOG01055	U
aquNOG01056	F
aquNOG01057	S
aquNOG01059	C
aquNOG01060	H
aquNOG01061	M
aquNOG01063	M
aquNOG01064	H
aquNOG01065	T
aquNOG01066	G
aquNOG01070	M
aquNOG01071	E
aquNOG01073	R
aquNOG01074	P
aquNOG01075	J
aquNOG01076	P
aquNOG01077	IJ
aquNOG01079	J
aquNOG01080	S
aquNOG01082	L
aquNOG01083	O
aquNOG01085	L
aquNOG01086	O
aquNOG01088	S
aquNOG01089	IQ
aquNOG01091	S
aquNOG01092	J
aquNOG01093	M
aquNOG01094	R
aquNOG01095	G
aquNOG01096	O
aquNOG01098	K
aquNOG01099	F
aquNOG01100	E
aquNOG01101	C
aquNOG01102	C
aquNOG01103	N
aquNOG01107	GM
aquNOG01108	U
aquNOG01109	M
aquNOG01111	R
aquNOG01114	J
aquNOG01116	V
aquNOG01117	M
aquNOG01118	L
aquNOG01119	S
aquNOG01120	F
aquNOG01122	J
aquNOG01123	E
aquNOG01124	C
aquNOG01125	I
aquNOG01126	J
aquNOG01127	M
aquNOG01128	H
aquNOG01130	C
aquNOG01131	S
aquNOG01132	R
aquNOG01133	S
aquNOG01134	P
aquNOG01135	J
aquNOG01136	T
aquNOG01137	C
aquNOG01138	J
aquNOG01139	M
aquNOG01140	L
aquNOG01141	T
aquNOG01142	T
aquNOG01143	R
aquNOG01144	S
aquNOG01145	C
aquNOG01146	P
aquNOG01147	S
aquNOG01148	R
aquNOG01150	P
aquNOG01151	L
aquNOG01152	J
aquNOG01153	R
aquNOG01154	M
aquNOG01157	S
aquNOG01160	J
aquNOG01164	H
aquNOG01166	E
aquNOG01167	E
aquNOG01168	P
aquNOG01169	F
aquNOG01170	F
aquNOG01172	M
aquNOG01173	C
aquNOG01176	T
aquNOG01178	K
aquNOG01179	C
aquNOG01180	I
aquNOG01181	F
aquNOG01183	O
aquNOG01185	Q
aquNOG01186	G
aquNOG01187	R
aquNOG01188	S
aquNOG01189	D
aquNOG01191	N
aquNOG01192	J
aquNOG01194	M
aquNOG01197	S
aquNOG01198	J
aquNOG01200	H
aquNOG01201	P
aquNOG01202	L
aquNOG01203	F
aquNOG01204	J
aquNOG01206	S
aquNOG01207	P
aquNOG01208	R
aquNOG01209	R
aquNOG01211	S
aquNOG01213	J
aquNOG01214	S
aquNOG01216	R
aquNOG01217	R
aquNOG01218	S
aquNOG01219	E
aquNOG01220	R
aquNOG01222	F
aquNOG01223	S
aquNOG01224	E
aquNOG01225	S
aquNOG01226	L
aquNOG01228	T
aquNOG01229	Q
aquNOG01230	J
aquNOG01231	T
aquNOG01232	G
aquNOG01233	L
aquNOG01235	M
aquNOG01238	I
aquNOG01239	E
aquNOG01241	E
aquNOG01242	L
aquNOG01243	S
aquNOG01244	R
aquNOG01245	M
aquNOG01246	EG
aquNOG01248	L
aquNOG01249	J
aquNOG01250	C
aquNOG01252	F
aquNOG01254	S
aquNOG01258	L
aquNOG01261	K
aquNOG01262	S
aquNOG01263	O
aquNOG01264	H
aquNOG01265	E
aquNOG01267	V
aquNOG01269	T
aquNOG01270	H
aquNOG01271	O
aquNOG01273	K
aquNOG01274	M
aquNOG01276	V
aquNOG01277	G
aquNOG01278	M
aquNOG01279	P
aquNOG01280	P
aquNOG01282	H
aquNOG01283	S
aquNOG01285	K
aquNOG01287	F
aquNOG01288	S
aquNOG01289	S
aquNOG01291	J
aquNOG01292	P
aquNOG01294	K
aquNOG01298	S
aquNOG01299	M
aquNOG01300	P
aquNOG01303	E
aquNOG01304	K
aquNOG01306	S
aquNOG01308	M
aquNOG01309	P
aquNOG01310	H
aquNOG01311	I
aquNOG01312	L
aquNOG01313	S
aquNOG01314	H
aquNOG01315	S
aquNOG01316	S
aquNOG01317	E
aquNOG01319	R
aquNOG01320	R
aquNOG01322	R
aquNOG01323	F
aquNOG01324	T
aquNOG01325	S
aquNOG01326	J
aquNOG01327	P
aquNOG01329	I
aquNOG01330	S
aquNOG01331	H
aquNOG01332	L
aquNOG01333	P
aquNOG01334	S
aquNOG01336	S
aquNOG01337	T
aquNOG01338	O
aquNOG01340	J
aquNOG01341	R
aquNOG01342	O
aquNOG01343	T
aquNOG01344	F
aquNOG01345	P
aquNOG01346	S
aquNOG01347	K
aquNOG01348	N
aquNOG01350	J
aquNOG01351	S
aquNOG01352	F
aquNOG01353	S
aquNOG01354	J
aquNOG01355	S
aquNOG01356	F
aquNOG01357	P
aquNOG01358	S
aquNOG01360	L
aquNOG01361	F
aquNOG01362	S
aquNOG01363	T
aquNOG01364	J
aquNOG01366	P
aquNOG01367	I
aquNOG01370	S
aquNOG01371	U
aquNOG01372	R
aquNOG01374	E
aquNOG01375	S
aquNOG01376	U
aquNOG01378	R
aquNOG01380	C
aquNOG01382	C
aquNOG01383	O
aquNOG01384	R
aquNOG01387	N
aquNOG01388	S
aquNOG01390	K
aquNOG01391	R
aquNOG01394	S
aquNOG01395	M
aquNOG01396	M
aquNOG01397	S
aquNOG01398	L
aquNOG01403	L
aquNOG01404	G
aquNOG01405	O
aquNOG01406	R
aquNOG01407	R
aquNOG01408	N
aquNOG01409	H
aquNOG01410	S
aquNOG01411	U
aquNOG01413	E
aquNOG01414	S
aquNOG01417	J
aquNOG01418	L
aquNOG01419	V
aquNOG01420	D
aquNOG01426	R
aquNOG01428	N
aquNOG01429	F
aquNOG01430	S
aquNOG01431	C
aquNOG01432	R
aquNOG01433	V
aquNOG01434	S
aquNOG01437	S
aquNOG01439	R
aquNOG01440	S
aquNOG01442	M
aquNOG01443	J
aquNOG01445	R
aquNOG01446	S
aquNOG01450	S
aquNOG01451	C
aquNOG01452	P
aquNOG01453	O
aquNOG01454	E
aquNOG01456	E
aquNOG01458	FG
aquNOG01459	S
aquNOG01460	I
aquNOG01461	H
aquNOG01462	K
aquNOG01465	I
aquNOG01467	O
aquNOG01468	S
aquNOG01469	N
aquNOG01470	S
aquNOG01471	S
aquNOG01473	S
aquNOG01475	L
aquNOG01476	R
aquNOG01478	C
aquNOG01480	F
aquNOG01481	C
aquNOG01482	R
aquNOG01483	O
aquNOG01484	L
aquNOG01487	J
aquNOG01489	H
aquNOG01490	C
aquNOG01491	D
aquNOG01494	J
aquNOG01495	P
aquNOG01496	O
aquNOG01497	S
aquNOG01501	S
aquNOG01502	C
aquNOG01503	Q
aquNOG01504	S
aquNOG01506	H
aquNOG01507	M
aquNOG01508	K
aquNOG01509	T
aquNOG01510	J
aquNOG01512	J
aquNOG01514	C
aquNOG01516	T
aquNOG01517	S
aquNOG01518	T
aquNOG01522	S
aquNOG01523	J
aquNOG01524	I
aquNOG01525	P
aquNOG01528	G
aquNOG01529	I
aquNOG01530	I
aquNOG01531	T
aquNOG01532	C
aquNOG01533	S
aquNOG01534	S
aquNOG01536	J
aquNOG01537	C
aquNOG01538	S
aquNOG01539	J
aquNOG01540	H
aquNOG01542	T
aquNOG01543	S
aquNOG01544	S
aquNOG01545	C
aquNOG01546	L
aquNOG01548	S
aquNOG01551	K
aquNOG01552	K
aquNOG01553	J
aquNOG01554	R
aquNOG01556	O
aquNOG01557	J
aquNOG01558	S
aquNOG01560	O
aquNOG01562	S
aquNOG01563	C
aquNOG01565	S
aquNOG01566	C
aquNOG01568	E
aquNOG01572	S
aquNOG01573	M
aquNOG01574	S
aquNOG01575	T
aquNOG01576	R
aquNOG01578	S
aquNOG01579	O
aquNOG01582	U
aquNOG01583	U
aquNOG01584	N
aquNOG01587	S
aquNOG01588	P
aquNOG01589	J
aquNOG01590	P
aquNOG01591	S
aquNOG01595	S
aquNOG01596	L
aquNOG01599	H
aquNOG01600	E
aquNOG01601	K
aquNOG01603	EH
aquNOG01604	S
aquNOG01605	S
aquNOG01606	E
aquNOG01607	E
aquNOG01608	S
aquNOG01609	O
aquNOG01610	S
aquNOG01611	S
aquNOG01612	S
aquNOG01613	H
aquNOG01614	F
aquNOG01617	S
aquNOG01618	L
aquNOG01619	R
aquNOG01620	S
aquNOG01621	T
aquNOG01622	C
aquNOG01624	K
aquNOG01625	T
aquNOG01626	K
aquNOG01627	G
aquNOG01628	C
aquNOG01629	J
aquNOG01630	P
aquNOG01631	K
aquNOG01632	M
aquNOG01633	M
aquNOG01637	S
aquNOG01638	R
aquNOG01639	M
aquNOG01640	M
aquNOG01641	S
aquNOG01642	S
aquNOG01643	R
aquNOG01644	S
aquNOG01645	N
aquNOG01647	P
aquNOG01648	O
aquNOG01649	H
aquNOG01650	R
aquNOG01652	C
aquNOG01653	MU
aquNOG01654	S
aquNOG01655	S
aquNOG01656	S
aquNOG01657	S
aquNOG01659	C
aquNOG01661	C
aquNOG01663	R
aquNOG01664	S
aquNOG01665	L
aquNOG01666	T
aquNOG01667	N
aquNOG01668	T
aquNOG01669	S
aquNOG01670	H
aquNOG01672	P
aquNOG01674	C
aquNOG01677	K
aquNOG01682	FJ
aquNOG01683	S
aquNOG01684	S
aquNOG01685	P
aquNOG01686	S
aquNOG01687	S
aquNOG01689	R
aquNOG01690	S
aquNOG01693	FG
aquNOG01696	R
aquNOG01697	H
aquNOG01699	R
aquNOG01701	S
aquNOG01703	S
aquNOG01704	R
aquNOG01705	R
aquNOG01706	S
aquNOG01708	S
aquNOG01709	S
aquNOG01711	H
aquNOG01712	T
aquNOG01713	S
aquNOG01714	S
aquNOG01715	O
aquNOG01718	R
aquNOG01719	S
aquNOG01721	R
aquNOG01724	H
aquNOG01725	M
aquNOG01726	C
aquNOG01727	H
aquNOG01728	D
aquNOG01729	S
aquNOG01731	S
aquNOG01733	S
aquNOG01734	I
aquNOG01735	S
aquNOG01736	S
aquNOG01737	R
aquNOG01738	S
aquNOG01739	R
aquNOG01740	V
aquNOG01741	K
aquNOG01742	K
aquNOG01743	J
aquNOG01746	L
aquNOG01747	T
aquNOG01749	S
aquNOG01751	J
aquNOG01752	M
aquNOG01753	S
aquNOG01754	T
aquNOG01755	I
aquNOG01756	S
aquNOG01757	M
aquNOG01758	L
aquNOG01759	M
aquNOG01760	S
aquNOG01762	S
aquNOG01763	H
aquNOG01764	M
aquNOG01765	U
aquNOG01766	P
aquNOG01767	S
aquNOG01768	E
aquNOG01769	C
aquNOG01770	O
aquNOG01771	R
aquNOG01772	S
aquNOG01773	L
aquNOG01774	S
aquNOG01775	C
aquNOG01777	R
aquNOG01778	K
aquNOG01779	J
aquNOG01781	C
aquNOG01782	F
aquNOG01783	J
aquNOG01784	L
aquNOG01785	S
aquNOG01786	S
aquNOG01787	P
aquNOG01788	C
aquNOG01789	NT
aquNOG01790	M
aquNOG01793	S
aquNOG01794	K
aquNOG01795	R
aquNOG01797	N
aquNOG01798	S
aquNOG01799	J
aquNOG01800	R
aquNOG01801	C
aquNOG01802	M
aquNOG01804	E
aquNOG01805	O
aquNOG01806	S
aquNOG01809	S
aquNOG01811	C
aquNOG01812	S
aquNOG01813	S
aquNOG01814	K
aquNOG01815	S
aquNOG01817	S
aquNOG01818	Q
aquNOG01821	S
aquNOG01822	K
aquNOG01824	K
aquNOG01825	S
aquNOG01826	O
aquNOG01827	O
aquNOG01830	S
aquNOG01831	T
aquNOG01833	S
aquNOG01834	S
aquNOG01835	M
aquNOG01836	L
aquNOG01837	S
aquNOG01838	K
aquNOG01839	O
aquNOG01840	S
aquNOG01841	I
aquNOG01842	P
aquNOG01843	J
aquNOG01844	J
aquNOG01845	S
aquNOG01846	U
aquNOG01847	O
aquNOG01850	S
aquNOG01851	J
aquNOG01852	S
aquNOG01855	T
aquNOG01859	R
aquNOG01860	S
aquNOG01861	L
aquNOG01863	S
aquNOG01864	S
aquNOG01865	U
aquNOG01866	U
aquNOG01867	C
aquNOG01868	J
aquNOG01869	S
aquNOG01871	L
aquNOG01872	J
aquNOG01873	C
aquNOG01874	R
aquNOG01875	M
aquNOG01876	J
aquNOG01877	O
aquNOG01878	CO
aquNOG01879	P
aquNOG01880	E
aquNOG01881	L
aquNOG01882	S
aquNOG01883	Q
aquNOG01885	I
aquNOG01886	L
aquNOG01887	NU
aquNOG01888	M
aquNOG01889	N
aquNOG01891	M
aquNOG01892	H
aquNOG01893	P
aquNOG01894	T
aquNOG01895	R
aquNOG01896	O
aquNOG01898	R
aquNOG01899	S
aquNOG01900	T
aquNOG01901	S
aquNOG01902	S
aquNOG01904	MU
aquNOG01905	J
aquNOG01906	J
aquNOG01907	S
aquNOG01908	O
aquNOG01909	R
aquNOG01910	S
aquNOG01911	R
aquNOG01912	K
aquNOG01913	T
aquNOG01914	M
aquNOG01916	K
aquNOG01917	S
aquNOG01919	S
aquNOG01920	M
aquNOG01922	P
aquNOG01923	O
aquNOG01924	O
aquNOG01926	O
aquNOG01927	P
aquNOG01929	S
aquNOG01930	M
aquNOG01931	C
aquNOG01933	R
aquNOG01934	H
aquNOG01936	S
aquNOG01939	S
aquNOG01940	O
aquNOG01942	S
aquNOG01943	J
aquNOG01945	C
aquNOG01946	S
aquNOG01947	R
aquNOG01948	U
aquNOG01951	S
aquNOG01952	O
aquNOG01954	S
aquNOG01955	L
aquNOG01957	S
aquNOG01958	I
aquNOG01959	S
aquNOG01960	M
aquNOG01961	S
aquNOG01962	R
aquNOG01963	S
aquNOG01964	J
aquNOG01966	J
aquNOG01967	S
aquNOG01968	S
aquNOG01969	S
aquNOG01970	U
aquNOG01971	P
aquNOG01972	S
aquNOG01974	T
aquNOG01975	T
aquNOG01976	J
aquNOG01977	C
aquNOG01978	K
aquNOG01979	S
aquNOG01980	S
aquNOG01981	S
aquNOG01983	S
aquNOG01984	M
aquNOG01985	O
aquNOG01986	S
aquNOG01987	S
aquNOG01988	C
aquNOG01989	J
aquNOG01990	D
aquNOG01991	R
aquNOG01992	H
aquNOG01993	S
aquNOG01994	J
aquNOG01995	S
aquNOG01996	N
aquNOG01997	S
aquNOG01998	J
aquNOG01999	J
aquNOG02000	S
aquNOG02001	U
aquNOG02002	H
aquNOG02003	R
aquNOG02004	S
aquNOG02005	S
aquNOG02006	S
aquNOG02007	M
aquNOG02008	C
aquNOG02009	S
aquNOG02010	S
aquNOG02011	N
aquNOG02012	S
aquNOG02013	S
aquNOG02014	L
aquNOG02015	S
aquNOG02016	V
aquNOG02017	S
aquNOG02018	D
aquNOG02019	O
aquNOG02020	L
aquNOG02021	S
aquNOG02022	L
aquNOG02023	N
aquNOG02024	S
aquNOG02025	S
aquNOG02026	S
aquNOG02027	O
aquNOG02028	C
aquNOG02029	S
aquNOG02030	C
aquNOG02031	EG
aquNOG02032	S
aquNOG02033	S
aquNOG02034	C
aquNOG02035	S
aquNOG02036	S
aquNOG02037	S
aquNOG02038	M
aquNOG02039	C
aquNOG02042	S
aquNOG02043	T
aquNOG02044	S
aquNOG02045	N
aquNOG02046	U
aquNOG02047	S
aquNOG02048	J
aquNOG02049	H
aquNOG02050	C
aquNOG02051	S
aquNOG02052	S
aquNOG02054	O
aquNOG02055	S
aquNOG02056	U
aquNOG02058	S
aquNOG02059	S
aquNOG02061	S
aquNOG02062	J
aquNOG02064	L
aquNOG02065	M
aquNOG02066	S
aquNOG02067	L
aquNOG02068	S
aquNOG02069	S
aquNOG02071	O
aquNOG02072	K
aquNOG02074	M
aquNOG02075	L
aquNOG02076	K
aquNOG02078	S
aquNOG02079	S
aquNOG02080	C
aquNOG02081	U
aquNOG02082	S
aquNOG02083	S
aquNOG02084	L
aquNOG02085	S
aquNOG02086	S
aquNOG02087	S
aquNOG02088	S
aquNOG02089	K
aquNOG02091	S
aquNOG02092	GM
aquNOG02093	E
aquNOG02094	O
aquNOG02095	T
aquNOG02096	R
aquNOG02097	S
aquNOG02098	T
aquNOG02099	O
aquNOG02100	S
aquNOG02101	K
aquNOG02102	S
aquNOG02103	S
aquNOG02105	C
aquNOG02106	S
aquNOG02107	S
aquNOG02108	L
aquNOG02109	M
aquNOG02110	J
aquNOG02111	R
aquNOG02113	S
aquNOG02114	K
aquNOG02115	S
aquNOG02116	S
aquNOG02117	S
aquNOG02118	S
aquNOG02119	S
aquNOG02120	O
aquNOG02121	H
aquNOG02122	S
aquNOG02124	R
aquNOG02125	S
aquNOG02126	P
aquNOG02127	L
aquNOG02128	S
aquNOG02129	S
aquNOG02130	S
aquNOG02131	S
aquNOG02133	C
aquNOG02134	S
aquNOG02135	R
aquNOG02136	S
aquNOG02137	S
aquNOG02138	S
aquNOG02139	M
aquNOG02141	O
aquNOG02142	P
aquNOG02143	S
aquNOG02144	T
aquNOG02145	S
aquNOG02146	S
aquNOG02147	I
aquNOG02148	T
aquNOG02149	N
aquNOG02150	S
aquNOG02151	U
aquNOG02152	S
aquNOG02153	S
aquNOG02154	R
aquNOG02155	S
aquNOG02156	S
aquNOG02157	S
aquNOG02158	I
aquNOG02159	S
aquNOG02160	S
aquNOG02161	K
aquNOG02162	O
aquNOG02163	S
aquNOG02164	S
aquNOG02165	S
aquNOG02166	S
aquNOG02167	S
aquNOG02168	S
aquNOG02169	C
aquNOG02170	U
aquNOG02171	O
aquNOG02172	G
aquNOG02173	L
aquNOG02174	S
aquNOG02175	S
aquNOG02176	J
aquNOG02177	R
aquNOG02178	L
aquNOG02179	S
aquNOG02180	S
aquNOG02181	C
aquNOG02182	S
aquNOG02183	F
aquNOG02184	H
aquNOG02185	T
aquNOG02186	J
aquNOG02187	L
aquNOG02188	S
aquNOG02189	S
aquNOG02190	S
aquNOG02191	C
aquNOG02193	C
aquNOG02194	C
aquNOG02195	L
aquNOG02196	J
aquNOG02197	S
aquNOG02198	S
aquNOG02199	L
aquNOG02200	S
aquNOG02201	M
aquNOG02202	P
aquNOG02203	S
aquNOG02204	S
aquNOG02205	S
aquNOG02206	S
aquNOG02207	S
aquNOG02208	J
aquNOG02209	S
aquNOG02210	R
aquNOG02211	S
aquNOG02212	M
aquNOG02213	S
aquNOG02214	S
aquNOG02215	S
aquNOG02216	S
aquNOG02217	S
aquNOG02218	L
aquNOG02219	S
aquNOG02220	S
aquNOG02221	S
aquNOG02222	S
aquNOG02223	S
aquNOG02224	U
aquNOG02225	J
aquNOG02226	S
aquNOG02227	S
aquNOG02228	S
aquNOG02229	S
aquNOG02230	S
aquNOG02231	S
aquNOG02232	S
aquNOG02233	S
aquNOG02234	S
aquNOG02235	L
aquNOG02236	L
aquNOG02237	J
aquNOG02238	S
aquNOG02239	S
aquNOG02240	J
aquNOG02241	S
aquNOG02242	H
aquNOG02243	S
aquNOG02244	S
aquNOG02245	S
aquNOG02246	S
aquNOG02247	P
aquNOG02248	K
aquNOG02249	N
aquNOG02250	S
aquNOG02251	S
aquNOG02252	S
aquNOG02253	L
aquNOG02254	S
aquNOG02255	S
aquNOG02256	S
aquNOG02257	S
aquNOG02258	P
aquNOG02259	S
aquNOG02260	S
aquNOG02261	K
aquNOG02262	R
aquNOG02263	P
aquNOG02264	S
aquNOG02265	M
aquNOG02266	S
aquNOG02267	S
aquNOG02268	S
aquNOG02269	S
aquNOG02270	C
aquNOG02271	L
aquNOG02272	S
aquNOG02273	S
aquNOG02274	S
aquNOG02275	S
aquNOG02276	K
aquNOG02277	S
aquNOG02278	S
aquNOG02279	R
aquNOG02280	J
aquNOG02281	S
aquNOG02282	N
aquNOG02283	J
aquNOG02284	S
aquNOG02285	S
aquNOG02286	K
aquNOG02287	S
aquNOG02288	N
aquNOG02289	S
aquNOG02290	S
aquNOG02291	D
aquNOG02292	S
aquNOG02293	S
aquNOG02294	C
aquNOG02296	S
aquNOG02297	R
aquNOG02298	C
aquNOG02299	S
aquNOG02300	S
aquNOG02301	N
aquNOG02302	S
aquNOG02303	E
aquNOG02304	S
aquNOG02305	S
aquNOG02306	S
aquNOG02307	U
aquNOG02308	S
aquNOG02309	S
aquNOG02310	S
aquNOG02311	Q
aquNOG02312	P
aquNOG02313	S
aquNOG02314	S
aquNOG02315	S
aquNOG02316	S
aquNOG02317	S
aquNOG02318	L
aquNOG02319	S
aquNOG02320	S
aquNOG02321	R
aquNOG02322	S
aquNOG02323	S
aquNOG02324	S
aquNOG02325	R
aquNOG02326	U
aquNOG02327	S
aquNOG02328	S
aquNOG02329	S
aquNOG02330	C
aquNOG02331	S
aquNOG02332	S
aquNOG02333	S
aquNOG02334	H
aquNOG02335	R
aquNOG02336	U
aquNOG02337	S
aquNOG02338	S
aquNOG02339	C
aquNOG02340	S
aquNOG02341	G
aquNOG02342	S
aquNOG02343	S
aquNOG02344	S
aquNOG02345	M
aquNOG02346	M
aquNOG02347	R
aquNOG02348	S
aquNOG02349	P
aquNOG02350	S
aquNOG02351	E
aquNOG02352	R
aquNOG02353	R
aquNOG02354	C
aquNOG02355	C
aquNOG02356	C
aquNOG02357	F
aquNOG02358	M
aquNOG02359	L
aquNOG02360	S
aquNOG02361	F
aquNOG02362	U
aquNOG02363	C
aquNOG02364	S
aquNOG02365	K
aquNOG02366	E
aquNOG02367	S
aquNOG02368	S
aquNOG02369	S
aquNOG02370	C
aquNOG02371	S
aquNOG02372	O
aquNOG02373	Q
aquNOG02374	K
aquNOG02375	S
aquNOG02376	L
aquNOG02377	T
aquNOG02378	R
aquNOG02379	P
aquNOG02380	S
aquNOG02381	P
aquNOG02382	S
aquNOG02383	S
aquNOG02384	I
aquNOG02385	T
aquNOG02386	S
aquNOG02387	M
aquNOG02388	S
aquNOG02389	S
aquNOG02390	R
aquNOG02391	M
aquNOG02392	T
aquNOG02393	E
aquNOG02394	R
aquNOG02395	S
aquNOG02396	C
aquNOG02397	L
aquNOG02398	J
aquNOG02399	P
aquNOG02400	EH
aquNOG02401	P
aquNOG02402	G
aquNOG02403	K
aquNOG02404	R
aquNOG02405	S
aquNOG02406	C
aquNOG02407	P
aquNOG02408	T
aquNOG02409	C
aquNOG02410	I
aquNOG02411	S
aquNOG02412	R
aquNOG02413	C
aquNOG02414	S
aquNOG02415	S
aquNOG02416	L
aquNOG02417	C
aquNOG02418	S
aquNOG02419	U
aquNOG02420	C
aquNOG02421	F
aquNOG02422	C
aquNOG02423	C
aquNOG02424	CP
aquNOG02425	E
aquNOG02426	S
aquNOG02427	R
aquNOG02428	S
aquNOG02429	R
aquNOG02430	S
aquNOG02431	R
aquNOG02432	C
aquNOG02433	C
aquNOG02434	C
aquNOG02435	S
aquNOG02436	P
aquNOG02437	R
aquNOG02438	T
aquNOG02439	T
aquNOG02440	P
aquNOG02441	F
aquNOG02442	S
aquNOG02443	CE
aquNOG02444	F
aquNOG02445	P
aquNOG02446	M
aquNOG02447	C
aquNOG02448	S
aquNOG02449	R
aquNOG02450	S
aquNOG02451	P
aquNOG02452	U
aquNOG02453	S
aquNOG02454	S
aquNOG02455	M
aquNOG02456	R
aquNOG02457	L
aquNOG02458	T
aquNOG02459	P
aquNOG02460	C
aquNOG02461	E
aquNOG02462	T
aquNOG02463	L
aquNOG02464	M
aquNOG02465	P
aquNOG02466	M
aquNOG02467	O
aquNOG02468	S
aquNOG02469	V
aquNOG02470	G
aquNOG02471	T
aquNOG02472	K
aquNOG02473	U
aquNOG02474	S
aquNOG02475	P
aquNOG02476	T
aquNOG02477	Q
aquNOG02478	E
aquNOG02479	M
aquNOG02480	G
aquNOG02481	T
aquNOG02482	S
aquNOG02483	G
aquNOG02484	S
aquNOG02485	C
aquNOG02486	V
aquNOG02487	V
aquNOG02488	C
aquNOG02489	P
aquNOG02490	R
aquNOG02491	S
aquNOG02492	T
aquNOG02493	C
aquNOG02494	C
aquNOG02495	L
aquNOG02496	P
aquNOG02497	R
aquNOG02498	E
aquNOG02499	P
aquNOG02500	S
aquNOG02501	S
aquNOG02502	M
aquNOG02503	G
aquNOG02504	H
aquNOG02505	C
aquNOG02506	S
aquNOG02507	O
aquNOG02508	C
aquNOG02509	C
aquNOG02510	S
aquNOG02511	M
aquNOG02512	C
aquNOG02513	G
aquNOG02514	C
aquNOG02515	S
aquNOG02516	M
aquNOG02517	O
aquNOG02518	S
aquNOG02519	R
aquNOG02520	Q
aquNOG02521	R
aquNOG02522	NT
aquNOG02523	S
aquNOG02524	H
aquNOG02525	M
aquNOG02526	V
aquNOG02527	S
aquNOG02528	C
aquNOG02529	F
aquNOG02530	C
aquNOG02531	S
aquNOG02532	M
aquNOG02533	S
aquNOG02534	S
aquNOG02535	M
aquNOG02536	O
aquNOG02537	R
aquNOG02538	R
aquNOG02539	C
aquNOG02540	R
aquNOG02541	S
aquNOG02542	S
aquNOG02543	S
aquNOG02544	O
aquNOG02545	M
aquNOG02546	M
aquNOG02547	S
aquNOG02548	L
aquNOG02549	P
aquNOG02550	L
aquNOG02551	E
aquNOG02552	P
aquNOG02553	S
aquNOG02554	C
aquNOG02555	T
aquNOG02556	S
aquNOG02557	S
aquNOG02558	S
aquNOG02559	S
aquNOG02560	S
aquNOG02561	Q
aquNOG02562	S
aquNOG02563	S
aquNOG02564	U
aquNOG02565	S
aquNOG02566	M
aquNOG02567	M
aquNOG02568	T
aquNOG02569	R
aquNOG02570	Q
aquNOG02571	E
aquNOG02572	S
aquNOG02573	E
aquNOG02574	M
aquNOG02575	K
aquNOG02576	S
aquNOG02577	L
aquNOG02578	M
aquNOG02579	S
aquNOG02580	R
aquNOG02581	S
aquNOG02582	S
aquNOG02583	I
aquNOG02584	C
aquNOG02585	S
aquNOG02586	S
aquNOG02587	S
aquNOG02588	T
aquNOG02589	M
aquNOG02590	S
aquNOG02591	R
aquNOG02592	C
aquNOG02593	C
aquNOG02594	C
aquNOG02595	S
aquNOG02596	O
aquNOG02597	M
aquNOG02598	C
aquNOG02599	S
aquNOG02600	S
aquNOG02601	V
aquNOG02602	S
aquNOG02603	E
aquNOG02604	S
aquNOG02605	C
aquNOG02606	S
aquNOG02607	S
aquNOG02608	K
aquNOG02609	S
aquNOG02610	C
aquNOG02611	R
aquNOG02612	O
aquNOG02613	M
aquNOG02614	S
aquNOG02615	T
aquNOG02616	S
aquNOG02617	T
aquNOG02618	S
aquNOG02619	K
aquNOG02620	C
aquNOG02621	S
aquNOG02622	S
aquNOG02623	E
aquNOG02624	S
aquNOG02625	S
aquNOG02626	S
aquNOG02627	NT
aquNOG02628	K
aquNOG02629	S
aquNOG02630	L
aquNOG02631	M
aquNOG02632	S
aquNOG02633	S
aquNOG02634	T
aquNOG02635	S
aquNOG02636	P
aquNOG02637	S
aquNOG02638	E
aquNOG02639	S
aquNOG02640	S
aquNOG02641	S
aquNOG02642	S
aquNOG02643	S
aquNOG02644	S
aquNOG02645	E
aquNOG02646	R
aquNOG02647	F
aquNOG02648	I
aquNOG02649	S
aquNOG02650	S
aquNOG02651	S
aquNOG02652	R
aquNOG02653	D
aquNOG02654	C
aquNOG02655	P
aquNOG02656	C
aquNOG02657	S
aquNOG02658	G
aquNOG02659	V
aquNOG02660	S
aquNOG02661	CO
aquNOG02662	S
aquNOG02663	S
aquNOG02664	C
aquNOG02665	S
aquNOG02666	M
aquNOG02667	S
aquNOG02668	S
aquNOG02669	S
aquNOG02670	T
aquNOG02671	S
aquNOG02672	S
aquNOG02673	L
aquNOG02674	S
aquNOG02675	S
aquNOG02676	S
aquNOG02677	K
aquNOG02678	S
aquNOG02679	S
aquNOG02680	P
aquNOG02681	NT
aquNOG02682	T
aquNOG02683	V
aquNOG02684	K
aquNOG02685	S
aquNOG02686	S
aquNOG02687	L
aquNOG02688	G
aquNOG02689	S
aquNOG02690	R
aquNOG02691	L
aquNOG02692	R
aquNOG02693	S
aquNOG02694	S
aquNOG02695	S
aquNOG02696	T
aquNOG02697	S
aquNOG02698	Q
aquNOG02699	S
aquNOG02700	C
aquNOG02701	S
aquNOG02702	S
aquNOG02703	R
aquNOG02704	S
aquNOG02705	S
aquNOG02706	S
aquNOG02707	P
aquNOG02708	T
aquNOG02709	S
aquNOG02710	R
aquNOG02711	V
aquNOG02712	S
aquNOG02713	S
aquNOG02714	L
aquNOG02715	S
aquNOG02716	S
aquNOG02717	S
aquNOG02718	S
aquNOG02719	S
aquNOG02720	S
aquNOG02721	M
aquNOG02722	P
aquNOG02723	S
aquNOG02724	E
aquNOG02725	P
aquNOG02726	R
aquNOG02727	C
aquNOG02728	E
aquNOG02729	S
aquNOG02730	S
aquNOG02731	S
aquNOG02732	S
aquNOG02733	S
aquNOG02734	S
aquNOG02735	E
aquNOG02736	S
aquNOG02737	E
aquNOG02738	T
aquNOG02739	L
aquNOG02740	P
aquNOG02741	S
aquNOG02742	K
aquNOG02743	S
aquNOG02744	E
aquNOG02745	S
aquNOG02746	S
aquNOG02747	H
aquNOG02748	C
aquNOG02749	S
aquNOG02750	S
aquNOG02751	S
aquNOG02752	C
aquNOG02753	S
aquNOG02754	S
aquNOG02755	T
aquNOG02756	M
aquNOG02757	S
aquNOG02758	L
aquNOG02759	S
aquNOG02760	S
aquNOG02761	S
aquNOG02762	S
aquNOG02763	S
aquNOG02764	C
aquNOG02765	S
aquNOG02766	S
aquNOG02767	K
aquNOG02768	S
aquNOG02769	S
aquNOG02770	O
aquNOG02771	S
aquNOG02772	L
aquNOG02773	S
aquNOG02774	R
aquNOG02775	S
aquNOG02776	U
aquNOG02777	M
aquNOG02778	C
aquNOG02779	P
aquNOG02780	M
aquNOG02781	S
aquNOG02782	D
aquNOG02783	S
aquNOG02784	S
aquNOG02785	S
aquNOG02786	S
aquNOG02787	R
aquNOG02788	S
aquNOG02789	C
aquNOG02790	C
aquNOG02791	S
aquNOG02792	S
aquNOG02793	C
aquNOG02794	S
aquNOG02795	S
aquNOG02796	C
aquNOG02797	S
aquNOG02798	S
aquNOG02799	S
aquNOG02800	S
aquNOG02801	NT
aquNOG02802	S
aquNOG02803	P
aquNOG02804	S
aquNOG02805	S
aquNOG02806	S
aquNOG02807	S
aquNOG02808	S
aquNOG02809	S
aquNOG02810	T
aquNOG02811	R
aquNOG02812	S
aquNOG02813	S
aquNOG02814	V
aquNOG02815	R
aquNOG02816	S
aquNOG02817	S
aquNOG02818	H
aquNOG02819	S
aquNOG02820	S
aquNOG02821	S
aquNOG02822	S
aquNOG02823	L
aquNOG02824	S
aquNOG02825	S
aquNOG02826	S
aquNOG02827	O
aquNOG02828	S
aquNOG02829	O
aquNOG02830	S
aquNOG02831	S
aquNOG02832	S
aquNOG02833	S
aquNOG02834	C
aquNOG02835	S
aquNOG02836	S
aquNOG02837	M
aquNOG02838	U
aquNOG02839	M
aquNOG02840	S
aquNOG02841	R
aquNOG02842	S
aquNOG02843	S
aquNOG02844	S
aquNOG02845	J
aquNOG02846	C
aquNOG02847	R
aquNOG02848	C
aquNOG02849	S
aquNOG02850	K
aquNOG02851	R
aquNOG02852	S
aquNOG02853	K
aquNOG02854	S
aquNOG02855	S
aquNOG02856	S
aquNOG02857	S
aquNOG02858	S
aquNOG02859	R
aquNOG02860	U
aquNOG02861	S
aquNOG02862	S
aquNOG02863	R
aquNOG02864	J
aquNOG02865	S
aquNOG02866	S
aquNOG02867	S
aquNOG02868	S
aquNOG02869	O
aquNOG02870	O
aquNOG02871	S
aquNOG02872	S
aquNOG02873	S
aquNOG02874	S
aquNOG02875	S
aquNOG02876	S
aquNOG02877	S
aquNOG02878	S
aquNOG02879	S
aquNOG02880	S
aquNOG02881	S
aquNOG02882	M
aquNOG02883	S
aquNOG02884	S
aquNOG02885	T
aquNOG02886	S
aquNOG02887	S
aquNOG02888	S
aquNOG02889	S
aquNOG02890	L
aquNOG02891	S
aquNOG02892	S
aquNOG02893	U
aquNOG02894	S
aquNOG02895	S
aquNOG02896	S
aquNOG02897	S
aquNOG02898	S
aquNOG02899	S
aquNOG02900	S
aquNOG02901	S
aquNOG02902	S
aquNOG02903	M
aquNOG02904	S
aquNOG02905	S
aquNOG02906	R
aquNOG02907	P
aquNOG02908	S
aquNOG02909	S
aquNOG02910	L
aquNOG02911	S
aquNOG02912	S
aquNOG02913	S
aquNOG02914	P
aquNOG02915	S
aquNOG02916	M
aquNOG02917	L
aquNOG02918	S
aquNOG02919	S
aquNOG02920	P
aquNOG02921	S
aquNOG02922	S
aquNOG02923	S
aquNOG02924	S
aquNOG02925	S
aquNOG02926	L
aquNOG02927	S
aquNOG02928	R
aquNOG02929	S
aquNOG02930	S
aquNOG02931	S
aquNOG02932	S
aquNOG02933	S
aquNOG02934	S
aquNOG02935	S
aquNOG02936	S
aquNOG02937	H
aquNOG02938	S
aquNOG02939	S
aquNOG02940	S
aquNOG02941	S
aquNOG02942	S
aquNOG02943	S
aquNOG02944	Q
aquNOG02945	S
aquNOG02946	R
aquNOG02947	S
aquNOG02948	S
aquNOG02949	S
aquNOG02950	L
aquNOG02951	M
aquNOG02952	S
aquNOG02953	S
aquNOG02954	C
aquNOG02955	R
aquNOG02956	S
aquNOG02957	S
aquNOG02958	S
aquNOG02959	S
aquNOG02960	E
aquNOG02961	S
aquNOG02962	S
aquNOG02963	P
aquNOG02964	S
aquNOG02965	S
aquNOG02966	S
aquNOG02967	S
aquNOG02968	U
aquNOG02969	S
aquNOG02970	R
aquNOG02971	S
aquNOG02972	S
aquNOG02973	S
aquNOG02974	S
aquNOG02975	S
aquNOG02976	S
aquNOG02977	S
aquNOG02978	S
aquNOG02979	S
aquNOG02980	S
aquNOG02981	G
aquNOG02982	K
aquNOG02983	S
aquNOG02984	S
aquNOG02985	L
aquNOG02986	S
aquNOG02987	S
aquNOG02988	S
aquNOG02989	S
aquNOG02990	S
aquNOG02991	J
aquNOG02992	H
aquNOG02993	S
aquNOG02994	S
aquNOG02995	S
aquNOG02996	S
aquNOG02997	R
aquNOG02998	S
aquNOG02999	C
aquNOG03000	S
aquNOG03001	S
aquNOG03002	S
aquNOG03003	S
aquNOG03004	S
aquNOG03005	S
aquNOG03006	S
aquNOG03007	S
aquNOG03008	S
aquNOG03009	L
aquNOG03010	S
aquNOG03011	R
aquNOG03012	S
aquNOG03013	C
aquNOG03014	S
aquNOG03016	E
aquNOG03017	S
aquNOG03018	S
aquNOG03019	P
aquNOG03020	H
aquNOG03021	C
aquNOG03022	S
aquNOG03023	S
aquNOG03024	S
aquNOG03025	S
aquNOG03026	S
aquNOG03027	M
aquNOG03028	J
aquNOG03029	S
aquNOG03030	D
aquNOG03031	S
aquNOG03032	K
aquNOG03033	J
aquNOG03034	H
aquNOG03035	S
