defNOG00001	G
defNOG00002	M
defNOG00003	R
defNOG00004	J
defNOG00005	J
defNOG00006	C
defNOG00007	F
defNOG00008	C
defNOG00009	P
defNOG00010	J
defNOG00011	T
defNOG00012	U
defNOG00013	I
defNOG00014	H
defNOG00015	K
defNOG00016	S
defNOG00017	H
defNOG00018	O
defNOG00019	C
defNOG00020	O
defNOG00021	M
defNOG00022	M
defNOG00023	G
defNOG00024	H
defNOG00025	C
defNOG00026	L
defNOG00027	S
defNOG00028	I
defNOG00029	T
defNOG00030	V
defNOG00031	G
defNOG00032	C
defNOG00033	F
defNOG00034	J
defNOG00035	D
defNOG00036	N
defNOG00037	J
defNOG00038	I
defNOG00039	J
defNOG00040	E
defNOG00041	R
defNOG00042	E
defNOG00043	M
defNOG00044	R
defNOG00045	J
defNOG00046	E
defNOG00047	G
defNOG00048	J
defNOG00049	E
defNOG00050	O
defNOG00051	I
defNOG00052	T
defNOG00053	I
defNOG00054	H
defNOG00055	M
defNOG00056	P
defNOG00057	M
defNOG00058	M
defNOG00059	F
defNOG00060	C
defNOG00061	O
defNOG00062	T
defNOG00063	G
defNOG00064	E
defNOG00065	O
defNOG00066	V
defNOG00067	R
defNOG00068	O
defNOG00069	C
defNOG00070	M
defNOG00071	I
defNOG00072	K
defNOG00073	F
defNOG00074	S
defNOG00075	O
defNOG00076	I
defNOG00077	O
defNOG00078	S
defNOG00079	H
defNOG00080	E
defNOG00081	S
defNOG00082	E
defNOG00083	J
defNOG00084	G
defNOG00085	U
defNOG00086	C
defNOG00087	L
defNOG00088	Q
defNOG00089	U
defNOG00090	E
defNOG00091	R
defNOG00092	M
defNOG00093	P
defNOG00094	U
defNOG00095	K
defNOG00096	E
defNOG00097	J
defNOG00098	H
defNOG00099	R
defNOG00100	E
defNOG00101	E
defNOG00102	H
defNOG00103	R
defNOG00104	K
defNOG00105	E
defNOG00106	E
defNOG00107	E
defNOG00108	R
defNOG00109	C
defNOG00110	N
defNOG00111	M
defNOG00112	C
defNOG00113	M
defNOG00114	J
defNOG00115	L
defNOG00116	J
defNOG00117	J
defNOG00118	S
defNOG00119	M
defNOG00120	S
defNOG00121	R
defNOG00122	O
defNOG00123	L
defNOG00124	I
defNOG00125	E
defNOG00126	C
defNOG00127	J
defNOG00128	H
defNOG00129	C
defNOG00130	H
defNOG00131	R
defNOG00132	O
defNOG00133	K
defNOG00134	S
defNOG00135	L
defNOG00136	F
defNOG00137	J
defNOG00138	R
defNOG00139	F
defNOG00140	E
defNOG00141	R
defNOG00142	C
defNOG00143	H
defNOG00144	G
defNOG00145	C
defNOG00146	S
defNOG00147	C
defNOG00148	L
defNOG00149	C
defNOG00150	E
defNOG00151	M
defNOG00152	P
defNOG00153	E
defNOG00154	J
defNOG00155	N
defNOG00156	K
defNOG00157	C
defNOG00158	F
defNOG00159	O
defNOG00160	K
defNOG00161	G
defNOG00162	J
defNOG00163	EP
defNOG00164	J
defNOG00165	H
defNOG00166	H
defNOG00167	EP
defNOG00168	J
defNOG00169	V
defNOG00170	J
defNOG00171	P
defNOG00172	F
defNOG00173	H
defNOG00174	L
defNOG00175	F
defNOG00176	C
defNOG00177	GM
defNOG00178	O
defNOG00179	R
defNOG00180	T
defNOG00181	Q
defNOG00182	R
defNOG00183	M
defNOG00184	E
defNOG00185	T
defNOG00186	K
defNOG00187	E
defNOG00188	T
defNOG00189	I
defNOG00190	Q
defNOG00191	R
defNOG00192	F
defNOG00193	E
defNOG00194	S
defNOG00195	J
defNOG00196	O
defNOG00197	C
defNOG00198	T
defNOG00199	R
defNOG00200	C
defNOG00201	H
defNOG00202	G
defNOG00203	C
defNOG00204	H
defNOG00205	E
defNOG00206	E
defNOG00207	O
defNOG00208	L
defNOG00209	S
defNOG00210	P
defNOG00211	J
defNOG00212	K
defNOG00213	U
defNOG00214	E
defNOG00215	C
defNOG00216	O
defNOG00217	J
defNOG00218	C
defNOG00219	S
defNOG00220	E
defNOG00221	T
defNOG00222	F
defNOG00223	L
defNOG00224	K
defNOG00225	N
defNOG00226	M
defNOG00227	FH
defNOG00228	J
defNOG00229	K
defNOG00230	C
defNOG00231	E
defNOG00232	I
defNOG00233	S
defNOG00234	C
defNOG00235	O
defNOG00236	L
defNOG00237	E
defNOG00238	R
defNOG00239	E
defNOG00240	O
defNOG00241	M
defNOG00242	O
defNOG00243	I
defNOG00244	J
defNOG00245	R
defNOG00246	H
defNOG00247	T
defNOG00248	R
defNOG00249	I
defNOG00250	V
defNOG00251	S
defNOG00252	NT
defNOG00253	L
defNOG00254	E
defNOG00255	J
defNOG00256	D
defNOG00257	L
defNOG00258	R
defNOG00259	H
defNOG00260	R
defNOG00261	R
defNOG00262	E
defNOG00263	T
defNOG00264	F
defNOG00265	E
defNOG00266	O
defNOG00267	K
defNOG00268	H
defNOG00269	E
defNOG00270	G
defNOG00271	P
defNOG00272	G
defNOG00273	C
defNOG00274	E
defNOG00275	V
defNOG00276	T
defNOG00277	L
defNOG00278	L
defNOG00279	E
defNOG00280	F
defNOG00281	EH
defNOG00282	G
defNOG00283	S
defNOG00284	C
defNOG00285	J
defNOG00286	C
defNOG00287	S
defNOG00288	H
defNOG00289	P
defNOG00290	S
defNOG00291	K
defNOG00292	F
defNOG00293	C
defNOG00294	E
defNOG00295	J
defNOG00296	J
defNOG00297	O
defNOG00298	P
defNOG00299	K
defNOG00300	F
defNOG00301	H
defNOG00302	C
defNOG00303	E
defNOG00304	R
defNOG00305	P
defNOG00306	C
defNOG00307	J
defNOG00308	D
defNOG00309	G
defNOG00310	C
defNOG00311	E
defNOG00312	Q
defNOG00313	G
defNOG00314	C
defNOG00315	E
defNOG00316	J
defNOG00317	F
defNOG00318	E
defNOG00319	Q
defNOG00320	I
defNOG00321	N
defNOG00322	Q
defNOG00323	H
defNOG00324	M
defNOG00325	U
defNOG00326	V
defNOG00327	C
defNOG00328	C
defNOG00329	E
defNOG00330	T
defNOG00331	N
defNOG00332	U
defNOG00333	M
defNOG00334	C
defNOG00335	V
defNOG00336	P
defNOG00337	S
defNOG00338	J
defNOG00339	I
defNOG00340	J
defNOG00341	K
defNOG00342	R
defNOG00343	L
defNOG00344	C
defNOG00345	F
defNOG00346	L
defNOG00347	M
defNOG00348	S
defNOG00349	L
defNOG00350	K
defNOG00351	Q
defNOG00352	T
defNOG00353	C
defNOG00354	I
defNOG00355	M
defNOG00356	C
defNOG00357	J
defNOG00358	H
defNOG00359	E
defNOG00360	P
defNOG00361	I
defNOG00362	D
defNOG00363	C
defNOG00364	O
defNOG00365	KO
defNOG00366	C
defNOG00367	O
defNOG00368	E
defNOG00369	C
defNOG00370	J
defNOG00371	F
defNOG00372	S
defNOG00373	E
defNOG00374	NU
defNOG00375	C
defNOG00376	E
defNOG00377	E
defNOG00378	E
defNOG00379	E
defNOG00380	O
defNOG00381	D
defNOG00382	H
defNOG00383	J
defNOG00384	C
defNOG00385	K
defNOG00386	O
defNOG00387	L
defNOG00388	O
defNOG00389	H
defNOG00390	E
defNOG00391	O
defNOG00392	H
defNOG00393	D
defNOG00394	M
defNOG00395	P
defNOG00396	E
defNOG00397	J
defNOG00398	H
defNOG00399	J
defNOG00400	D
defNOG00401	K
defNOG00402	R
defNOG00403	H
defNOG00404	L
defNOG00405	M
defNOG00406	G
defNOG00407	O
defNOG00408	E
defNOG00409	NT
defNOG00410	H
defNOG00411	M
defNOG00412	M
defNOG00413	E
defNOG00414	M
defNOG00415	K
defNOG00416	R
defNOG00417	E
defNOG00418	J
defNOG00419	J
defNOG00420	L
defNOG00421	J
defNOG00422	J
defNOG00423	F
defNOG00424	I
defNOG00425	I
defNOG00426	G
defNOG00427	S
defNOG00428	P
defNOG00429	E
defNOG00430	C
defNOG00431	O
defNOG00432	L
defNOG00433	I
defNOG00434	R
defNOG00435	E
defNOG00436	H
defNOG00437	F
defNOG00438	S
defNOG00439	L
defNOG00440	OT
defNOG00441	C
defNOG00442	C
defNOG00443	R
defNOG00444	L
defNOG00445	E
defNOG00446	E
defNOG00447	H
defNOG00448	R
defNOG00449	C
defNOG00450	C
defNOG00451	E
defNOG00452	E
defNOG00453	N
defNOG00454	R
defNOG00455	M
defNOG00456	R
defNOG00457	H
defNOG00458	E
defNOG00459	M
defNOG00460	E
defNOG00461	J
defNOG00462	I
defNOG00463	L
defNOG00464	R
defNOG00465	E
defNOG00466	V
defNOG00467	J
defNOG00468	O
defNOG00469	E
defNOG00470	R
defNOG00471	K
defNOG00472	M
defNOG00473	T
defNOG00474	C
defNOG00475	I
defNOG00476	C
defNOG00477	J
defNOG00478	C
defNOG00479	J
defNOG00480	J
defNOG00481	C
defNOG00482	O
defNOG00483	G
defNOG00484	NU
defNOG00485	M
defNOG00486	T
defNOG00487	R
defNOG00488	C
defNOG00489	F
defNOG00490	L
defNOG00491	K
defNOG00492	T
defNOG00493	T
defNOG00494	T
defNOG00495	C
defNOG00496	O
defNOG00497	N
defNOG00498	E
defNOG00499	U
defNOG00500	K
defNOG00501	J
defNOG00502	L
defNOG00503	L
defNOG00504	M
defNOG00505	N
defNOG00506	T
defNOG00507	I
defNOG00508	E
defNOG00509	F
defNOG00510	V
defNOG00511	K
defNOG00512	T
defNOG00513	J
defNOG00514	C
defNOG00515	J
defNOG00516	E
defNOG00517	S
defNOG00518	R
defNOG00519	R
defNOG00520	J
defNOG00521	P
defNOG00522	E
defNOG00523	T
defNOG00524	I
defNOG00525	E
defNOG00526	NT
defNOG00527	K
defNOG00528	C
defNOG00529	EP
defNOG00530	E
defNOG00531	G
defNOG00532	C
defNOG00533	I
defNOG00534	J
defNOG00535	C
defNOG00536	M
defNOG00537	H
defNOG00538	I
defNOG00539	L
defNOG00540	M
defNOG00541	C
defNOG00542	U
defNOG00543	J
defNOG00544	N
defNOG00545	M
defNOG00546	C
defNOG00547	E
defNOG00548	M
defNOG00549	E
defNOG00550	T
defNOG00551	E
defNOG00552	S
defNOG00553	U
defNOG00554	L
defNOG00555	S
defNOG00556	S
defNOG00557	O
defNOG00558	J
defNOG00559	I
defNOG00560	C
defNOG00561	R
defNOG00562	H
defNOG00563	E
defNOG00564	S
defNOG00565	D
defNOG00566	M
defNOG00567	M
defNOG00568	E
defNOG00569	F
defNOG00570	S
defNOG00571	N
defNOG00572	H
defNOG00573	M
defNOG00574	F
defNOG00575	M
defNOG00576	F
defNOG00577	L
defNOG00578	L
defNOG00579	NU
defNOG00580	J
defNOG00581	C
defNOG00582	H
defNOG00583	T
defNOG00584	C
defNOG00585	O
defNOG00586	H
defNOG00587	H
defNOG00588	E
defNOG00589	NU
defNOG00590	I
defNOG00591	O
defNOG00592	D
defNOG00593	L
defNOG00594	C
defNOG00595	H
defNOG00596	E
defNOG00597	E
defNOG00598	R
defNOG00599	H
defNOG00600	P
defNOG00601	O
defNOG00602	C
defNOG00603	M
defNOG00604	J
defNOG00605	O
defNOG00606	F
defNOG00607	O
defNOG00608	C
defNOG00609	E
defNOG00610	R
defNOG00611	R
defNOG00612	D
defNOG00613	N
defNOG00614	M
defNOG00615	C
defNOG00616	U
defNOG00617	T
defNOG00618	J
defNOG00619	E
defNOG00620	I
defNOG00621	R
defNOG00622	R
defNOG00623	U
defNOG00624	I
defNOG00625	I
defNOG00626	C
defNOG00627	KT
defNOG00628	M
defNOG00629	C
defNOG00630	C
defNOG00631	F
defNOG00632	J
defNOG00633	E
defNOG00634	M
defNOG00635	E
defNOG00636	C
defNOG00637	C
defNOG00638	T
defNOG00639	U
defNOG00640	S
defNOG00641	M
defNOG00642	E
defNOG00643	H
defNOG00644	C
defNOG00645	E
defNOG00646	C
defNOG00647	M
defNOG00648	U
defNOG00649	N
defNOG00650	M
defNOG00651	D
defNOG00652	C
defNOG00653	I
defNOG00654	E
defNOG00655	G
defNOG00656	M
defNOG00657	N
defNOG00658	R
defNOG00659	M
defNOG00660	C
defNOG00661	H
defNOG00662	E
defNOG00663	H
defNOG00664	O
defNOG00665	T
defNOG00666	L
defNOG00667	E
defNOG00668	P
defNOG00669	S
defNOG00670	E
defNOG00671	C
defNOG00672	P
defNOG00673	O
defNOG00674	L
defNOG00675	T
defNOG00676	G
defNOG00677	J
defNOG00678	M
defNOG00679	R
defNOG00680	T
defNOG00681	J
defNOG00682	C
defNOG00683	Q
defNOG00684	C
defNOG00685	E
defNOG00686	M
defNOG00687	E
defNOG00688	K
defNOG00689	N
defNOG00690	M
defNOG00691	E
defNOG00692	C
defNOG00693	O
defNOG00694	E
defNOG00695	R
defNOG00696	Q
defNOG00697	U
defNOG00698	C
defNOG00699	R
defNOG00700	H
defNOG00701	E
defNOG00702	F
defNOG00703	U
defNOG00704	C
defNOG00705	E
defNOG00706	E
defNOG00707	R
defNOG00708	V
defNOG00709	R
defNOG00710	T
defNOG00711	N
defNOG00712	S
defNOG00713	G
defNOG00714	M
defNOG00715	C
defNOG00716	L
defNOG00717	N
defNOG00718	R
defNOG00719	S
defNOG00720	I
defNOG00721	N
defNOG00722	H
defNOG00723	E
defNOG00724	R
defNOG00725	T
defNOG00726	E
defNOG00727	M
defNOG00728	C
defNOG00729	E
defNOG00730	P
defNOG00731	C
defNOG00732	E
defNOG00733	G
defNOG00734	L
defNOG00735	S
defNOG00736	N
defNOG00737	T
defNOG00738	S
defNOG00739	S
defNOG00740	M
defNOG00741	S
defNOG00742	F
defNOG00743	E
defNOG00744	V
defNOG00745	E
defNOG00746	D
defNOG00747	F
defNOG00748	H
defNOG00749	G
defNOG00750	Q
defNOG00751	M
defNOG00752	R
defNOG00753	V
defNOG00754	M
defNOG00755	C
defNOG00756	E
defNOG00757	GM
defNOG00758	E
defNOG00759	R
defNOG00760	C
defNOG00761	R
defNOG00762	C
defNOG00763	R
defNOG00764	L
defNOG00765	G
defNOG00766	C
defNOG00767	E
defNOG00768	E
defNOG00769	J
defNOG00770	J
defNOG00771	T
defNOG00772	I
defNOG00773	C
defNOG00774	K
defNOG00775	S
defNOG00776	M
defNOG00777	L
defNOG00778	J
defNOG00779	C
defNOG00780	L
defNOG00781	J
defNOG00782	R
defNOG00783	J
defNOG00784	S
defNOG00785	S
defNOG00786	R
defNOG00787	R
defNOG00788	OU
defNOG00789	L
defNOG00790	S
defNOG00791	C
defNOG00792	S
defNOG00793	S
defNOG00794	K
defNOG00795	H
defNOG00796	P
defNOG00797	G
defNOG00798	R
defNOG00799	P
defNOG00800	J
defNOG00801	M
defNOG00802	G
defNOG00803	F
defNOG00804	C
defNOG00805	T
defNOG00806	T
defNOG00807	T
defNOG00808	J
defNOG00809	M
defNOG00810	R
defNOG00811	H
defNOG00812	J
defNOG00813	R
defNOG00814	M
defNOG00815	E
defNOG00816	R
defNOG00817	K
defNOG00818	J
defNOG00819	C
defNOG00820	O
defNOG00821	O
defNOG00822	F
defNOG00823	I
defNOG00824	M
defNOG00825	S
defNOG00826	R
defNOG00827	G
defNOG00828	J
defNOG00829	T
defNOG00830	T
defNOG00831	R
defNOG00832	J
defNOG00833	L
defNOG00834	R
defNOG00835	S
defNOG00836	S
defNOG00837	S
defNOG00838	L
defNOG00839	R
defNOG00840	E
defNOG00841	U
defNOG00842	J
defNOG00843	U
defNOG00844	F
defNOG00845	H
defNOG00846	C
defNOG00847	R
defNOG00848	H
defNOG00849	L
defNOG00850	M
defNOG00851	T
defNOG00852	E
defNOG00853	J
defNOG00854	D
defNOG00855	J
defNOG00856	L
defNOG00857	S
defNOG00858	E
defNOG00859	E
defNOG00860	G
defNOG00861	S
defNOG00862	L
defNOG00863	M
defNOG00864	R
defNOG00865	C
defNOG00866	V
defNOG00867	S
defNOG00868	S
defNOG00869	E
defNOG00870	E
defNOG00871	K
defNOG00872	J
defNOG00873	D
defNOG00874	E
defNOG00875	O
defNOG00876	M
defNOG00877	R
defNOG00878	S
defNOG00879	S
defNOG00880	T
defNOG00881	S
defNOG00882	C
defNOG00883	S
defNOG00884	M
defNOG00885	H
defNOG00886	F
defNOG00887	P
defNOG00888	R
defNOG00889	F
defNOG00890	E
defNOG00891	S
defNOG00892	N
defNOG00893	S
defNOG00894	N
defNOG00895	R
defNOG00896	T
defNOG00897	S
defNOG00898	O
defNOG00899	I
defNOG00900	T
defNOG00901	S
defNOG00902	F
defNOG00903	N
defNOG00904	K
defNOG00905	H
defNOG00906	NOU
defNOG00907	Q
defNOG00908	F
defNOG00909	C
defNOG00910	P
defNOG00911	T
defNOG00912	E
defNOG00913	NU
defNOG00914	F
defNOG00915	J
defNOG00916	EG
defNOG00917	E
defNOG00918	S
defNOG00919	S
defNOG00920	T
defNOG00921	H
defNOG00922	H
defNOG00923	P
defNOG00924	J
defNOG00925	J
defNOG00926	EG
defNOG00927	D
defNOG00928	I
defNOG00929	O
defNOG00930	R
defNOG00931	S
defNOG00932	J
defNOG00933	S
defNOG00934	E
defNOG00935	N
defNOG00936	R
defNOG00937	S
defNOG00938	L
defNOG00939	E
defNOG00940	I
defNOG00941	F
defNOG00942	F
defNOG00943	O
defNOG00944	P
defNOG00945	C
defNOG00946	S
defNOG00947	E
defNOG00948	J
defNOG00949	I
defNOG00950	S
defNOG00951	P
defNOG00952	FG
defNOG00953	O
defNOG00954	S
defNOG00955	R
defNOG00956	F
defNOG00957	O
defNOG00958	I
defNOG00959	E
defNOG00960	S
defNOG00961	J
defNOG00962	H
defNOG00963	S
defNOG00964	R
defNOG00965	L
defNOG00966	K
defNOG00967	L
defNOG00968	S
defNOG00969	S
defNOG00970	R
defNOG00971	M
defNOG00972	I
defNOG00973	H
defNOG00974	H
defNOG00975	R
defNOG00976	S
defNOG00977	T
defNOG00978	C
defNOG00979	BK
defNOG00980	K
defNOG00981	L
defNOG00982	E
defNOG00983	S
defNOG00984	S
defNOG00985	S
defNOG00986	P
defNOG00987	C
defNOG00988	S
defNOG00989	J
defNOG00990	S
defNOG00991	C
defNOG00992	M
defNOG00993	S
defNOG00994	S
defNOG00995	S
defNOG00996	S
defNOG00997	R
defNOG00998	S
defNOG00999	R
defNOG01000	I
defNOG01001	M
defNOG01002	T
defNOG01003	M
defNOG01004	T
defNOG01005	K
defNOG01006	K
defNOG01007	K
defNOG01008	T
defNOG01009	R
defNOG01010	R
defNOG01011	C
defNOG01012	J
defNOG01013	J
defNOG01014	S
defNOG01015	R
defNOG01016	J
defNOG01017	K
defNOG01018	S
defNOG01019	H
defNOG01020	I
defNOG01021	G
defNOG01022	H
defNOG01023	K
defNOG01024	J
defNOG01025	H
defNOG01026	S
defNOG01027	R
defNOG01028	T
defNOG01029	S
defNOG01030	S
defNOG01031	U
defNOG01032	M
defNOG01033	M
defNOG01034	E
defNOG01035	E
defNOG01036	J
defNOG01037	E
defNOG01038	S
defNOG01039	S
defNOG01040	R
defNOG01041	J
defNOG01042	N
defNOG01043	S
defNOG01044	G
defNOG01045	S
defNOG01046	R
defNOG01047	O
defNOG01048	P
defNOG01049	J
defNOG01050	F
defNOG01051	R
defNOG01052	I
defNOG01053	Q
defNOG01054	M
defNOG01055	E
defNOG01056	J
defNOG01057	J
defNOG01058	L
defNOG01059	R
defNOG01060	E
defNOG01061	R
defNOG01062	S
defNOG01063	J
defNOG01064	S
defNOG01065	S
defNOG01066	C
defNOG01067	R
defNOG01068	J
defNOG01069	C
defNOG01070	P
defNOG01071	E
defNOG01072	L
defNOG01073	R
defNOG01074	C
defNOG01075	I
defNOG01076	S
defNOG01077	J
defNOG01078	K
defNOG01079	T
defNOG01080	R
defNOG01081	J
defNOG01082	P
defNOG01083	C
defNOG01084	J
defNOG01085	J
defNOG01086	N
defNOG01087	P
defNOG01088	S
defNOG01089	H
defNOG01090	K
defNOG01091	I
defNOG01092	V
defNOG01093	R
defNOG01094	MU
defNOG01095	S
defNOG01096	R
defNOG01097	C
defNOG01098	P
defNOG01099	J
defNOG01100	G
defNOG01101	R
defNOG01102	S
defNOG01103	R
defNOG01104	S
defNOG01105	C
defNOG01106	S
defNOG01107	FG
defNOG01108	K
defNOG01109	R
defNOG01110	L
defNOG01111	P
defNOG01112	J
defNOG01113	U
defNOG01114	S
defNOG01115	S
defNOG01116	O
defNOG01117	R
defNOG01118	S
defNOG01119	T
defNOG01120	F
defNOG01121	M
defNOG01122	O
defNOG01123	E
defNOG01124	G
defNOG01125	J
defNOG01126	K
defNOG01127	S
defNOG01128	O
defNOG01129	T
defNOG01130	P
defNOG01131	L
defNOG01132	L
defNOG01133	S
defNOG01134	J
defNOG01135	S
defNOG01136	O
defNOG01137	S
defNOG01138	J
defNOG01139	T
defNOG01140	G
defNOG01141	G
defNOG01142	M
defNOG01143	I
defNOG01144	Q
defNOG01145	E
defNOG01146	E
defNOG01147	H
defNOG01148	S
defNOG01149	T
defNOG01150	S
defNOG01151	H
defNOG01152	M
defNOG01153	S
defNOG01154	I
defNOG01155	E
defNOG01156	L
defNOG01157	S
defNOG01158	E
defNOG01159	S
defNOG01160	U
defNOG01161	E
defNOG01162	R
defNOG01163	S
defNOG01164	R
defNOG01165	S
defNOG01166	M
defNOG01167	H
defNOG01168	S
defNOG01169	FJ
defNOG01170	L
defNOG01171	C
defNOG01172	S
defNOG01173	G
defNOG01174	M
defNOG01175	S
defNOG01176	R
defNOG01177	K
defNOG01178	S
defNOG01179	H
defNOG01180	M
defNOG01181	J
defNOG01182	R
defNOG01183	L
defNOG01184	J
defNOG01185	S
defNOG01186	T
defNOG01187	I
defNOG01188	R
defNOG01189	C
defNOG01190	R
defNOG01191	M
defNOG01192	S
defNOG01193	M
defNOG01194	T
defNOG01195	P
defNOG01196	N
defNOG01197	L
defNOG01198	V
defNOG01199	R
defNOG01200	K
defNOG01201	N
defNOG01202	E
defNOG01203	S
defNOG01204	J
defNOG01205	S
defNOG01206	O
defNOG01207	I
defNOG01208	L
defNOG01209	S
defNOG01210	S
defNOG01211	C
defNOG01212	T
defNOG01213	U
defNOG01214	G
defNOG01215	S
defNOG01216	R
defNOG01217	G
defNOG01218	S
defNOG01219	L
defNOG01220	T
defNOG01221	J
defNOG01222	H
defNOG01223	S
defNOG01224	J
defNOG01225	S
defNOG01226	F
defNOG01227	O
defNOG01228	H
defNOG01229	S
defNOG01230	M
defNOG01231	R
defNOG01232	M
defNOG01233	S
defNOG01234	S
defNOG01235	S
defNOG01236	G
defNOG01237	J
defNOG01238	K
defNOG01239	C
defNOG01240	K
defNOG01241	S
defNOG01242	S
defNOG01243	H
defNOG01244	T
defNOG01245	P
defNOG01246	S
defNOG01247	H
defNOG01248	S
defNOG01249	S
defNOG01250	O
defNOG01251	C
defNOG01252	J
defNOG01253	R
defNOG01254	S
defNOG01255	F
defNOG01256	J
defNOG01257	D
defNOG01258	L
defNOG01259	S
defNOG01260	J
defNOG01261	G
defNOG01262	L
defNOG01263	J
defNOG01264	J
defNOG01265	J
defNOG01266	L
defNOG01267	EG
defNOG01268	M
defNOG01269	O
defNOG01270	M
defNOG01271	M
defNOG01272	G
defNOG01273	O
defNOG01274	C
defNOG01275	H
defNOG01276	O
defNOG01277	L
defNOG01278	M
defNOG01279	J
defNOG01280	J
defNOG01281	I
defNOG01282	L
defNOG01283	S
defNOG01284	J
defNOG01285	R
defNOG01286	S
defNOG01287	R
defNOG01288	I
defNOG01289	O
defNOG01290	U
defNOG01291	S
defNOG01292	T
defNOG01293	S
defNOG01294	R
defNOG01295	U
defNOG01296	S
defNOG01297	E
defNOG01298	P
defNOG01299	M
defNOG01300	T
defNOG01301	S
defNOG01302	S
defNOG01303	R
defNOG01304	S
defNOG01305	J
defNOG01306	N
defNOG01307	G
defNOG01308	C
defNOG01309	H
defNOG01310	S
defNOG01311	H
defNOG01312	O
defNOG01313	J
defNOG01314	S
defNOG01315	M
defNOG01316	K
defNOG01317	C
defNOG01318	NT
defNOG01319	N
defNOG01320	M
defNOG01321	T
defNOG01322	R
defNOG01323	I
defNOG01324	H
defNOG01325	O
defNOG01326	H
defNOG01327	T
defNOG01328	S
defNOG01329	S
defNOG01330	M
defNOG01331	U
defNOG01332	S
defNOG01333	S
defNOG01334	S
defNOG01335	C
defNOG01336	S
defNOG01337	S
defNOG01338	S
defNOG01339	S
defNOG01340	F
defNOG01341	S
defNOG01342	L
defNOG01343	J
defNOG01344	S
defNOG01345	S
defNOG01346	S
defNOG01347	S
defNOG01348	S
defNOG01349	T
defNOG01350	L
defNOG01351	S
defNOG01352	S
defNOG01353	R
defNOG01354	G
defNOG01355	S
defNOG01356	S
defNOG01357	T
defNOG01358	T
defNOG01359	S
defNOG01360	T
defNOG01361	K
defNOG01362	J
defNOG01363	N
defNOG01364	N
defNOG01365	S
defNOG01366	S
defNOG01367	U
defNOG01368	E
defNOG01369	S
defNOG01370	S
defNOG01371	J
defNOG01372	S
defNOG01373	N
defNOG01374	I
defNOG01375	S
defNOG01376	R
defNOG01377	O
defNOG01378	O
defNOG01379	C
defNOG01380	J
defNOG01381	J
defNOG01382	R
defNOG01383	S
defNOG01384	E
defNOG01385	R
defNOG01386	S
defNOG01387	J
defNOG01388	S
defNOG01389	S
defNOG01390	K
defNOG01391	S
defNOG01392	S
defNOG01393	S
defNOG01394	C
defNOG01395	S
defNOG01396	S
defNOG01397	O
defNOG01398	S
defNOG01399	U
defNOG01400	S
defNOG01401	S
defNOG01402	U
defNOG01403	N
defNOG01404	S
defNOG01405	J
defNOG01406	S
defNOG01407	S
defNOG01408	S
defNOG01409	N
defNOG01410	J
defNOG01411	EH
defNOG01412	N
defNOG01413	N
defNOG01414	S
defNOG01415	T
defNOG01416	S
defNOG01417	S
defNOG01418	S
defNOG01419	S
defNOG01420	S
defNOG01421	V
defNOG01422	S
defNOG01423	S
defNOG01424	E
defNOG01425	J
defNOG01426	P
defNOG01427	S
defNOG01428	S
defNOG01429	S
defNOG01430	O
defNOG01431	S
defNOG01432	S
defNOG01433	O
defNOG01434	J
defNOG01435	J
defNOG01436	M
defNOG01437	S
defNOG01438	S
defNOG01439	J
defNOG01440	S
defNOG01441	T
defNOG01442	M
defNOG01443	S
defNOG01444	S
defNOG01445	S
defNOG01446	J
defNOG01447	G
defNOG01448	K
defNOG01449	S
defNOG01450	S
defNOG01451	S
defNOG01452	R
defNOG01453	S
defNOG01454	C
defNOG01455	K
defNOG01456	S
defNOG01457	S
defNOG01458	H
defNOG01459	Q
defNOG01460	S
defNOG01461	E
defNOG01462	R
defNOG01463	C
defNOG01464	P
defNOG01465	H
defNOG01466	L
defNOG01467	K
defNOG01468	C
defNOG01469	M
defNOG01470	S
defNOG01471	S
defNOG01472	S
defNOG01473	S
defNOG01474	S
defNOG01475	K
defNOG01476	C
defNOG01477	O
defNOG01478	I
defNOG01479	S
defNOG01480	S
defNOG01481	J
defNOG01482	C
defNOG01483	S
defNOG01484	N
defNOG01485	K
defNOG01486	P
defNOG01487	C
defNOG01488	J
defNOG01489	S
defNOG01490	S
defNOG01491	S
defNOG01492	S
defNOG01493	K
defNOG01494	S
defNOG01495	S
defNOG01496	S
defNOG01497	L
defNOG01498	T
defNOG01499	H
defNOG01500	S
defNOG01501	S
defNOG01502	M
defNOG01503	S
defNOG01504	S
defNOG01505	J
defNOG01506	U
defNOG01507	S
defNOG01508	S
defNOG01509	S
defNOG01510	J
defNOG01511	N
defNOG01512	S
defNOG01513	S
defNOG01514	H
defNOG01515	K
defNOG01516	S
defNOG01517	R
defNOG01518	S
defNOG01519	S
defNOG01520	S
defNOG01521	S
defNOG01522	S
defNOG01523	K
defNOG01524	S
defNOG01525	N
defNOG01526	I
defNOG01527	S
defNOG01528	S
defNOG01529	S
defNOG01530	S
defNOG01531	S
defNOG01532	K
defNOG01533	N
defNOG01534	S
defNOG01535	S
defNOG01536	S
defNOG01537	S
defNOG01538	S
defNOG01539	V
defNOG01540	S
defNOG01541	S
defNOG01542	P
defNOG01543	P
defNOG01544	S
defNOG01545	C
defNOG01546	S
defNOG01547	P
defNOG01548	P
defNOG01549	R
defNOG01550	L
defNOG01551	S
defNOG01552	P
defNOG01553	S
defNOG01554	S
defNOG01555	S
defNOG01556	R
defNOG01557	S
defNOG01558	S
defNOG01559	S
defNOG01560	J
defNOG01561	K
defNOG01562	S
defNOG01563	S
defNOG01564	L
defNOG01565	S
defNOG01566	S
defNOG01567	NT
defNOG01568	S
defNOG01569	C
defNOG01570	M
defNOG01571	V
defNOG01572	P
defNOG01573	OU
defNOG01574	F
defNOG01575	L
defNOG01576	L
defNOG01577	K
defNOG01578	S
defNOG01579	H
defNOG01580	V
defNOG01581	E
defNOG01582	L
defNOG01583	D
defNOG01584	M
defNOG01585	C
defNOG01586	P
defNOG01587	C
defNOG01588	C
defNOG01589	E
defNOG01590	P
defNOG01591	S
defNOG01592	D
defNOG01593	T
defNOG01594	T
defNOG01595	EP
defNOG01596	S
defNOG01597	S
defNOG01598	T
defNOG01599	L
defNOG01600	C
defNOG01601	U
defNOG01602	C
defNOG01603	L
defNOG01604	T
defNOG01605	C
defNOG01606	H
defNOG01607	T
defNOG01608	E
defNOG01609	H
defNOG01610	S
defNOG01611	D
defNOG01612	S
defNOG01613	E
defNOG01614	R
defNOG01615	C
defNOG01616	L
defNOG01617	T
defNOG01618	T
defNOG01619	E
defNOG01620	C
defNOG01621	F
defNOG01622	IQ
defNOG01623	C
defNOG01624	T
defNOG01625	R
defNOG01626	L
defNOG01627	R
defNOG01628	G
defNOG01629	E
defNOG01630	E
defNOG01631	E
defNOG01632	E
defNOG01633	C
defNOG01634	O
defNOG01635	T
defNOG01636	N
defNOG01637	C
defNOG01638	C
defNOG01639	S
defNOG01640	C
defNOG01641	S
defNOG01642	C
defNOG01643	C
defNOG01644	C
defNOG01645	R
defNOG01646	R
defNOG01647	T
defNOG01648	P
defNOG01649	CP
defNOG01650	P
defNOG01651	T
defNOG01652	E
defNOG01653	D
defNOG01654	C
defNOG01655	L
defNOG01656	C
defNOG01657	T
defNOG01658	K
defNOG01659	C
defNOG01660	U
defNOG01661	S
defNOG01662	M
defNOG01663	C
defNOG01664	P
defNOG01665	O
defNOG01666	R
defNOG01667	M
defNOG01668	S
defNOG01669	K
defNOG01670	S
defNOG01671	G
defNOG01672	C
defNOG01673	V
defNOG01674	R
defNOG01675	M
defNOG01676	NT
defNOG01677	S
defNOG01678	S
defNOG01679	P
defNOG01680	P
defNOG01681	E
defNOG01682	P
defNOG01683	S
defNOG01684	S
defNOG01685	G
defNOG01686	E
defNOG01687	Q
defNOG01688	C
defNOG01689	S
defNOG01690	T
defNOG01691	U
defNOG01692	P
defNOG01693	P
defNOG01694	T
defNOG01695	H
defNOG01696	C
defNOG01697	R
defNOG01698	G
defNOG01699	S
defNOG01700	C
defNOG01701	T
defNOG01702	T
defNOG01703	P
defNOG01704	P
defNOG01705	L
defNOG01706	C
defNOG01707	C
defNOG01708	O
defNOG01709	S
defNOG01710	C
defNOG01711	C
defNOG01712	O
defNOG01713	C
defNOG01714	T
defNOG01715	R
defNOG01716	P
defNOG01717	S
defNOG01718	G
defNOG01719	S
defNOG01720	BQ
defNOG01721	N
defNOG01722	S
defNOG01723	P
defNOG01724	C
defNOG01725	G
defNOG01726	P
defNOG01727	S
defNOG01728	CP
defNOG01729	E
defNOG01730	O
defNOG01731	L
defNOG01732	C
defNOG01733	C
defNOG01734	P
defNOG01735	M
defNOG01736	T
defNOG01737	H
defNOG01738	L
defNOG01739	H
defNOG01740	S
defNOG01741	P
defNOG01742	S
defNOG01743	V
defNOG01744	G
defNOG01745	P
defNOG01746	S
defNOG01747	H
defNOG01748	H
defNOG01749	CK
defNOG01750	V
defNOG01751	L
defNOG01752	H
defNOG01753	E
defNOG01754	V
defNOG01755	C
defNOG01756	C
defNOG01757	R
defNOG01758	T
defNOG01759	H
defNOG01760	S
defNOG01761	S
defNOG01762	R
defNOG01763	C
defNOG01764	T
defNOG01765	E
defNOG01766	G
defNOG01767	P
defNOG01768	S
defNOG01769	C
defNOG01770	R
defNOG01771	M
defNOG01772	EP
defNOG01773	V
defNOG01774	T
defNOG01775	C
defNOG01776	G
defNOG01777	C
defNOG01778	F
defNOG01779	R
defNOG01780	S
defNOG01781	M
defNOG01782	M
defNOG01783	C
defNOG01784	CP
defNOG01785	P
defNOG01786	H
defNOG01787	C
defNOG01788	R
defNOG01789	S
defNOG01790	E
defNOG01791	L
defNOG01792	S
defNOG01793	L
defNOG01794	P
defNOG01795	S
defNOG01796	T
defNOG01797	O
defNOG01798	T
defNOG01799	R
defNOG01800	L
defNOG01801	EP
defNOG01802	O
defNOG01803	M
defNOG01804	S
defNOG01805	R
defNOG01806	M
defNOG01807	R
defNOG01808	S
defNOG01809	G
defNOG01810	R
defNOG01811	S
defNOG01812	N
defNOG01813	R
defNOG01814	C
defNOG01815	R
defNOG01816	L
defNOG01817	S
defNOG01818	S
defNOG01819	O
defNOG01820	T
defNOG01821	E
defNOG01822	G
defNOG01823	S
defNOG01824	M
defNOG01825	R
defNOG01826	M
defNOG01827	H
defNOG01828	I
defNOG01829	P
defNOG01830	S
defNOG01831	O
defNOG01832	T
defNOG01833	C
defNOG01834	P
defNOG01835	T
defNOG01836	L
defNOG01837	S
defNOG01838	H
defNOG01839	P
defNOG01840	T
defNOG01841	C
defNOG01842	C
defNOG01843	T
defNOG01844	E
defNOG01845	P
defNOG01846	G
defNOG01847	S
defNOG01848	M
defNOG01849	O
defNOG01850	M
defNOG01851	M
defNOG01852	R
defNOG01853	N
defNOG01854	D
defNOG01855	S
defNOG01856	K
defNOG01857	R
defNOG01858	T
defNOG01859	J
defNOG01860	H
defNOG01861	S
defNOG01862	E
defNOG01863	S
defNOG01864	R
defNOG01865	N
defNOG01866	L
defNOG01867	P
defNOG01868	L
defNOG01869	S
defNOG01870	H
defNOG01871	E
defNOG01872	P
defNOG01873	S
defNOG01874	M
defNOG01875	S
defNOG01876	T
defNOG01877	P
defNOG01878	M
defNOG01879	G
defNOG01880	O
defNOG01881	H
defNOG01882	S
defNOG01883	P
defNOG01884	O
defNOG01885	H
defNOG01886	O
defNOG01887	D
defNOG01888	M
defNOG01889	N
defNOG01890	P
defNOG01891	T
defNOG01892	S
defNOG01893	K
defNOG01894	S
defNOG01895	S
defNOG01896	S
defNOG01897	T
defNOG01898	J
defNOG01899	S
defNOG01900	R
defNOG01901	S
defNOG01902	S
defNOG01903	G
defNOG01904	S
defNOG01905	S
defNOG01906	H
defNOG01907	T
defNOG01908	S
defNOG01909	T
defNOG01910	V
defNOG01911	R
defNOG01912	S
defNOG01913	T
defNOG01914	G
defNOG01915	P
defNOG01916	P
defNOG01917	C
defNOG01918	S
defNOG01919	S
defNOG01920	C
defNOG01921	K
defNOG01922	D
defNOG01923	P
defNOG01924	S
defNOG01925	S
defNOG01926	S
defNOG01927	R
defNOG01928	E
defNOG01929	S
defNOG01930	M
defNOG01931	O
defNOG01932	M
defNOG01933	P
defNOG01934	T
defNOG01935	R
defNOG01936	P
defNOG01937	T
defNOG01938	L
defNOG01939	R
defNOG01940	R
defNOG01941	Q
defNOG01942	S
defNOG01943	L
defNOG01944	S
defNOG01945	T
defNOG01946	S
defNOG01947	S
defNOG01948	R
defNOG01949	S
defNOG01950	P
defNOG01951	S
defNOG01952	S
defNOG01953	M
defNOG01954	T
defNOG01955	S
defNOG01956	R
defNOG01957	O
defNOG01958	S
defNOG01959	S
defNOG01960	C
defNOG01961	T
defNOG01962	P
defNOG01963	I
defNOG01964	S
defNOG01965	K
defNOG01966	L
defNOG01967	S
defNOG01968	S
defNOG01969	P
defNOG01970	M
defNOG01971	Q
defNOG01972	L
defNOG01973	K
defNOG01974	R
defNOG01975	S
defNOG01976	S
defNOG01977	L
defNOG01978	K
defNOG01979	S
defNOG01980	NT
defNOG01981	C
defNOG01982	R
defNOG01983	M
defNOG01984	S
defNOG01985	L
defNOG01986	T
defNOG01987	U
defNOG01988	M
defNOG01989	S
defNOG01990	S
defNOG01991	H
defNOG01992	S
defNOG01993	NU
defNOG01994	K
defNOG01995	R
defNOG01996	S
defNOG01997	R
defNOG01998	S
defNOG01999	S
defNOG02000	P
defNOG02001	T
defNOG02002	S
defNOG02003	S
defNOG02004	R
defNOG02005	G
defNOG02006	K
defNOG02007	S
defNOG02008	R
defNOG02009	S
defNOG02010	T
defNOG02011	S
defNOG02012	L
defNOG02013	S
defNOG02014	S
defNOG02015	C
defNOG02016	S
defNOG02017	S
defNOG02018	S
defNOG02019	S
defNOG02020	S
defNOG02021	S
defNOG02022	S
defNOG02023	T
defNOG02024	K
defNOG02025	S
defNOG02026	S
defNOG02027	P
defNOG02028	R
defNOG02029	S
defNOG02030	Q
defNOG02031	P
defNOG02032	S
defNOG02033	S
defNOG02034	S
defNOG02035	F
defNOG02036	S
defNOG02037	S
defNOG02038	S
defNOG02039	P
defNOG02040	S
defNOG02041	E
defNOG02042	S
defNOG02043	R
defNOG02044	T
defNOG02045	S
defNOG02046	S
defNOG02047	S
defNOG02048	S
defNOG02049	S
defNOG02050	R
defNOG02051	S
defNOG02052	S
defNOG02053	T
defNOG02054	S
defNOG02055	S
defNOG02056	L
defNOG02057	P
defNOG02058	S
defNOG02059	R
defNOG02060	S
defNOG02061	S
defNOG02062	S
defNOG02063	S
defNOG02064	S
defNOG02065	S
defNOG02066	S
defNOG02067	S
defNOG02068	S
defNOG02069	L
defNOG02070	S
defNOG02071	T
defNOG02072	R
defNOG02073	S
defNOG02074	K
defNOG02075	S
defNOG02076	P
defNOG02077	S
defNOG02078	S
defNOG02079	T
defNOG02080	S
defNOG02081	S
defNOG02082	Q
defNOG02083	S
defNOG02084	R
defNOG02085	S
defNOG02086	S
defNOG02087	C
defNOG02088	S
defNOG02089	S
defNOG02090	K
defNOG02091	C
defNOG02092	S
defNOG02093	S
defNOG02094	R
defNOG02095	S
defNOG02096	S
defNOG02097	S
defNOG02098	S
