dehNOG04000	H
dehNOG04001	F
dehNOG04002	L
dehNOG04003	F
dehNOG04004	L
dehNOG04005	J
dehNOG04006	T
dehNOG04007	L
dehNOG04008	E
dehNOG04009	R
dehNOG04010	J
dehNOG04011	V
dehNOG04012	H
dehNOG04013	E
dehNOG04014	S
dehNOG04015	G
dehNOG04016	L
dehNOG04017	H
dehNOG04018	C
dehNOG04019	T
dehNOG04020	L
dehNOG04021	O
dehNOG04022	E
dehNOG04023	C
dehNOG04024	G
dehNOG04025	L
dehNOG04026	J
dehNOG04027	O
dehNOG04028	E
dehNOG04029	S
dehNOG04030	C
dehNOG04031	P
dehNOG04032	E
dehNOG04033	C
dehNOG04034	R
dehNOG04035	E
dehNOG04036	J
dehNOG04037	C
dehNOG04038	C
dehNOG04039	I
dehNOG04040	T
dehNOG04041	P
dehNOG04042	NU
dehNOG04043	J
dehNOG04044	K
dehNOG04045	S
dehNOG04046	E
dehNOG04047	I
dehNOG04048	T
dehNOG04049	E
dehNOG04050	E
dehNOG04051	D
dehNOG04052	E
dehNOG04053	L
dehNOG04054	U
dehNOG04055	K
dehNOG04056	R
dehNOG04057	E
dehNOG04058	C
dehNOG04059	J
dehNOG04060	H
dehNOG04061	J
dehNOG04062	P
dehNOG04063	G
dehNOG04064	I
dehNOG04065	J
dehNOG04066	R
dehNOG04067	J
dehNOG04068	E
dehNOG04069	I
dehNOG04070	J
dehNOG04071	R
dehNOG04072	O
dehNOG04073	J
dehNOG04074	E
dehNOG04075	J
dehNOG04076	M
dehNOG04077	E
dehNOG04078	J
dehNOG04079	U
dehNOG04080	F
dehNOG04081	V
dehNOG04082	E
dehNOG04083	J
dehNOG04084	P
dehNOG04085	O
dehNOG04086	F
dehNOG04087	R
dehNOG04088	H
dehNOG04089	F
dehNOG04090	R
dehNOG04091	E
dehNOG04092	L
dehNOG04093	C
dehNOG04094	I
dehNOG04095	C
dehNOG04096	S
dehNOG04097	G
dehNOG04098	P
dehNOG04099	C
dehNOG04100	E
dehNOG04101	J
dehNOG04102	P
dehNOG04103	P
dehNOG04104	E
dehNOG04105	G
dehNOG04106	J
dehNOG04107	J
dehNOG04108	C
dehNOG04109	G
dehNOG04110	H
dehNOG04111	S
dehNOG04112	H
dehNOG04113	L
dehNOG04114	O
dehNOG04115	C
dehNOG04116	M
dehNOG04117	R
dehNOG04118	L
dehNOG04119	J
dehNOG04120	H
dehNOG04121	H
dehNOG04122	H
dehNOG04123	C
dehNOG04124	O
dehNOG04125	H
dehNOG04126	G
dehNOG04127	D
dehNOG04128	S
dehNOG04129	L
dehNOG04130	H
dehNOG04131	E
dehNOG04132	R
dehNOG04133	H
dehNOG04134	K
dehNOG04135	D
dehNOG04136	I
dehNOG04137	R
dehNOG04138	M
dehNOG04139	K
dehNOG04140	C
dehNOG04141	E
dehNOG04142	J
dehNOG04143	E
dehNOG04144	I
dehNOG04145	J
dehNOG04146	F
dehNOG04147	E
dehNOG04148	G
dehNOG04149	C
dehNOG04150	BQ
dehNOG04151	T
dehNOG04152	F
dehNOG04153	D
dehNOG04154	C
dehNOG04155	P
dehNOG04156	F
dehNOG04157	K
dehNOG04158	M
dehNOG04159	C
dehNOG04160	I
dehNOG04161	J
dehNOG04162	L
dehNOG04163	C
dehNOG04164	J
dehNOG04165	P
dehNOG04166	C
dehNOG04167	S
dehNOG04168	U
dehNOG04169	K
dehNOG04170	L
dehNOG04171	C
dehNOG04172	L
dehNOG04173	R
dehNOG04174	T
dehNOG04175	J
dehNOG04176	J
dehNOG04177	K
dehNOG04178	C
dehNOG04179	D
dehNOG04180	F
dehNOG04181	A
dehNOG04182	O
dehNOG04183	H
dehNOG04184	J
dehNOG04185	S
dehNOG04186	R
dehNOG04187	J
dehNOG04188	J
dehNOG04189	L
dehNOG04190	I
dehNOG04191	J
dehNOG04192	J
dehNOG04193	S
dehNOG04194	C
dehNOG04195	H
dehNOG04196	C
dehNOG04197	J
dehNOG04198	C
dehNOG04199	E
dehNOG04200	T
dehNOG04201	S
dehNOG04202	E
dehNOG04203	O
dehNOG04204	O
dehNOG04205	K
dehNOG04206	J
dehNOG04207	S
dehNOG04208	G
dehNOG04209	G
dehNOG04210	R
dehNOG04211	J
dehNOG04212	E
dehNOG04213	G
dehNOG04214	G
dehNOG04215	P
dehNOG04216	O
dehNOG04217	E
dehNOG04218	F
dehNOG04219	S
dehNOG04220	K
dehNOG04221	L
dehNOG04222	F
dehNOG04223	K
dehNOG04224	S
dehNOG04225	E
dehNOG04226	P
dehNOG04227	L
dehNOG04228	G
dehNOG04229	L
dehNOG04230	R
dehNOG04231	M
dehNOG04232	S
dehNOG04233	E
dehNOG04234	M
dehNOG04235	E
dehNOG04236	E
dehNOG04237	E
dehNOG04238	R
dehNOG04239	L
dehNOG04240	H
dehNOG04241	E
dehNOG04242	E
dehNOG04243	L
dehNOG04244	R
dehNOG04245	T
dehNOG04246	F
dehNOG04247	S
dehNOG04248	J
dehNOG04249	F
dehNOG04250	CP
dehNOG04251	E
dehNOG04252	O
dehNOG04253	H
dehNOG04254	I
dehNOG04255	T
dehNOG04256	E
dehNOG04257	F
dehNOG04258	E
dehNOG04259	S
dehNOG04260	I
dehNOG04261	C
dehNOG04262	F
dehNOG04263	H
dehNOG04264	S
dehNOG04265	C
dehNOG04266	O
dehNOG04267	E
dehNOG04268	V
dehNOG04269	J
dehNOG04270	E
dehNOG04271	F
dehNOG04272	E
dehNOG04273	T
dehNOG04274	F
dehNOG04275	S
dehNOG04276	T
dehNOG04277	F
dehNOG04278	L
dehNOG04279	S
dehNOG04280	E
dehNOG04281	E
dehNOG04282	C
dehNOG04283	S
dehNOG04284	U
dehNOG04285	H
dehNOG04286	R
dehNOG04287	C
dehNOG04288	O
dehNOG04289	I
dehNOG04290	O
dehNOG04291	E
dehNOG04292	C
dehNOG04293	C
dehNOG04294	R
dehNOG04295	J
dehNOG04296	G
dehNOG04297	J
dehNOG04298	BK
dehNOG04299	S
dehNOG04300	O
dehNOG04301	S
dehNOG04302	S
dehNOG04303	P
dehNOG04304	E
dehNOG04305	F
dehNOG04306	S
dehNOG04307	E
dehNOG04308	O
dehNOG04309	L
dehNOG04310	P
dehNOG04311	E
dehNOG04312	F
dehNOG04313	L
dehNOG04314	H
dehNOG04315	E
dehNOG04316	E
dehNOG04317	F
dehNOG04318	L
dehNOG04319	M
dehNOG04320	L
dehNOG04321	R
dehNOG04322	E
dehNOG04323	I
dehNOG04324	L
dehNOG04325	E
dehNOG04326	J
dehNOG04327	U
dehNOG04328	L
dehNOG04329	E
dehNOG04330	R
dehNOG04331	R
dehNOG04332	E
dehNOG04333	J
dehNOG04334	R
dehNOG04335	J
dehNOG04336	L
dehNOG04337	E
dehNOG04338	R
dehNOG04339	R
dehNOG04340	K
dehNOG04341	D
dehNOG04342	E
dehNOG04343	H
dehNOG04344	P
dehNOG04345	F
dehNOG04346	J
dehNOG04347	H
dehNOG04348	C
dehNOG04349	O
dehNOG04350	E
dehNOG04351	S
dehNOG04352	L
dehNOG04353	E
dehNOG04354	C
dehNOG04355	P
dehNOG04356	J
dehNOG04357	E
dehNOG04358	L
dehNOG04359	S
dehNOG04360	L
dehNOG04361	T
dehNOG04362	O
dehNOG04363	O
dehNOG04364	R
dehNOG04365	E
dehNOG04366	H
dehNOG04367	O
dehNOG04368	S
dehNOG04369	J
dehNOG04370	P
dehNOG04371	L
dehNOG04372	M
dehNOG04373	Q
dehNOG04374	J
dehNOG04375	R
dehNOG04376	F
dehNOG04377	T
dehNOG04378	H
dehNOG04379	V
dehNOG04380	P
dehNOG04381	R
dehNOG04382	C
dehNOG04383	S
dehNOG04384	O
dehNOG04385	R
dehNOG04386	U
dehNOG04387	E
dehNOG04388	R
dehNOG04389	F
dehNOG04390	J
dehNOG04391	V
dehNOG04392	C
dehNOG04393	P
dehNOG04394	I
dehNOG04395	T
dehNOG04396	E
dehNOG04397	H
dehNOG04398	L
dehNOG04399	F
dehNOG04400	O
dehNOG04401	GM
dehNOG04402	C
dehNOG04403	S
dehNOG04404	M
dehNOG04405	H
dehNOG04406	S
dehNOG04407	G
dehNOG04408	E
dehNOG04409	J
dehNOG04410	T
dehNOG04411	J
dehNOG04412	T
dehNOG04413	O
dehNOG04414	R
dehNOG04415	F
dehNOG04416	C
dehNOG04417	O
dehNOG04418	L
dehNOG04419	M
dehNOG04420	J
dehNOG04421	E
dehNOG04422	S
dehNOG04423	E
dehNOG04424	M
dehNOG04425	F
dehNOG04426	T
dehNOG04427	O
dehNOG04428	R
dehNOG04429	J
dehNOG04430	E
dehNOG04431	E
dehNOG04432	L
dehNOG04433	J
dehNOG04434	NU
dehNOG04435	P
dehNOG04436	R
dehNOG04437	I
dehNOG04438	S
dehNOG04439	R
dehNOG04440	O
dehNOG04441	I
dehNOG04442	G
dehNOG04443	E
dehNOG04444	H
dehNOG04445	C
dehNOG04446	L
dehNOG04447	C
dehNOG04448	L
dehNOG04449	D
dehNOG04450	J
dehNOG04451	L
dehNOG04452	D
dehNOG04453	J
dehNOG04454	O
dehNOG04455	E
dehNOG04456	E
dehNOG04457	J
dehNOG04458	F
dehNOG04459	J
dehNOG04460	E
dehNOG04461	H
dehNOG04462	E
dehNOG04463	R
dehNOG04464	E
dehNOG04465	S
dehNOG04466	C
dehNOG04467	S
dehNOG04468	E
dehNOG04469	S
dehNOG04470	E
dehNOG04471	J
dehNOG04472	F
dehNOG04473	L
dehNOG04474	H
dehNOG04475	V
dehNOG04476	E
dehNOG04477	T
dehNOG04478	E
dehNOG04479	C
dehNOG04480	R
dehNOG04481	F
dehNOG04482	G
dehNOG04483	U
dehNOG04484	I
dehNOG04485	K
dehNOG04486	O
dehNOG04487	E
dehNOG04488	F
dehNOG04489	K
dehNOG04490	E
dehNOG04491	H
dehNOG04492	S
dehNOG04493	H
dehNOG04494	I
dehNOG04495	E
dehNOG04496	R
dehNOG04497	L
dehNOG04498	P
dehNOG04499	S
dehNOG04500	S
dehNOG04501	H
dehNOG04502	E
dehNOG04503	D
dehNOG04504	M
dehNOG04505	S
dehNOG04506	E
dehNOG04507	S
dehNOG04508	S
dehNOG04509	H
dehNOG04510	R
dehNOG04511	R
dehNOG04512	J
dehNOG04513	S
dehNOG04514	R
dehNOG04515	J
dehNOG04516	M
dehNOG04517	S
dehNOG04518	J
dehNOG04519	S
dehNOG04520	T
dehNOG04521	E
dehNOG04522	I
dehNOG04523	R
dehNOG04524	L
dehNOG04525	S
dehNOG04526	S
dehNOG04527	E
dehNOG04528	K
dehNOG04529	L
dehNOG04530	H
dehNOG04531	H
dehNOG04532	T
dehNOG04533	J
dehNOG04534	S
dehNOG04535	J
dehNOG04536	J
dehNOG04537	S
dehNOG04538	J
dehNOG04539	S
dehNOG04540	EG
dehNOG04541	T
dehNOG04542	NOU
dehNOG04543	T
dehNOG04544	S
dehNOG04545	C
dehNOG04546	K
dehNOG04547	U
dehNOG04548	G
dehNOG04549	E
dehNOG04550	P
dehNOG04551	L
dehNOG04552	F
dehNOG04553	L
dehNOG04554	L
dehNOG04555	F
dehNOG04556	S
dehNOG04557	E
dehNOG04558	L
dehNOG04559	F
dehNOG04560	S
dehNOG04561	R
dehNOG04562	P
dehNOG04563	G
dehNOG04564	J
dehNOG04565	J
dehNOG04566	S
dehNOG04567	T
dehNOG04568	P
dehNOG04569	H
dehNOG04570	C
dehNOG04571	P
dehNOG04572	S
dehNOG04573	H
dehNOG04574	S
dehNOG04575	J
dehNOG04576	M
dehNOG04577	L
dehNOG04578	L
dehNOG04579	Q
dehNOG04580	K
dehNOG04581	F
dehNOG04582	H
dehNOG04583	C
dehNOG04584	S
dehNOG04585	L
dehNOG04586	J
dehNOG04587	V
dehNOG04588	C
dehNOG04589	F
dehNOG04590	R
dehNOG04591	F
dehNOG04592	R
dehNOG04593	H
dehNOG04594	I
dehNOG04595	H
dehNOG04596	R
dehNOG04597	R
dehNOG04598	E
dehNOG04599	J
dehNOG04600	L
dehNOG04601	S
dehNOG04602	F
dehNOG04603	J
dehNOG04604	O
dehNOG04605	J
dehNOG04606	S
dehNOG04607	H
dehNOG04608	O
dehNOG04609	J
dehNOG04610	I
dehNOG04611	R
dehNOG04612	J
dehNOG04613	I
dehNOG04614	T
dehNOG04615	S
dehNOG04616	H
dehNOG04617	J
dehNOG04618	H
dehNOG04619	U
dehNOG04620	S
dehNOG04621	H
dehNOG04622	T
dehNOG04623	O
dehNOG04624	C
dehNOG04625	L
dehNOG04626	I
dehNOG04627	C
dehNOG04628	J
dehNOG04629	C
dehNOG04630	G
dehNOG04631	K
dehNOG04632	R
dehNOG04633	S
dehNOG04634	FG
dehNOG04635	T
dehNOG04636	F
dehNOG04637	J
dehNOG04638	T
dehNOG04639	C
dehNOG04640	J
dehNOG04641	L
dehNOG04642	J
dehNOG04643	H
dehNOG04644	S
dehNOG04645	G
dehNOG04646	H
dehNOG04647	C
dehNOG04648	S
dehNOG04649	G
dehNOG04650	E
dehNOG04651	J
dehNOG04652	S
dehNOG04653	S
dehNOG04654	S
dehNOG04655	J
dehNOG04656	J
dehNOG04657	S
dehNOG04658	S
dehNOG04659	J
dehNOG04660	S
dehNOG04661	J
dehNOG04662	S
dehNOG04663	R
dehNOG04664	E
dehNOG04665	G
dehNOG04666	S
dehNOG04667	P
dehNOG04668	S
dehNOG04669	C
dehNOG04670	L
dehNOG04671	K
dehNOG04672	O
dehNOG04673	C
dehNOG04674	O
dehNOG04675	H
dehNOG04676	K
dehNOG04677	L
dehNOG04678	S
dehNOG04679	F
dehNOG04680	J
dehNOG04681	C
dehNOG04682	S
dehNOG04683	F
dehNOG04684	R
dehNOG04685	O
dehNOG04686	R
dehNOG04687	H
dehNOG04688	E
dehNOG04689	O
dehNOG04690	R
dehNOG04691	S
dehNOG04692	J
dehNOG04693	K
dehNOG04694	C
dehNOG04695	V
dehNOG04696	S
dehNOG04697	L
dehNOG04698	S
dehNOG04699	J
dehNOG04700	K
dehNOG04701	S
dehNOG04702	I
dehNOG04703	H
dehNOG04704	S
dehNOG04705	H
dehNOG04706	S
dehNOG04707	J
dehNOG04708	R
dehNOG04709	C
dehNOG04710	J
dehNOG04711	E
dehNOG04712	J
dehNOG04713	J
dehNOG04714	J
dehNOG04715	S
dehNOG04716	T
dehNOG04717	S
dehNOG04718	T
dehNOG04719	K
dehNOG04720	R
dehNOG04721	S
dehNOG04722	J
dehNOG04723	F
dehNOG04724	S
dehNOG04725	E
dehNOG04726	S
dehNOG04727	H
dehNOG04728	C
dehNOG04729	S
dehNOG04730	E
dehNOG04731	J
dehNOG04732	L
dehNOG04733	R
dehNOG04734	V
dehNOG04735	T
dehNOG04736	S
dehNOG04737	R
dehNOG04738	K
dehNOG04739	L
dehNOG04740	S
dehNOG04741	S
dehNOG04742	R
dehNOG04743	H
dehNOG04744	T
dehNOG04745	R
dehNOG04746	C
dehNOG04747	S
dehNOG04748	E
dehNOG04749	K
dehNOG04750	R
dehNOG04751	C
dehNOG04752	R
dehNOG04753	S
dehNOG04754	J
dehNOG04755	K
dehNOG04756	S
dehNOG04757	S
dehNOG04758	P
dehNOG04759	J
dehNOG04760	C
dehNOG04761	P
dehNOG04762	J
dehNOG04763	S
dehNOG04764	J
dehNOG04765	S
dehNOG04766	V
dehNOG04767	T
dehNOG04768	S
dehNOG04769	P
dehNOG04770	P
dehNOG04771	S
dehNOG04772	S
dehNOG04773	C
dehNOG04774	O
dehNOG04775	R
dehNOG04776	S
dehNOG04777	R
dehNOG04778	J
dehNOG04779	S
dehNOG04780	S
dehNOG04781	J
dehNOG04782	J
dehNOG04783	L
dehNOG04784	J
dehNOG04785	S
dehNOG04786	I
dehNOG04787	K
dehNOG04788	T
dehNOG04789	S
dehNOG04790	H
dehNOG04791	C
dehNOG04792	L
dehNOG04793	L
dehNOG04794	S
dehNOG04795	S
dehNOG04796	T
dehNOG04797	S
dehNOG04798	J
dehNOG04799	G
dehNOG04800	K
dehNOG04801	P
dehNOG04802	R
dehNOG04803	V
dehNOG04804	L
dehNOG04805	R
dehNOG04806	S
dehNOG04807	S
dehNOG04808	M
dehNOG04809	S
dehNOG04810	K
dehNOG04811	FG
dehNOG04812	K
dehNOG04813	S
dehNOG04814	O
dehNOG04815	S
dehNOG04816	O
dehNOG04817	S
dehNOG04818	S
dehNOG04819	M
dehNOG04820	C
dehNOG04821	J
dehNOG04822	J
dehNOG04823	O
dehNOG04824	S
dehNOG04825	R
dehNOG04826	C
dehNOG04827	S
dehNOG04828	K
dehNOG04829	U
dehNOG04830	C
dehNOG04831	S
dehNOG04832	S
dehNOG04833	J
dehNOG04834	I
dehNOG04835	J
dehNOG04836	L
dehNOG04837	J
dehNOG04838	S
dehNOG04839	R
dehNOG04840	K
dehNOG04841	S
dehNOG04842	K
dehNOG04843	S
dehNOG04844	V
dehNOG04845	C
dehNOG04846	K
dehNOG04847	S
dehNOG04848	J
dehNOG04849	K
dehNOG04850	S
dehNOG04851	O
dehNOG04852	P
dehNOG04853	S
dehNOG04854	J
dehNOG04855	E
dehNOG04856	O
dehNOG04857	S
dehNOG04858	S
dehNOG04859	S
dehNOG04860	J
dehNOG04861	P
dehNOG04862	S
dehNOG04863	S
dehNOG04864	K
dehNOG04865	S
dehNOG04866	L
dehNOG04867	L
dehNOG04868	S
dehNOG04869	K
dehNOG04870	S
dehNOG04871	S
dehNOG04872	S
dehNOG04873	S
dehNOG04874	S
dehNOG04875	S
dehNOG04876	U
dehNOG04877	U
dehNOG04878	S
dehNOG04879	U
dehNOG04880	S
dehNOG04881	J
dehNOG04882	S
dehNOG04883	K
dehNOG04884	S
dehNOG04885	S
dehNOG04886	S
dehNOG04887	S
dehNOG04888	J
dehNOG04889	K
dehNOG04890	S
dehNOG04891	S
dehNOG04892	J
dehNOG04893	S
dehNOG04894	U
dehNOG04895	S
dehNOG04896	O
dehNOG04897	S
dehNOG04898	S
dehNOG04899	L
dehNOG04900	J
dehNOG04901	S
dehNOG04902	S
dehNOG04903	S
dehNOG04904	S
dehNOG04905	I
dehNOG04906	K
dehNOG04907	J
dehNOG04908	V
dehNOG04909	S
dehNOG04910	S
dehNOG04911	G
dehNOG04912	S
dehNOG04913	S
dehNOG04914	E
dehNOG04915	J
dehNOG04916	S
dehNOG04917	S
dehNOG04918	O
dehNOG04919	S
dehNOG04920	S
dehNOG04921	S
dehNOG04922	S
dehNOG04923	S
dehNOG04924	J
dehNOG04925	J
dehNOG04926	P
dehNOG04927	J
dehNOG04928	S
dehNOG04929	S
dehNOG04930	S
dehNOG04931	C
dehNOG04932	J
dehNOG04933	S
dehNOG04934	S
dehNOG04935	CO
dehNOG04936	S
dehNOG04937	S
dehNOG04938	U
dehNOG04939	C
dehNOG04940	L
dehNOG04941	S
dehNOG04942	S
dehNOG04943	K
dehNOG04944	U
dehNOG04945	M
dehNOG04946	J
dehNOG04947	S
dehNOG04948	L
dehNOG04949	O
dehNOG04950	S
dehNOG04951	S
