sphNOG00001	JM
sphNOG00002	C
sphNOG00003	O
sphNOG00004	S
sphNOG00005	R
sphNOG00006	C
sphNOG00007	O
sphNOG00008	M
sphNOG00009	R
sphNOG00010	M
sphNOG00011	J
sphNOG00012	S
sphNOG00013	K
sphNOG00014	C
sphNOG00015	P
sphNOG00016	R
sphNOG00017	P
sphNOG00018	G
sphNOG00019	M
sphNOG00020	R
sphNOG00021	S
sphNOG00022	M
sphNOG00023	M
sphNOG00024	R
sphNOG00025	J
sphNOG00026	G
sphNOG00027	C
sphNOG00028	R
sphNOG00029	M
sphNOG00030	E
sphNOG00031	G
sphNOG00032	G
sphNOG00033	F
sphNOG00034	S
sphNOG00035	H
sphNOG00036	L
sphNOG00037	F
sphNOG00038	V
sphNOG00039	E
sphNOG00040	H
sphNOG00041	K
sphNOG00042	O
sphNOG00043	R
sphNOG00044	R
sphNOG00045	T
sphNOG00046	M
sphNOG00047	P
sphNOG00048	O
sphNOG00049	O
sphNOG00050	V
sphNOG00051	K
sphNOG00052	S
sphNOG00053	P
sphNOG00054	C
sphNOG00055	C
sphNOG00056	E
sphNOG00057	L
sphNOG00058	P
sphNOG00059	J
sphNOG00060	J
sphNOG00061	I
sphNOG00062	P
sphNOG00063	T
sphNOG00064	F
sphNOG00065	S
sphNOG00066	V
sphNOG00067	S
sphNOG00068	V
sphNOG00069	L
sphNOG00070	M
sphNOG00071	O
sphNOG00072	F
sphNOG00073	G
sphNOG00074	E
sphNOG00075	K
sphNOG00076	I
sphNOG00077	R
sphNOG00078	O
sphNOG00079	S
sphNOG00080	E
sphNOG00081	C
sphNOG00082	M
sphNOG00083	L
sphNOG00084	T
sphNOG00085	L
sphNOG00086	S
sphNOG00087	E
sphNOG00088	U
sphNOG00089	O
sphNOG00090	C
sphNOG00091	S
sphNOG00092	E
sphNOG00093	D
sphNOG00094	C
sphNOG00095	P
sphNOG00096	D
sphNOG00097	J
sphNOG00098	G
sphNOG00099	R
sphNOG00100	G
sphNOG00101	F
sphNOG00102	O
sphNOG00103	P
sphNOG00104	C
sphNOG00105	O
sphNOG00106	S
sphNOG00107	M
sphNOG00108	C
sphNOG00109	C
sphNOG00110	P
sphNOG00111	P
sphNOG00112	E
sphNOG00113	S
sphNOG00114	E
sphNOG00115	S
sphNOG00116	E
sphNOG00117	E
sphNOG00118	G
sphNOG00119	R
sphNOG00120	M
sphNOG00121	J
sphNOG00122	C
sphNOG00123	L
sphNOG00124	S
sphNOG00125	E
sphNOG00126	M
sphNOG00127	U
sphNOG00128	E
sphNOG00129	M
sphNOG00130	C
sphNOG00131	F
sphNOG00132	S
sphNOG00133	F
sphNOG00134	F
sphNOG00135	C
sphNOG00136	T
sphNOG00137	S
sphNOG00138	L
sphNOG00139	V
sphNOG00140	J
sphNOG00141	V
sphNOG00142	C
sphNOG00143	P
sphNOG00144	S
sphNOG00145	E
sphNOG00146	J
sphNOG00147	M
sphNOG00148	K
sphNOG00149	I
sphNOG00150	L
sphNOG00151	P
sphNOG00152	E
sphNOG00153	D
sphNOG00154	H
sphNOG00155	J
sphNOG00156	V
sphNOG00157	T
sphNOG00158	G
sphNOG00159	G
sphNOG00160	L
sphNOG00161	C
sphNOG00162	G
sphNOG00163	F
sphNOG00164	S
sphNOG00165	J
sphNOG00166	S
sphNOG00167	M
sphNOG00168	P
sphNOG00169	L
sphNOG00170	P
sphNOG00171	J
sphNOG00172	P
sphNOG00173	S
sphNOG00174	C
sphNOG00175	L
sphNOG00176	E
sphNOG00177	J
sphNOG00178	G
sphNOG00179	G
sphNOG00180	L
sphNOG00181	S
sphNOG00182	P
sphNOG00183	L
sphNOG00184	S
sphNOG00185	R
sphNOG00186	P
sphNOG00187	P
sphNOG00188	I
sphNOG00189	C
sphNOG00190	R
sphNOG00191	M
sphNOG00192	P
sphNOG00193	R
sphNOG00194	G
sphNOG00195	G
sphNOG00196	J
sphNOG00197	T
sphNOG00198	J
sphNOG00199	L
sphNOG00200	I
sphNOG00201	R
sphNOG00202	P
sphNOG00203	R
sphNOG00204	E
sphNOG00205	C
sphNOG00206	J
sphNOG00207	L
sphNOG00208	P
sphNOG00209	R
sphNOG00210	V
sphNOG00211	C
sphNOG00212	E
sphNOG00213	S
sphNOG00214	F
sphNOG00215	S
sphNOG00216	R
sphNOG00217	M
sphNOG00218	H
sphNOG00219	V
sphNOG00220	J
sphNOG00221	S
sphNOG00222	J
sphNOG00223	P
sphNOG00224	E
sphNOG00225	S
sphNOG00226	R
sphNOG00227	M
sphNOG00228	G
sphNOG00229	C
sphNOG00230	P
sphNOG00231	P
sphNOG00232	R
sphNOG00233	G
sphNOG00234	G
sphNOG00235	S
sphNOG00236	S
sphNOG00237	R
sphNOG00238	P
sphNOG00239	E
sphNOG00240	O
sphNOG00241	G
sphNOG00242	C
sphNOG00243	C
sphNOG00244	G
sphNOG00245	V
sphNOG00246	L
sphNOG00247	J
sphNOG00248	R
sphNOG00249	S
sphNOG00250	E
sphNOG00251	P
sphNOG00252	S
sphNOG00253	E
sphNOG00254	E
sphNOG00255	L
sphNOG00256	F
sphNOG00257	G
sphNOG00258	R
sphNOG00259	E
sphNOG00260	C
sphNOG00261	H
sphNOG00262	K
sphNOG00263	H
sphNOG00264	I
sphNOG00265	G
sphNOG00266	S
sphNOG00267	J
sphNOG00268	E
sphNOG00269	R
sphNOG00270	G
sphNOG00271	L
sphNOG00272	P
sphNOG00273	S
sphNOG00274	T
sphNOG00275	O
sphNOG00276	F
sphNOG00277	C
sphNOG00278	S
sphNOG00279	H
sphNOG00280	H
sphNOG00281	G
sphNOG00282	E
sphNOG00283	K
sphNOG00284	BQ
sphNOG00285	H
sphNOG00286	F
sphNOG00287	F
sphNOG00288	Q
sphNOG00289	E
sphNOG00290	M
sphNOG00291	S
sphNOG00292	P
sphNOG00293	S
sphNOG00294	L
sphNOG00295	O
sphNOG00296	P
sphNOG00297	Q
sphNOG00298	I
sphNOG00299	G
sphNOG00300	R
sphNOG00301	R
sphNOG00302	U
sphNOG00303	R
sphNOG00304	T
sphNOG00305	S
sphNOG00306	Q
sphNOG00307	J
sphNOG00308	S
sphNOG00309	G
sphNOG00310	K
sphNOG00311	P
sphNOG00312	L
sphNOG00313	M
sphNOG00314	E
sphNOG00315	C
sphNOG00316	S
sphNOG00317	C
sphNOG00318	S
sphNOG00319	L
sphNOG00320	J
sphNOG00321	M
sphNOG00322	C
sphNOG00323	R
sphNOG00324	J
sphNOG00325	C
sphNOG00326	L
sphNOG00327	E
sphNOG00328	S
sphNOG00329	C
sphNOG00330	D
sphNOG00331	K
sphNOG00332	M
sphNOG00333	O
sphNOG00334	S
sphNOG00335	C
sphNOG00336	E
sphNOG00337	J
sphNOG00338	G
sphNOG00339	S
sphNOG00340	E
sphNOG00341	G
sphNOG00342	L
sphNOG00343	R
sphNOG00344	I
sphNOG00345	R
sphNOG00346	C
sphNOG00347	E
sphNOG00348	I
sphNOG00349	R
sphNOG00350	I
sphNOG00351	G
sphNOG00352	L
sphNOG00353	I
sphNOG00354	V
sphNOG00355	M
sphNOG00356	M
sphNOG00357	D
sphNOG00358	M
sphNOG00359	E
sphNOG00360	R
sphNOG00361	M
sphNOG00362	E
sphNOG00363	E
sphNOG00364	G
sphNOG00365	G
sphNOG00366	E
sphNOG00367	M
sphNOG00368	S
sphNOG00369	S
sphNOG00370	E
sphNOG00371	K
sphNOG00372	E
sphNOG00373	M
sphNOG00374	E
sphNOG00375	H
sphNOG00376	L
sphNOG00377	P
sphNOG00378	S
sphNOG00379	S
sphNOG00380	E
sphNOG00381	CP
sphNOG00382	E
sphNOG00383	O
sphNOG00384	J
sphNOG00385	C
sphNOG00386	F
sphNOG00387	G
sphNOG00388	G
sphNOG00389	S
sphNOG00390	G
sphNOG00391	C
sphNOG00392	R
sphNOG00393	R
sphNOG00394	S
sphNOG00395	C
sphNOG00396	C
sphNOG00397	F
sphNOG00398	S
sphNOG00399	P
sphNOG00400	E
sphNOG00401	E
sphNOG00402	I
sphNOG00403	OU
sphNOG00404	S
sphNOG00405	M
sphNOG00406	K
sphNOG00407	R
sphNOG00408	C
sphNOG00409	E
sphNOG00410	I
sphNOG00411	L
sphNOG00412	H
sphNOG00413	C
sphNOG00414	E
sphNOG00415	U
sphNOG00416	T
sphNOG00417	R
sphNOG00418	P
sphNOG00419	G
sphNOG00420	E
sphNOG00421	O
sphNOG00422	P
sphNOG00423	G
sphNOG00424	I
sphNOG00425	R
sphNOG00426	M
sphNOG00427	K
sphNOG00428	M
sphNOG00429	J
sphNOG00430	C
sphNOG00431	F
sphNOG00432	T
sphNOG00433	S
sphNOG00434	I
sphNOG00435	P
sphNOG00436	D
sphNOG00437	S
sphNOG00438	G
sphNOG00439	G
sphNOG00440	I
sphNOG00441	C
sphNOG00442	D
sphNOG00443	G
sphNOG00444	L
sphNOG00445	I
sphNOG00446	T
sphNOG00447	E
sphNOG00448	R
sphNOG00449	J
sphNOG00450	I
sphNOG00451	S
sphNOG00452	O
sphNOG00453	E
sphNOG00454	G
sphNOG00455	C
sphNOG00456	G
sphNOG00457	S
sphNOG00458	S
sphNOG00459	E
sphNOG00460	I
sphNOG00461	P
sphNOG00462	H
sphNOG00463	U
sphNOG00464	J
sphNOG00465	E
sphNOG00466	R
sphNOG00467	E
sphNOG00468	F
sphNOG00469	S
sphNOG00470	T
sphNOG00471	H
sphNOG00472	F
sphNOG00473	L
sphNOG00474	O
sphNOG00475	J
sphNOG00476	E
sphNOG00477	J
sphNOG00478	M
sphNOG00479	S
sphNOG00480	H
sphNOG00481	M
sphNOG00482	R
sphNOG00483	M
sphNOG00484	R
sphNOG00485	R
sphNOG00486	D
sphNOG00487	M
sphNOG00488	E
sphNOG00489	E
sphNOG00490	R
sphNOG00491	L
sphNOG00492	G
sphNOG00493	M
sphNOG00494	J
sphNOG00495	M
sphNOG00496	G
sphNOG00497	L
sphNOG00498	C
sphNOG00499	Q
sphNOG00500	R
sphNOG00501	P
sphNOG00502	S
sphNOG00503	J
sphNOG00504	C
sphNOG00505	M
sphNOG00506	O
sphNOG00507	G
sphNOG00508	P
sphNOG00509	Q
sphNOG00510	C
sphNOG00511	C
sphNOG00512	J
sphNOG00513	E
sphNOG00514	E
sphNOG00515	M
sphNOG00516	T
sphNOG00517	K
sphNOG00518	K
sphNOG00519	C
sphNOG00520	S
sphNOG00521	C
sphNOG00522	V
sphNOG00523	F
sphNOG00524	S
sphNOG00525	G
sphNOG00526	I
sphNOG00527	E
sphNOG00528	J
sphNOG00529	P
sphNOG00530	P
sphNOG00531	H
sphNOG00532	G
sphNOG00533	F
sphNOG00534	I
sphNOG00535	E
sphNOG00536	P
sphNOG00537	C
sphNOG00538	E
sphNOG00539	H
sphNOG00540	F
sphNOG00541	C
sphNOG00542	L
sphNOG00543	P
sphNOG00544	P
sphNOG00545	C
sphNOG00546	U
sphNOG00547	GK
sphNOG00548	O
sphNOG00549	E
sphNOG00550	G
sphNOG00551	C
sphNOG00552	M
sphNOG00553	S
sphNOG00554	S
sphNOG00555	I
sphNOG00556	S
sphNOG00557	R
sphNOG00558	F
sphNOG00559	C
sphNOG00560	S
sphNOG00561	M
sphNOG00562	J
sphNOG00563	O
sphNOG00564	G
sphNOG00565	J
sphNOG00566	S
sphNOG00567	H
sphNOG00568	T
sphNOG00569	I
sphNOG00570	E
sphNOG00571	R
sphNOG00572	O
sphNOG00573	J
sphNOG00574	R
sphNOG00575	R
sphNOG00576	K
sphNOG00577	O
sphNOG00578	E
sphNOG00579	U
sphNOG00580	S
sphNOG00581	Q
sphNOG00582	S
sphNOG00583	K
sphNOG00584	M
sphNOG00585	O
sphNOG00586	L
sphNOG00587	Q
sphNOG00588	L
sphNOG00589	R
sphNOG00590	M
sphNOG00591	C
sphNOG00592	J
sphNOG00593	E
sphNOG00594	S
sphNOG00595	G
sphNOG00596	S
sphNOG00597	J
sphNOG00598	E
sphNOG00599	H
sphNOG00600	E
sphNOG00601	C
sphNOG00602	E
sphNOG00603	O
sphNOG00604	I
sphNOG00605	M
sphNOG00606	E
sphNOG00607	O
sphNOG00608	E
sphNOG00609	O
sphNOG00610	P
sphNOG00611	C
sphNOG00612	C
sphNOG00613	L
sphNOG00614	IQ
sphNOG00615	S
sphNOG00616	G
sphNOG00617	R
sphNOG00618	F
sphNOG00619	R
sphNOG00620	R
sphNOG00621	V
sphNOG00622	M
sphNOG00623	T
sphNOG00624	S
sphNOG00625	S
sphNOG00626	C
sphNOG00627	M
sphNOG00628	C
sphNOG00629	S
sphNOG00630	F
sphNOG00631	J
sphNOG00632	T
sphNOG00633	U
sphNOG00634	H
sphNOG00635	F
sphNOG00636	H
sphNOG00637	O
sphNOG00638	C
sphNOG00639	K
sphNOG00640	E
sphNOG00641	S
sphNOG00642	V
sphNOG00643	E
sphNOG00644	R
sphNOG00645	C
sphNOG00646	G
sphNOG00647	G
sphNOG00648	P
sphNOG00649	G
sphNOG00650	J
sphNOG00651	L
sphNOG00652	C
sphNOG00653	M
sphNOG00654	Q
sphNOG00655	S
sphNOG00656	L
sphNOG00657	V
sphNOG00658	S
sphNOG00659	L
sphNOG00660	J
sphNOG00661	L
sphNOG00662	K
sphNOG00663	S
sphNOG00664	S
sphNOG00665	E
sphNOG00666	M
sphNOG00667	Q
sphNOG00668	L
sphNOG00669	E
sphNOG00670	S
sphNOG00671	V
sphNOG00672	C
sphNOG00673	E
sphNOG00674	C
sphNOG00675	T
sphNOG00676	H
sphNOG00677	S
sphNOG00678	E
sphNOG00679	H
sphNOG00680	L
sphNOG00681	I
sphNOG00682	D
sphNOG00683	L
sphNOG00684	T
sphNOG00685	S
sphNOG00686	M
sphNOG00687	M
sphNOG00688	M
sphNOG00689	L
sphNOG00690	H
sphNOG00691	J
sphNOG00692	J
sphNOG00693	C
sphNOG00694	S
sphNOG00695	O
sphNOG00696	H
sphNOG00697	S
sphNOG00698	P
sphNOG00699	E
sphNOG00700	C
sphNOG00701	E
sphNOG00702	H
sphNOG00703	C
sphNOG00704	J
sphNOG00705	S
sphNOG00706	G
sphNOG00707	E
sphNOG00708	P
sphNOG00709	S
sphNOG00710	E
sphNOG00711	R
sphNOG00712	S
sphNOG00713	K
sphNOG00714	S
sphNOG00715	R
sphNOG00716	G
sphNOG00717	L
sphNOG00718	L
sphNOG00719	E
sphNOG00720	M
sphNOG00721	R
sphNOG00722	O
sphNOG00723	S
sphNOG00724	R
sphNOG00725	C
sphNOG00726	P
sphNOG00727	P
sphNOG00728	V
sphNOG00729	E
sphNOG00730	S
sphNOG00731	J
sphNOG00732	J
sphNOG00733	S
sphNOG00734	E
sphNOG00735	R
sphNOG00736	J
sphNOG00737	R
sphNOG00738	I
sphNOG00739	K
sphNOG00740	S
sphNOG00741	EL
sphNOG00742	J
sphNOG00743	C
sphNOG00744	M
sphNOG00745	J
sphNOG00746	C
sphNOG00747	S
sphNOG00748	G
sphNOG00749	E
sphNOG00750	M
sphNOG00751	T
sphNOG00752	D
sphNOG00753	S
sphNOG00754	J
sphNOG00755	H
sphNOG00756	G
sphNOG00757	E
sphNOG00758	J
sphNOG00759	C
sphNOG00760	R
sphNOG00761	S
sphNOG00762	H
sphNOG00763	R
sphNOG00764	T
sphNOG00765	J
sphNOG00766	D
sphNOG00767	T
sphNOG00768	PQ
sphNOG00769	C
sphNOG00770	P
sphNOG00771	T
sphNOG00772	H
sphNOG00773	F
sphNOG00774	E
sphNOG00775	K
sphNOG00776	R
sphNOG00777	J
sphNOG00778	H
sphNOG00779	E
sphNOG00780	Q
sphNOG00781	G
sphNOG00782	R
sphNOG00783	Q
sphNOG00784	E
sphNOG00785	M
sphNOG00786	S
sphNOG00787	P
sphNOG00788	E
sphNOG00789	C
sphNOG00790	T
sphNOG00791	R
sphNOG00792	S
sphNOG00793	M
sphNOG00794	I
sphNOG00795	R
sphNOG00796	M
sphNOG00797	V
sphNOG00798	J
sphNOG00799	M
sphNOG00800	K
sphNOG00801	S
sphNOG00802	S
sphNOG00803	R
sphNOG00804	I
sphNOG00805	O
sphNOG00806	T
sphNOG00807	G
sphNOG00808	K
sphNOG00809	S
sphNOG00810	M
sphNOG00811	E
sphNOG00812	K
sphNOG00813	R
sphNOG00814	E
sphNOG00815	S
sphNOG00816	R
sphNOG00817	G
sphNOG00818	R
sphNOG00819	J
sphNOG00820	E
sphNOG00821	F
sphNOG00822	E
sphNOG00823	R
sphNOG00824	E
sphNOG00825	M
sphNOG00826	V
sphNOG00827	M
sphNOG00828	S
sphNOG00829	J
sphNOG00830	S
sphNOG00831	G
sphNOG00832	M
sphNOG00833	K
sphNOG00834	C
sphNOG00835	L
sphNOG00836	H
sphNOG00837	C
sphNOG00838	P
sphNOG00839	M
sphNOG00840	F
sphNOG00841	P
sphNOG00842	L
sphNOG00843	K
sphNOG00844	O
sphNOG00845	S
sphNOG00846	Q
sphNOG00847	R
sphNOG00848	J
sphNOG00849	T
sphNOG00850	R
sphNOG00851	C
sphNOG00852	M
sphNOG00853	G
sphNOG00854	R
sphNOG00855	S
sphNOG00856	S
sphNOG00857	C
sphNOG00858	T
sphNOG00859	H
sphNOG00860	T
sphNOG00861	S
sphNOG00862	V
sphNOG00863	E
sphNOG00864	S
sphNOG00865	O
sphNOG00866	S
sphNOG00867	R
sphNOG00868	J
sphNOG00869	H
sphNOG00870	K
sphNOG00871	O
sphNOG00872	T
sphNOG00873	R
sphNOG00874	J
sphNOG00875	S
sphNOG00876	M
sphNOG00877	R
sphNOG00878	R
sphNOG00879	S
sphNOG00880	C
sphNOG00881	R
sphNOG00882	S
sphNOG00883	S
sphNOG00884	S
sphNOG00885	F
sphNOG00886	R
sphNOG00887	J
sphNOG00888	KT
sphNOG00889	R
sphNOG00890	S
sphNOG00891	P
sphNOG00892	S
sphNOG00893	T
sphNOG00894	M
sphNOG00895	J
sphNOG00896	J
sphNOG00897	S
sphNOG00898	S
sphNOG00899	J
sphNOG00900	P
sphNOG00901	H
sphNOG00902	R
sphNOG00903	R
sphNOG00904	S
sphNOG00905	R
sphNOG00906	G
sphNOG00907	R
sphNOG00908	S
sphNOG00909	G
sphNOG00910	J
sphNOG00911	S
sphNOG00912	E
sphNOG00913	F
sphNOG00914	R
sphNOG00915	R
sphNOG00916	H
sphNOG00917	E
sphNOG00918	R
sphNOG00919	T
sphNOG00920	M
sphNOG00921	F
sphNOG00922	S
sphNOG00923	M
sphNOG00924	S
sphNOG00925	S
sphNOG00926	J
sphNOG00927	S
sphNOG00928	S
sphNOG00929	J
sphNOG00930	H
sphNOG00931	S
sphNOG00932	M
sphNOG00933	L
sphNOG00934	F
sphNOG00935	S
sphNOG00936	J
sphNOG00937	R
sphNOG00938	M
sphNOG00939	M
sphNOG00940	S
sphNOG00941	V
sphNOG00942	M
sphNOG00943	P
sphNOG00944	J
sphNOG00945	O
sphNOG00946	E
sphNOG00947	CH
sphNOG00948	Q
sphNOG00949	S
sphNOG00950	S
sphNOG00951	I
sphNOG00952	F
sphNOG00953	L
sphNOG00954	S
sphNOG00955	S
sphNOG00956	J
sphNOG00957	K
sphNOG00958	J
sphNOG00959	O
sphNOG00960	L
sphNOG00961	S
sphNOG00962	R
sphNOG00963	S
sphNOG00964	M
sphNOG00965	S
sphNOG00966	J
sphNOG00967	J
sphNOG00968	S
sphNOG00969	J
sphNOG00970	K
sphNOG00971	E
sphNOG00972	K
sphNOG00973	S
sphNOG00974	S
sphNOG00975	V
sphNOG00976	F
sphNOG00977	S
sphNOG00978	T
sphNOG00979	M
sphNOG00980	I
sphNOG00981	S
sphNOG00982	R
sphNOG00983	E
sphNOG00984	R
sphNOG00985	M
sphNOG00986	F
sphNOG00987	R
sphNOG00988	O
sphNOG00989	C
sphNOG00990	O
sphNOG00991	K
sphNOG00992	O
sphNOG00993	O
sphNOG00994	H
sphNOG00995	S
sphNOG00996	S
sphNOG00997	G
sphNOG00998	S
sphNOG00999	C
sphNOG01000	E
sphNOG01001	Q
sphNOG01002	G
sphNOG01003	H
sphNOG01004	S
sphNOG01005	R
sphNOG01006	K
sphNOG01007	J
sphNOG01008	S
sphNOG01009	K
sphNOG01010	K
sphNOG01011	G
sphNOG01012	M
sphNOG01013	S
sphNOG01014	E
sphNOG01015	C
sphNOG01016	E
sphNOG01017	E
sphNOG01018	G
sphNOG01019	K
sphNOG01020	S
sphNOG01021	O
sphNOG01022	J
sphNOG01023	S
sphNOG01024	M
sphNOG01025	S
sphNOG01026	S
sphNOG01027	M
sphNOG01028	J
sphNOG01029	S
sphNOG01030	S
sphNOG01031	J
sphNOG01032	J
sphNOG01033	J
sphNOG01034	L
sphNOG01035	J
sphNOG01036	M
sphNOG01037	I
sphNOG01038	H
sphNOG01039	S
sphNOG01040	S
sphNOG01041	K
sphNOG01042	S
sphNOG01043	S
sphNOG01044	FJ
sphNOG01045	S
sphNOG01046	U
sphNOG01047	S
sphNOG01048	N
sphNOG01049	S
sphNOG01050	J
sphNOG01051	M
sphNOG01052	V
sphNOG01053	J
sphNOG01054	O
sphNOG01055	H
sphNOG01056	S
sphNOG01057	R
sphNOG01058	S
sphNOG01059	U
sphNOG01060	S
sphNOG01061	E
sphNOG01062	T
sphNOG01063	D
sphNOG01064	P
sphNOG01065	S
sphNOG01066	R
sphNOG01067	U
sphNOG01068	J
sphNOG01069	S
sphNOG01070	L
sphNOG01071	S
sphNOG01072	J
sphNOG01073	S
sphNOG01074	R
sphNOG01075	I
sphNOG01076	G
sphNOG01077	M
sphNOG01078	H
sphNOG01079	S
sphNOG01080	L
sphNOG01081	T
sphNOG01082	M
sphNOG01083	O
sphNOG01084	C
sphNOG01085	K
sphNOG01086	S
sphNOG01087	M
sphNOG01088	K
sphNOG01089	S
sphNOG01090	S
sphNOG01091	S
sphNOG01092	S
sphNOG01093	K
sphNOG01094	P
sphNOG01095	S
sphNOG01096	R
sphNOG01097	E
sphNOG01098	G
sphNOG01099	S
sphNOG01100	I
sphNOG01101	F
sphNOG01102	S
sphNOG01103	FJ
sphNOG01104	E
sphNOG01105	R
sphNOG01106	S
sphNOG01107	S
sphNOG01108	O
sphNOG01109	G
sphNOG01110	R
sphNOG01111	I
sphNOG01112	K
sphNOG01113	S
sphNOG01114	R
sphNOG01115	K
sphNOG01116	O
sphNOG01117	S
sphNOG01118	L
sphNOG01119	K
sphNOG01120	H
sphNOG01121	J
sphNOG01122	S
sphNOG01123	H
sphNOG01124	S
sphNOG01125	S
sphNOG01126	S
sphNOG01127	S
sphNOG01128	L
sphNOG01129	M
sphNOG01130	E
sphNOG01131	S
sphNOG01132	E
sphNOG01133	O
sphNOG01134	E
sphNOG01135	K
sphNOG01136	G
sphNOG01137	FG
sphNOG01138	G
sphNOG01139	J
sphNOG01140	G
sphNOG01141	S
sphNOG01142	S
sphNOG01143	J
sphNOG01144	C
sphNOG01145	E
sphNOG01146	C
sphNOG01147	K
sphNOG01148	H
sphNOG01149	S
sphNOG01150	K
sphNOG01151	P
sphNOG01152	S
sphNOG01153	R
sphNOG01154	K
sphNOG01155	L
sphNOG01156	M
sphNOG01157	S
sphNOG01158	R
sphNOG01159	S
sphNOG01160	S
sphNOG01161	R
sphNOG01162	S
sphNOG01163	S
sphNOG01164	M
sphNOG01165	L
sphNOG01166	I
sphNOG01167	S
sphNOG01168	S
sphNOG01169	F
sphNOG01170	S
sphNOG01171	R
sphNOG01172	K
sphNOG01173	S
sphNOG01174	J
sphNOG01175	S
sphNOG01176	C
sphNOG01177	R
sphNOG01178	S
sphNOG01179	S
sphNOG01180	R
sphNOG01181	H
sphNOG01182	S
sphNOG01183	K
sphNOG01184	M
sphNOG01185	L
sphNOG01186	M
sphNOG01187	I
sphNOG01188	R
sphNOG01189	R
sphNOG01190	S
sphNOG01191	K
sphNOG01192	S
sphNOG01193	S
sphNOG01194	K
sphNOG01195	I
sphNOG01196	S
sphNOG01197	J
sphNOG01198	T
sphNOG01199	S
sphNOG01200	S
sphNOG01201	S
sphNOG01202	J
sphNOG01203	S
sphNOG01204	O
sphNOG01205	R
sphNOG01206	M
sphNOG01207	V
sphNOG01208	S
sphNOG01209	S
sphNOG01210	S
sphNOG01211	J
sphNOG01212	L
sphNOG01213	O
sphNOG01214	H
sphNOG01215	K
sphNOG01216	S
sphNOG01217	I
sphNOG01218	S
sphNOG01219	K
sphNOG01220	R
sphNOG01221	R
sphNOG01222	M
sphNOG01223	M
sphNOG01224	R
sphNOG01225	K
sphNOG01226	S
sphNOG01227	S
sphNOG01228	S
sphNOG01229	R
sphNOG01230	R
sphNOG01231	L
sphNOG01232	S
sphNOG01233	C
sphNOG01234	K
sphNOG01235	K
sphNOG01236	K
sphNOG01237	S
sphNOG01238	S
sphNOG01239	S
sphNOG01240	J
sphNOG01241	T
sphNOG01242	J
sphNOG01243	S
sphNOG01244	R
sphNOG01245	P
sphNOG01246	M
sphNOG01247	J
sphNOG01248	J
sphNOG01249	L
sphNOG01250	L
sphNOG01251	S
sphNOG01252	J
sphNOG01253	S
sphNOG01254	R
sphNOG01255	M
sphNOG01256	E
sphNOG01257	J
sphNOG01258	R
sphNOG01259	M
sphNOG01260	K
sphNOG01261	J
sphNOG01262	S
sphNOG01263	R
sphNOG01264	P
sphNOG01265	J
sphNOG01266	S
sphNOG01267	S
sphNOG01268	J
sphNOG01269	R
sphNOG01270	F
sphNOG01271	P
sphNOG01272	S
sphNOG01273	H
sphNOG01274	S
sphNOG01275	K
sphNOG01276	C
sphNOG01277	C
sphNOG01278	I
sphNOG01279	C
sphNOG01280	S
sphNOG01281	R
sphNOG01282	E
sphNOG01283	H
sphNOG01284	S
sphNOG01285	C
sphNOG01286	O
sphNOG01287	K
sphNOG01288	S
sphNOG01289	P
sphNOG01290	S
sphNOG01291	C
sphNOG01292	L
sphNOG01293	S
sphNOG01294	I
sphNOG01295	S
sphNOG01296	K
sphNOG01297	S
sphNOG01298	S
sphNOG01299	S
sphNOG01300	O
sphNOG01301	S
sphNOG01302	J
sphNOG01303	J
sphNOG01304	S
sphNOG01305	K
sphNOG01306	M
sphNOG01307	J
sphNOG01308	S
sphNOG01309	I
sphNOG01310	S
sphNOG01311	H
sphNOG01312	J
sphNOG01313	C
sphNOG01314	R
sphNOG01315	S
sphNOG01316	S
sphNOG01317	J
sphNOG01318	P
sphNOG01319	F
sphNOG01320	S
sphNOG01321	V
sphNOG01322	S
sphNOG01323	L
sphNOG01324	S
sphNOG01325	L
sphNOG01326	S
sphNOG01327	J
sphNOG01328	K
sphNOG01329	M
sphNOG01330	R
sphNOG01331	S
sphNOG01332	S
sphNOG01333	S
sphNOG01334	S
sphNOG01335	S
sphNOG01336	C
sphNOG01337	S
sphNOG01338	S
sphNOG01339	L
sphNOG01340	S
sphNOG01341	S
sphNOG01342	J
sphNOG01343	S
sphNOG01344	H
sphNOG01345	S
sphNOG01346	J
sphNOG01347	J
sphNOG01348	E
sphNOG01349	S
sphNOG01350	S
sphNOG01351	T
sphNOG01352	J
sphNOG01353	S
sphNOG01354	M
sphNOG01355	J
sphNOG01356	S
sphNOG01357	J
sphNOG01358	R
sphNOG01359	J
sphNOG01360	U
sphNOG01361	S
sphNOG01362	S
sphNOG01363	S
sphNOG01364	R
sphNOG01365	S
sphNOG01366	S
sphNOG01367	S
sphNOG01368	M
sphNOG01369	C
sphNOG01370	C
sphNOG01371	K
sphNOG01372	R
sphNOG01373	K
sphNOG01374	O
sphNOG01375	S
sphNOG01376	S
sphNOG01377	R
sphNOG01378	S
sphNOG01379	S
sphNOG01380	H
sphNOG01381	L
sphNOG01382	C
sphNOG01383	L
sphNOG01384	S
sphNOG01385	S
sphNOG01386	Q
sphNOG01387	S
sphNOG01388	S
sphNOG01389	J
sphNOG01390	S
sphNOG01391	E
sphNOG01392	V
sphNOG01393	M
sphNOG01394	S
sphNOG01395	S
sphNOG01396	J
sphNOG01397	S
sphNOG01398	S
sphNOG01399	O
sphNOG01400	O
sphNOG01401	S
sphNOG01402	O
sphNOG01403	M
sphNOG01404	S
sphNOG01405	R
sphNOG01406	K
sphNOG01407	F
sphNOG01408	S
sphNOG01409	S
sphNOG01410	S
sphNOG01411	S
sphNOG01412	S
sphNOG01413	S
sphNOG01414	K
sphNOG01415	S
sphNOG01416	EP
sphNOG01417	S
sphNOG01418	S
sphNOG01419	S
sphNOG01420	S
sphNOG01421	M
sphNOG01422	S
sphNOG01423	S
sphNOG01424	S
sphNOG01425	L
sphNOG01426	J
sphNOG01427	S
sphNOG01428	R
sphNOG01429	S
sphNOG01430	S
sphNOG01431	K
sphNOG01432	S
sphNOG01433	M
sphNOG01434	S
sphNOG01435	S
sphNOG01436	S
sphNOG01437	S
sphNOG01438	S
sphNOG01439	S
sphNOG01440	E
sphNOG01441	S
sphNOG01442	S
sphNOG01443	S
sphNOG01444	S
sphNOG01445	S
sphNOG01446	T
sphNOG01447	J
sphNOG01448	GM
sphNOG01449	S
sphNOG01450	S
sphNOG01451	S
sphNOG01452	S
sphNOG01453	S
sphNOG01454	R
sphNOG01455	S
sphNOG01456	M
sphNOG01457	J
sphNOG01458	U
sphNOG01459	S
sphNOG01460	S
sphNOG01461	H
sphNOG01462	R
sphNOG01463	U
sphNOG01464	S
sphNOG01465	S
sphNOG01466	S
sphNOG01467	S
sphNOG01468	S
sphNOG01469	C
sphNOG01470	R
sphNOG01471	V
sphNOG01472	O
sphNOG01473	S
sphNOG01474	S
sphNOG01475	S
sphNOG01476	J
sphNOG01477	J
sphNOG01478	S
sphNOG01479	S
sphNOG01480	P
sphNOG01481	S
sphNOG01482	S
sphNOG01483	J
sphNOG01484	S
sphNOG01485	L
sphNOG01486	S
sphNOG01487	U
sphNOG01488	S
sphNOG01489	S
sphNOG01490	S
sphNOG01491	COP
sphNOG01492	S
sphNOG01493	R
sphNOG01494	O
sphNOG01495	S
sphNOG01496	S
sphNOG01497	R
sphNOG01498	S
sphNOG01499	S
sphNOG01500	S
sphNOG01501	S
sphNOG01502	S
sphNOG01503	EG
sphNOG01504	L
sphNOG01505	S
sphNOG01506	S
sphNOG01507	S
sphNOG01508	S
sphNOG01509	S
sphNOG01510	S
sphNOG01511	L
sphNOG01512	K
sphNOG01513	C
sphNOG01514	S
sphNOG01515	S
sphNOG01516	S
sphNOG01517	S
sphNOG01518	S
sphNOG01519	R
sphNOG01520	R
sphNOG01521	R
sphNOG01522	S
sphNOG01523	S
sphNOG01524	S
sphNOG01525	R
sphNOG01526	C
sphNOG01527	S
sphNOG01528	S
sphNOG01529	M
sphNOG01530	S
sphNOG01531	S
sphNOG01532	S
sphNOG01533	S
sphNOG01534	S
sphNOG01535	S
sphNOG01536	S
sphNOG01537	M
sphNOG01538	R
sphNOG01539	S
sphNOG01540	S
sphNOG01541	Q
sphNOG01542	R
sphNOG01543	J
sphNOG01544	S
sphNOG01545	R
sphNOG01546	S
sphNOG01547	S
sphNOG01548	S
sphNOG01549	S
sphNOG01550	P
sphNOG01551	G
sphNOG01552	S
sphNOG01553	P
sphNOG01554	K
sphNOG01555	T
sphNOG01556	M
sphNOG01557	G
sphNOG01558	H
sphNOG01559	S
sphNOG01560	C
sphNOG01561	S
sphNOG01562	S
sphNOG01563	R
sphNOG01564	S
sphNOG01565	R
sphNOG01566	S
sphNOG01567	G
sphNOG01568	G
sphNOG01569	R
sphNOG01570	S
sphNOG01571	P
sphNOG01572	S
sphNOG01573	V
sphNOG01574	R
sphNOG01575	S
sphNOG01576	O
sphNOG01577	J
sphNOG01578	R
sphNOG01579	P
sphNOG01580	P
sphNOG01581	S
sphNOG01582	P
sphNOG01583	C
sphNOG01584	S
sphNOG01585	M
sphNOG01586	GK
sphNOG01587	G
sphNOG01588	E
sphNOG01589	S
sphNOG01590	K
sphNOG01591	R
sphNOG01592	P
sphNOG01593	H
sphNOG01594	H
sphNOG01595	S
sphNOG01596	K
sphNOG01597	M
sphNOG01598	S
sphNOG01599	P
sphNOG01600	R
sphNOG01601	S
sphNOG01602	V
sphNOG01603	I
sphNOG01604	S
sphNOG01605	F
sphNOG01606	G
sphNOG01607	I
sphNOG01608	F
sphNOG01609	F
sphNOG01610	IQ
sphNOG01611	L
sphNOG01612	S
sphNOG01613	R
sphNOG01614	S
sphNOG01615	P
sphNOG01616	S
sphNOG01617	I
sphNOG01618	M
sphNOG01619	K
sphNOG01620	O
sphNOG01621	H
sphNOG01622	E
sphNOG01623	G
sphNOG01624	R
sphNOG01625	E
sphNOG01626	R
sphNOG01627	S
sphNOG01628	R
sphNOG01629	S
sphNOG01630	P
sphNOG01631	S
sphNOG01632	S
sphNOG01633	S
sphNOG01634	E
sphNOG01635	S
sphNOG01636	K
sphNOG01637	P
sphNOG01638	R
sphNOG01639	K
sphNOG01640	S
sphNOG01641	G
sphNOG01642	P
sphNOG01643	S
sphNOG01644	S
sphNOG01645	S
sphNOG01646	R
sphNOG01647	K
sphNOG01648	P
sphNOG01649	G
sphNOG01650	G
sphNOG01651	M
sphNOG01652	M
sphNOG01653	V
sphNOG01654	S
sphNOG01655	G
sphNOG01656	EM
sphNOG01657	R
sphNOG01658	EG
sphNOG01659	S
sphNOG01660	G
sphNOG01661	S
sphNOG01662	C
sphNOG01663	V
sphNOG01664	R
sphNOG01665	R
sphNOG01666	S
sphNOG01667	T
sphNOG01668	K
sphNOG01669	M
sphNOG01670	P
sphNOG01671	R
sphNOG01672	S
sphNOG01673	V
sphNOG01674	L
sphNOG01675	T
sphNOG01676	G
sphNOG01677	R
sphNOG01678	G
sphNOG01679	G
sphNOG01680	S
sphNOG01681	C
sphNOG01682	T
sphNOG01683	G
sphNOG01684	J
sphNOG01685	S
sphNOG01686	S
sphNOG01687	S
sphNOG01688	G
sphNOG01689	S
sphNOG01690	R
sphNOG01691	G
sphNOG01692	S
sphNOG01693	T
sphNOG01694	S
sphNOG01695	R
sphNOG01696	K
sphNOG01697	G
sphNOG01698	P
sphNOG01699	S
sphNOG01700	P
sphNOG01701	S
sphNOG01702	E
sphNOG01703	S
sphNOG01704	P
sphNOG01705	L
sphNOG01706	G
sphNOG01707	E
sphNOG01708	K
sphNOG01709	T
sphNOG01710	P
sphNOG01711	F
sphNOG01712	R
sphNOG01713	R
sphNOG01714	M
sphNOG01715	T
sphNOG01716	S
sphNOG01717	S
sphNOG01718	P
sphNOG01719	M
sphNOG01720	P
sphNOG01721	H
sphNOG01722	I
sphNOG01723	E
sphNOG01724	G
sphNOG01725	G
sphNOG01726	IQ
sphNOG01727	S
sphNOG01728	G
sphNOG01729	I
sphNOG01730	K
sphNOG01731	H
sphNOG01732	R
sphNOG01733	T
sphNOG01734	R
sphNOG01735	S
sphNOG01736	T
sphNOG01737	S
sphNOG01738	R
sphNOG01739	EG
sphNOG01740	P
sphNOG01741	M
sphNOG01742	S
sphNOG01743	G
sphNOG01744	M
sphNOG01745	S
sphNOG01746	C
sphNOG01747	K
sphNOG01748	R
sphNOG01749	T
sphNOG01750	G
sphNOG01751	S
sphNOG01752	T
sphNOG01753	E
sphNOG01754	G
sphNOG01755	S
sphNOG01756	P
sphNOG01757	K
sphNOG01758	R
sphNOG01759	S
sphNOG01760	C
sphNOG01761	G
sphNOG01762	R
sphNOG01763	S
sphNOG01764	M
sphNOG01765	F
sphNOG01766	J
sphNOG01767	R
sphNOG01768	K
sphNOG01769	T
sphNOG01770	H
sphNOG01771	R
sphNOG01772	V
sphNOG01773	P
sphNOG01774	R
sphNOG01775	P
sphNOG01776	P
sphNOG01777	S
sphNOG01778	C
sphNOG01779	P
sphNOG01780	M
sphNOG01781	E
sphNOG01782	S
sphNOG01783	T
sphNOG01784	S
sphNOG01785	C
sphNOG01786	P
sphNOG01787	T
sphNOG01788	S
sphNOG01789	S
sphNOG01790	P
sphNOG01791	C
sphNOG01792	R
sphNOG01793	G
sphNOG01794	S
sphNOG01795	M
sphNOG01796	P
sphNOG01797	R
sphNOG01798	S
sphNOG01799	G
sphNOG01800	R
sphNOG01801	S
sphNOG01802	S
sphNOG01803	V
sphNOG01804	G
sphNOG01805	S
sphNOG01806	P
sphNOG01807	S
sphNOG01808	K
sphNOG01809	G
sphNOG01810	S
sphNOG01811	GM
sphNOG01812	S
sphNOG01813	G
sphNOG01814	G
sphNOG01815	M
sphNOG01816	R
sphNOG01817	V
sphNOG01818	S
sphNOG01819	S
sphNOG01820	Q
sphNOG01821	E
sphNOG01822	P
sphNOG01823	S
sphNOG01824	J
sphNOG01825	R
sphNOG01826	S
sphNOG01827	S
sphNOG01828	E
sphNOG01829	R
sphNOG01830	O
sphNOG01831	S
sphNOG01832	S
sphNOG01833	S
sphNOG01834	M
sphNOG01835	F
sphNOG01836	S
sphNOG01837	R
sphNOG01838	L
sphNOG01839	S
sphNOG01840	M
sphNOG01841	C
sphNOG01842	I
sphNOG01843	E
sphNOG01844	S
sphNOG01845	S
sphNOG01846	P
sphNOG01847	M
sphNOG01848	V
sphNOG01849	IQ
sphNOG01850	M
sphNOG01851	R
sphNOG01852	G
sphNOG01853	R
sphNOG01854	P
sphNOG01855	M
sphNOG01856	S
sphNOG01857	R
sphNOG01858	V
sphNOG01859	H
sphNOG01860	G
sphNOG01861	S
sphNOG01862	O
sphNOG01863	M
sphNOG01864	P
sphNOG01865	P
sphNOG01866	I
sphNOG01867	E
sphNOG01868	S
sphNOG01869	P
sphNOG01870	C
sphNOG01871	O
sphNOG01872	S
sphNOG01873	P
sphNOG01874	G
sphNOG01875	C
sphNOG01876	K
sphNOG01877	L
sphNOG01878	G
sphNOG01879	M
sphNOG01880	IQ
sphNOG01881	P
sphNOG01882	G
sphNOG01883	L
sphNOG01884	G
sphNOG01885	R
sphNOG01886	E
sphNOG01887	S
sphNOG01888	C
sphNOG01889	G
sphNOG01890	P
sphNOG01891	G
sphNOG01892	R
sphNOG01893	L
sphNOG01894	H
sphNOG01895	M
sphNOG01896	P
sphNOG01897	H
sphNOG01898	K
sphNOG01899	F
sphNOG01900	S
sphNOG01901	S
sphNOG01902	O
sphNOG01903	S
sphNOG01904	R
sphNOG01905	R
sphNOG01906	E
sphNOG01907	F
sphNOG01908	E
sphNOG01909	P
sphNOG01910	V
sphNOG01911	E
sphNOG01912	K
sphNOG01913	E
sphNOG01914	T
sphNOG01915	S
sphNOG01916	Q
sphNOG01917	R
sphNOG01918	F
sphNOG01919	S
sphNOG01920	P
sphNOG01921	S
sphNOG01922	K
sphNOG01923	L
sphNOG01924	P
sphNOG01925	M
sphNOG01926	I
sphNOG01927	Q
sphNOG01928	E
sphNOG01929	S
sphNOG01930	R
sphNOG01931	R
sphNOG01932	M
sphNOG01933	S
sphNOG01934	E
sphNOG01935	S
sphNOG01936	M
sphNOG01937	S
sphNOG01938	K
sphNOG01939	R
sphNOG01940	G
sphNOG01941	S
sphNOG01942	T
sphNOG01943	L
sphNOG01944	I
sphNOG01945	P
sphNOG01946	S
sphNOG01947	P
sphNOG01948	P
sphNOG01949	G
sphNOG01950	E
sphNOG01951	G
sphNOG01952	IQ
sphNOG01953	S
sphNOG01954	S
sphNOG01955	I
sphNOG01956	S
sphNOG01957	R
sphNOG01958	G
sphNOG01959	M
sphNOG01960	G
sphNOG01961	R
sphNOG01962	G
sphNOG01963	M
sphNOG01964	G
sphNOG01965	P
sphNOG01966	T
sphNOG01967	M
sphNOG01968	G
sphNOG01969	NT
sphNOG01970	M
sphNOG01971	R
sphNOG01972	M
sphNOG01973	S
sphNOG01974	V
sphNOG01975	S
sphNOG01976	P
sphNOG01977	Q
sphNOG01978	IQ
sphNOG01979	P
sphNOG01980	R
sphNOG01981	Q
sphNOG01982	S
sphNOG01983	R
sphNOG01984	S
sphNOG01985	S
sphNOG01986	G
sphNOG01987	P
sphNOG01988	S
sphNOG01989	G
sphNOG01990	H
sphNOG01991	G
sphNOG01992	L
sphNOG01993	C
sphNOG01994	P
sphNOG01995	M
sphNOG01996	S
sphNOG01997	G
sphNOG01998	G
sphNOG01999	E
sphNOG02000	C
sphNOG02001	G
sphNOG02002	S
sphNOG02003	P
sphNOG02004	L
sphNOG02005	K
sphNOG02006	M
sphNOG02007	Q
sphNOG02008	GM
sphNOG02009	S
sphNOG02010	L
sphNOG02011	S
sphNOG02012	G
sphNOG02013	S
sphNOG02014	P
sphNOG02015	S
sphNOG02016	M
sphNOG02017	T
sphNOG02018	EG
sphNOG02019	S
sphNOG02020	S
sphNOG02021	S
sphNOG02022	U
sphNOG02023	C
sphNOG02024	S
sphNOG02025	R
sphNOG02026	C
sphNOG02027	T
sphNOG02028	S
sphNOG02029	T
sphNOG02030	E
sphNOG02031	R
sphNOG02032	P
sphNOG02033	G
sphNOG02034	G
sphNOG02035	T
sphNOG02036	G
sphNOG02037	P
sphNOG02038	G
sphNOG02039	M
sphNOG02040	S
sphNOG02041	T
sphNOG02042	F
sphNOG02043	R
sphNOG02044	H
sphNOG02045	G
sphNOG02046	P
sphNOG02047	C
sphNOG02048	P
sphNOG02049	J
sphNOG02050	C
sphNOG02051	E
sphNOG02052	S
sphNOG02053	S
sphNOG02054	P
sphNOG02055	O
sphNOG02056	K
sphNOG02057	R
sphNOG02058	V
sphNOG02059	Q
sphNOG02060	R
sphNOG02061	S
sphNOG02062	K
sphNOG02063	M
sphNOG02064	H
sphNOG02065	C
sphNOG02066	L
sphNOG02067	E
sphNOG02068	J
sphNOG02069	Q
sphNOG02070	E
sphNOG02071	R
sphNOG02072	F
sphNOG02073	S
sphNOG02074	K
sphNOG02075	I
sphNOG02076	S
sphNOG02077	S
sphNOG02078	K
sphNOG02079	I
sphNOG02080	E
sphNOG02081	E
sphNOG02082	S
sphNOG02083	S
sphNOG02084	O
sphNOG02085	G
sphNOG02086	S
sphNOG02087	S
sphNOG02088	S
sphNOG02089	M
sphNOG02090	O
sphNOG02091	G
sphNOG02092	P
sphNOG02093	S
sphNOG02094	M
sphNOG02095	G
sphNOG02096	O
sphNOG02097	L
sphNOG02098	S
sphNOG02099	S
sphNOG02100	T
sphNOG02101	K
sphNOG02102	C
sphNOG02103	P
sphNOG02104	G
sphNOG02105	T
sphNOG02106	S
sphNOG02107	S
sphNOG02108	K
sphNOG02109	T
sphNOG02110	E
sphNOG02111	P
sphNOG02112	T
sphNOG02113	R
sphNOG02114	T
sphNOG02115	P
sphNOG02116	V
sphNOG02117	S
sphNOG02118	P
sphNOG02119	S
sphNOG02120	T
sphNOG02121	IQ
sphNOG02122	S
sphNOG02123	S
sphNOG02124	R
sphNOG02125	V
sphNOG02126	S
sphNOG02127	P
sphNOG02128	S
sphNOG02129	P
sphNOG02130	P
sphNOG02131	S
sphNOG02132	P
sphNOG02133	G
sphNOG02134	S
sphNOG02135	T
sphNOG02136	G
sphNOG02137	Q
sphNOG02138	S
sphNOG02139	E
sphNOG02140	H
sphNOG02141	K
sphNOG02142	S
sphNOG02143	T
sphNOG02144	V
sphNOG02145	R
sphNOG02146	S
sphNOG02147	S
sphNOG02148	S
sphNOG02149	G
sphNOG02150	C
sphNOG02151	G
sphNOG02152	S
sphNOG02153	G
sphNOG02154	T
sphNOG02155	P
sphNOG02156	P
sphNOG02157	S
sphNOG02158	P
sphNOG02159	S
sphNOG02160	R
sphNOG02161	M
sphNOG02162	P
sphNOG02163	Q
sphNOG02164	M
sphNOG02165	T
sphNOG02166	K
sphNOG02167	S
sphNOG02168	I
sphNOG02169	S
sphNOG02170	E
sphNOG02171	K
sphNOG02172	R
sphNOG02173	E
sphNOG02174	O
sphNOG02175	L
sphNOG02176	S
sphNOG02177	K
sphNOG02178	Q
sphNOG02179	S
sphNOG02180	M
sphNOG02181	S
sphNOG02182	R
sphNOG02183	O
sphNOG02184	S
sphNOG02185	T
sphNOG02186	L
sphNOG02187	J
sphNOG02188	S
sphNOG02189	C
sphNOG02190	R
sphNOG02191	S
sphNOG02192	P
sphNOG02193	R
sphNOG02194	P
sphNOG02195	P
sphNOG02196	K
sphNOG02197	K
sphNOG02198	P
sphNOG02199	R
sphNOG02200	S
sphNOG02201	E
sphNOG02202	S
sphNOG02203	R
sphNOG02204	G
sphNOG02205	K
sphNOG02206	S
sphNOG02207	L
sphNOG02208	E
sphNOG02209	K
sphNOG02210	E
sphNOG02211	S
sphNOG02212	G
sphNOG02213	S
sphNOG02214	S
sphNOG02215	P
sphNOG02216	R
sphNOG02217	E
sphNOG02218	G
sphNOG02219	I
sphNOG02220	S
sphNOG02221	L
sphNOG02222	S
sphNOG02223	S
sphNOG02224	D
sphNOG02225	S
sphNOG02226	I
sphNOG02227	P
sphNOG02228	R
sphNOG02229	G
sphNOG02230	S
sphNOG02231	P
sphNOG02232	G
sphNOG02233	C
sphNOG02234	I
sphNOG02235	KO
sphNOG02236	T
sphNOG02237	R
sphNOG02238	P
sphNOG02239	C
sphNOG02240	E
sphNOG02241	K
sphNOG02242	K
sphNOG02243	K
sphNOG02244	M
sphNOG02245	S
sphNOG02246	G
sphNOG02247	M
sphNOG02248	H
sphNOG02249	P
sphNOG02250	G
sphNOG02251	R
sphNOG02252	S
sphNOG02253	R
sphNOG02254	S
sphNOG02255	O
sphNOG02256	T
sphNOG02257	S
sphNOG02258	L
sphNOG02259	S
sphNOG02260	S
sphNOG02261	P
sphNOG02262	S
sphNOG02263	G
sphNOG02264	P
sphNOG02265	E
sphNOG02266	S
sphNOG02267	S
sphNOG02268	I
sphNOG02269	G
sphNOG02270	O
sphNOG02271	E
sphNOG02272	CH
sphNOG02273	M
sphNOG02274	S
sphNOG02275	V
sphNOG02276	P
sphNOG02277	P
sphNOG02278	R
sphNOG02279	S
sphNOG02280	G
sphNOG02281	K
sphNOG02282	V
sphNOG02283	E
sphNOG02284	S
sphNOG02285	M
sphNOG02286	E
sphNOG02287	P
sphNOG02288	S
sphNOG02289	P
sphNOG02290	S
sphNOG02291	P
sphNOG02292	M
sphNOG02293	S
sphNOG02294	P
sphNOG02295	Q
sphNOG02296	Q
sphNOG02297	O
sphNOG02298	M
sphNOG02299	E
sphNOG02300	G
sphNOG02301	S
sphNOG02302	K
sphNOG02303	P
sphNOG02304	M
sphNOG02305	G
sphNOG02306	R
sphNOG02307	C
sphNOG02308	P
sphNOG02309	S
sphNOG02310	R
sphNOG02311	P
sphNOG02312	S
sphNOG02313	S
sphNOG02314	S
sphNOG02315	R
sphNOG02316	E
sphNOG02317	M
sphNOG02318	G
sphNOG02319	P
sphNOG02320	M
sphNOG02321	G
sphNOG02322	S
sphNOG02323	S
sphNOG02324	S
sphNOG02325	P
sphNOG02326	S
sphNOG02327	S
sphNOG02328	M
sphNOG02329	R
sphNOG02330	S
sphNOG02331	L
sphNOG02332	P
sphNOG02333	M
sphNOG02334	S
sphNOG02335	M
sphNOG02336	R
sphNOG02337	L
sphNOG02338	S
sphNOG02339	V
sphNOG02340	P
sphNOG02341	I
sphNOG02342	S
sphNOG02343	R
sphNOG02344	E
sphNOG02345	EF
sphNOG02346	V
sphNOG02347	S
sphNOG02348	R
sphNOG02349	G
sphNOG02350	L
sphNOG02351	S
sphNOG02352	M
sphNOG02353	M
sphNOG02354	L
sphNOG02355	S
sphNOG02356	E
sphNOG02357	K
sphNOG02358	T
sphNOG02359	G
sphNOG02360	R
sphNOG02361	R
sphNOG02362	R
sphNOG02363	P
sphNOG02364	T
sphNOG02365	P
sphNOG02366	V
sphNOG02367	G
sphNOG02368	K
sphNOG02369	M
sphNOG02370	S
sphNOG02371	R
sphNOG02372	R
sphNOG02373	R
sphNOG02374	G
sphNOG02375	G
sphNOG02376	EH
sphNOG02377	R
sphNOG02378	S
sphNOG02379	S
sphNOG02380	L
sphNOG02381	C
sphNOG02382	G
sphNOG02383	S
sphNOG02384	Q
sphNOG02385	P
sphNOG02386	Q
sphNOG02387	P
sphNOG02388	Q
sphNOG02389	P
sphNOG02390	S
sphNOG02391	P
sphNOG02392	G
sphNOG02393	S
sphNOG02394	S
sphNOG02395	R
sphNOG02396	G
sphNOG02397	Q
sphNOG02398	S
sphNOG02399	P
sphNOG02400	O
sphNOG02401	E
sphNOG02402	P
sphNOG02403	M
sphNOG02404	J
sphNOG02405	K
sphNOG02406	G
sphNOG02407	R
sphNOG02408	S
sphNOG02409	S
sphNOG02410	C
sphNOG02411	K
sphNOG02412	R
sphNOG02413	S
sphNOG02414	R
sphNOG02415	S
sphNOG02416	S
sphNOG02417	G
sphNOG02418	P
sphNOG02419	T
sphNOG02420	P
sphNOG02421	S
sphNOG02422	R
sphNOG02423	G
sphNOG02424	G
sphNOG02425	T
sphNOG02426	S
sphNOG02427	M
sphNOG02428	Q
sphNOG02429	P
sphNOG02430	V
sphNOG02431	S
sphNOG02432	V
sphNOG02433	R
sphNOG02434	I
sphNOG02435	M
sphNOG02436	V
sphNOG02437	S
sphNOG02438	M
sphNOG02439	E
sphNOG02440	G
sphNOG02441	Q
sphNOG02442	I
sphNOG02443	G
sphNOG02444	C
sphNOG02445	G
sphNOG02446	S
sphNOG02447	F
sphNOG02448	S
sphNOG02449	HJ
sphNOG02450	S
sphNOG02451	P
sphNOG02452	E
sphNOG02453	R
sphNOG02454	S
sphNOG02455	K
sphNOG02456	P
sphNOG02457	T
sphNOG02458	J
sphNOG02459	P
sphNOG02460	K
sphNOG02461	M
sphNOG02462	S
sphNOG02463	G
sphNOG02464	E
sphNOG02465	E
sphNOG02466	P
sphNOG02467	S
sphNOG02468	S
sphNOG02469	S
sphNOG02470	K
sphNOG02471	M
sphNOG02472	K
sphNOG02473	G
sphNOG02474	E
sphNOG02475	S
sphNOG02476	P
sphNOG02477	E
sphNOG02478	V
sphNOG02479	P
sphNOG02480	S
sphNOG02481	T
sphNOG02482	G
sphNOG02483	M
sphNOG02484	I
sphNOG02485	M
sphNOG02486	P
sphNOG02487	Q
sphNOG02488	G
sphNOG02489	T
sphNOG02490	S
sphNOG02491	E
sphNOG02492	K
sphNOG02493	S
sphNOG02494	C
sphNOG02495	P
sphNOG02496	V
sphNOG02497	C
sphNOG02498	F
sphNOG02499	P
sphNOG02500	K
sphNOG02501	C
sphNOG02502	IQ
sphNOG02503	P
sphNOG02504	C
sphNOG02505	P
sphNOG02506	L
sphNOG02507	O
sphNOG02508	S
sphNOG02509	R
sphNOG02510	R
sphNOG02511	S
sphNOG02512	S
sphNOG02513	R
sphNOG02514	P
sphNOG02515	M
sphNOG02516	S
sphNOG02517	S
sphNOG02518	S
sphNOG02519	S
sphNOG02520	GM
sphNOG02521	K
sphNOG02522	L
sphNOG02523	R
sphNOG02524	S
sphNOG02525	G
sphNOG02526	S
sphNOG02527	M
sphNOG02528	F
sphNOG02529	M
sphNOG02530	S
sphNOG02531	P
sphNOG02532	I
sphNOG02533	R
sphNOG02534	S
sphNOG02535	S
sphNOG02536	R
sphNOG02537	R
sphNOG02538	V
sphNOG02539	R
sphNOG02540	G
sphNOG02541	R
sphNOG02542	S
sphNOG02543	E
sphNOG02544	R
sphNOG02545	S
sphNOG02546	P
sphNOG02547	E
sphNOG02548	V
sphNOG02549	R
sphNOG02550	E
sphNOG02551	T
sphNOG02552	G
sphNOG02553	R
sphNOG02554	S
sphNOG02555	G
sphNOG02556	R
sphNOG02557	P
sphNOG02558	C
sphNOG02559	P
sphNOG02560	C
sphNOG02561	S
sphNOG02562	T
sphNOG02563	C
sphNOG02564	S
sphNOG02565	E
sphNOG02566	O
sphNOG02567	G
sphNOG02568	H
sphNOG02569	S
sphNOG02570	EM
sphNOG02571	P
sphNOG02572	U
sphNOG02573	D
sphNOG02574	P
sphNOG02575	C
sphNOG02576	E
sphNOG02577	L
sphNOG02578	T
sphNOG02579	R
sphNOG02580	S
sphNOG02581	G
sphNOG02582	C
sphNOG02583	G
sphNOG02584	K
sphNOG02585	E
sphNOG02586	U
sphNOG02587	I
sphNOG02588	L
sphNOG02589	C
sphNOG02590	P
sphNOG02591	T
sphNOG02592	P
sphNOG02593	S
sphNOG02594	R
sphNOG02595	G
sphNOG02596	T
sphNOG02597	I
sphNOG02598	H
sphNOG02599	P
sphNOG02600	G
sphNOG02601	S
sphNOG02602	G
sphNOG02603	S
sphNOG02604	P
sphNOG02605	E
sphNOG02606	G
sphNOG02607	R
sphNOG02608	G
sphNOG02609	R
sphNOG02610	S
sphNOG02611	S
sphNOG02612	FP
sphNOG02613	S
sphNOG02614	S
sphNOG02615	S
sphNOG02616	S
sphNOG02617	R
sphNOG02618	E
sphNOG02619	C
sphNOG02620	P
sphNOG02621	M
sphNOG02622	V
sphNOG02623	S
sphNOG02624	S
sphNOG02625	T
sphNOG02626	M
sphNOG02627	S
sphNOG02628	S
sphNOG02629	P
sphNOG02630	M
sphNOG02631	H
sphNOG02632	S
sphNOG02633	P
sphNOG02634	S
sphNOG02635	S
sphNOG02636	C
sphNOG02637	G
sphNOG02638	S
sphNOG02639	E
sphNOG02640	G
sphNOG02641	C
sphNOG02642	K
sphNOG02643	V
sphNOG02644	K
sphNOG02645	E
sphNOG02646	J
sphNOG02647	S
sphNOG02648	R
sphNOG02649	S
sphNOG02650	T
sphNOG02651	M
sphNOG02652	IQ
sphNOG02653	S
sphNOG02654	H
sphNOG02655	Q
sphNOG02656	S
sphNOG02657	CE
sphNOG02658	S
sphNOG02659	S
sphNOG02660	R
sphNOG02661	EG
sphNOG02662	S
sphNOG02663	K
sphNOG02664	S
sphNOG02665	G
sphNOG02666	S
sphNOG02667	I
sphNOG02668	T
sphNOG02669	S
sphNOG02670	S
sphNOG02671	S
sphNOG02672	P
sphNOG02673	K
sphNOG02674	M
sphNOG02675	S
sphNOG02676	R
sphNOG02677	L
sphNOG02678	E
sphNOG02679	O
sphNOG02680	G
sphNOG02681	S
sphNOG02682	G
sphNOG02683	S
sphNOG02684	P
sphNOG02685	S
sphNOG02686	S
sphNOG02687	S
sphNOG02688	R
sphNOG02689	C
sphNOG02690	R
sphNOG02691	S
sphNOG02692	M
sphNOG02693	P
sphNOG02694	G
sphNOG02695	E
sphNOG02696	G
sphNOG02697	G
sphNOG02698	O
sphNOG02699	S
sphNOG02700	Q
sphNOG02701	S
sphNOG02702	E
sphNOG02703	E
sphNOG02704	C
sphNOG02705	C
sphNOG02706	P
sphNOG02707	S
sphNOG02708	P
sphNOG02709	G
sphNOG02710	S
sphNOG02711	P
sphNOG02712	S
sphNOG02713	K
sphNOG02714	S
sphNOG02715	G
sphNOG02716	R
sphNOG02717	S
sphNOG02718	O
sphNOG02719	S
sphNOG02720	S
sphNOG02721	C
sphNOG02722	I
sphNOG02723	O
sphNOG02724	S
sphNOG02725	C
sphNOG02726	S
sphNOG02727	C
sphNOG02728	P
sphNOG02729	P
sphNOG02730	M
sphNOG02731	E
sphNOG02732	O
sphNOG02733	R
sphNOG02734	S
sphNOG02735	R
sphNOG02736	T
sphNOG02737	T
sphNOG02738	S
sphNOG02739	R
sphNOG02740	G
sphNOG02741	S
sphNOG02742	S
sphNOG02743	H
sphNOG02744	Q
sphNOG02745	R
sphNOG02746	R
sphNOG02747	C
sphNOG02748	V
sphNOG02749	P
sphNOG02750	R
sphNOG02751	O
sphNOG02752	O
sphNOG02753	S
sphNOG02754	S
sphNOG02755	E
sphNOG02756	E
sphNOG02757	C
sphNOG02758	O
sphNOG02759	Q
sphNOG02760	S
sphNOG02761	P
sphNOG02762	S
sphNOG02763	S
sphNOG02764	E
sphNOG02765	S
sphNOG02766	S
sphNOG02767	M
sphNOG02768	T
sphNOG02769	S
sphNOG02770	V
sphNOG02771	U
sphNOG02772	O
sphNOG02773	E
sphNOG02774	T
sphNOG02775	L
sphNOG02776	P
sphNOG02777	F
sphNOG02778	F
sphNOG02779	G
sphNOG02780	V
sphNOG02781	S
sphNOG02782	G
sphNOG02783	Q
sphNOG02784	P
sphNOG02785	I
sphNOG02786	S
sphNOG02787	S
sphNOG02788	K
sphNOG02789	O
sphNOG02790	K
sphNOG02791	E
sphNOG02792	S
sphNOG02793	S
sphNOG02794	C
sphNOG02795	P
sphNOG02796	L
sphNOG02797	T
sphNOG02798	K
sphNOG02799	P
sphNOG02800	S
sphNOG02801	V
sphNOG02802	P
sphNOG02803	S
sphNOG02804	G
sphNOG02805	M
sphNOG02806	J
sphNOG02807	J
sphNOG02808	S
sphNOG02809	M
sphNOG02810	M
sphNOG02811	T
sphNOG02812	T
sphNOG02813	S
sphNOG02814	S
sphNOG02815	M
sphNOG02816	S
sphNOG02817	P
sphNOG02818	C
sphNOG02819	R
sphNOG02820	S
sphNOG02821	S
sphNOG02822	T
sphNOG02823	M
sphNOG02824	E
sphNOG02825	S
sphNOG02826	G
sphNOG02827	S
sphNOG02828	G
sphNOG02829	P
sphNOG02830	C
sphNOG02831	M
sphNOG02832	H
sphNOG02833	S
sphNOG02834	IQ
sphNOG02835	M
sphNOG02836	G
sphNOG02837	G
sphNOG02838	E
sphNOG02839	S
sphNOG02840	S
sphNOG02841	R
sphNOG02842	R
sphNOG02843	S
sphNOG02844	S
sphNOG02845	S
sphNOG02846	G
sphNOG02847	G
sphNOG02848	S
sphNOG02849	G
sphNOG02850	M
sphNOG02851	K
sphNOG02852	C
sphNOG02853	P
sphNOG02854	G
sphNOG02855	R
sphNOG02856	M
sphNOG02857	S
sphNOG02858	I
sphNOG02859	K
sphNOG02860	M
sphNOG02861	E
sphNOG02862	G
sphNOG02863	G
sphNOG02864	K
sphNOG02865	S
sphNOG02866	G
sphNOG02867	T
sphNOG02868	S
sphNOG02869	G
sphNOG02870	S
sphNOG02871	F
sphNOG02872	P
sphNOG02873	S
sphNOG02874	I
sphNOG02875	S
sphNOG02876	I
sphNOG02877	E
sphNOG02878	K
sphNOG02879	P
sphNOG02880	S
sphNOG02881	E
sphNOG02882	G
sphNOG02883	G
sphNOG02884	M
sphNOG02885	V
sphNOG02886	R
sphNOG02887	IQ
sphNOG02888	P
sphNOG02889	C
sphNOG02890	R
sphNOG02891	E
sphNOG02892	IQ
sphNOG02893	C
sphNOG02894	E
sphNOG02895	T
sphNOG02896	P
sphNOG02897	P
sphNOG02898	F
sphNOG02899	R
sphNOG02900	S
sphNOG02901	S
sphNOG02902	P
sphNOG02903	S
sphNOG02904	S
sphNOG02905	O
sphNOG02906	H
sphNOG02907	S
sphNOG02908	S
sphNOG02909	S
sphNOG02910	C
sphNOG02911	R
sphNOG02912	S
sphNOG02913	C
sphNOG02914	R
sphNOG02915	P
sphNOG02916	G
sphNOG02917	L
sphNOG02918	M
sphNOG02919	S
sphNOG02920	V
sphNOG02921	S
sphNOG02922	P
sphNOG02923	S
sphNOG02924	S
sphNOG02925	R
sphNOG02926	S
sphNOG02927	S
sphNOG02928	T
sphNOG02929	S
sphNOG02930	P
sphNOG02931	S
sphNOG02932	G
sphNOG02933	R
sphNOG02934	S
sphNOG02935	C
sphNOG02936	R
sphNOG02937	P
sphNOG02938	P
sphNOG02939	S
sphNOG02940	S
sphNOG02941	P
sphNOG02942	T
sphNOG02943	F
sphNOG02944	S
sphNOG02945	V
sphNOG02946	S
sphNOG02947	U
sphNOG02948	K
sphNOG02949	S
sphNOG02950	S
sphNOG02951	P
sphNOG02952	H
sphNOG02953	G
sphNOG02954	G
sphNOG02955	C
sphNOG02956	L
sphNOG02957	P
sphNOG02958	S
sphNOG02959	K
sphNOG02960	C
sphNOG02961	K
sphNOG02962	S
sphNOG02963	K
sphNOG02964	K
sphNOG02965	S
sphNOG02966	H
sphNOG02967	P
sphNOG02968	R
sphNOG02969	R
sphNOG02970	K
sphNOG02971	S
sphNOG02972	R
sphNOG02973	L
sphNOG02974	S
sphNOG02975	M
sphNOG02976	P
sphNOG02977	P
sphNOG02978	T
sphNOG02979	S
sphNOG02980	K
sphNOG02981	S
sphNOG02982	G
sphNOG02983	H
sphNOG02984	G
sphNOG02985	S
sphNOG02986	S
sphNOG02987	K
sphNOG02988	R
sphNOG02989	P
sphNOG02990	R
sphNOG02991	S
sphNOG02992	S
sphNOG02993	P
sphNOG02994	GM
sphNOG02995	H
sphNOG02996	P
sphNOG02997	R
sphNOG02998	S
sphNOG02999	R
sphNOG03000	E
sphNOG03001	S
sphNOG03002	L
sphNOG03003	S
sphNOG03004	G
sphNOG03005	S
sphNOG03006	C
sphNOG03007	E
sphNOG03008	E
sphNOG03009	V
sphNOG03010	S
sphNOG03011	S
sphNOG03012	L
sphNOG03013	O
sphNOG03014	H
sphNOG03015	Q
sphNOG03016	E
sphNOG03017	S
sphNOG03018	S
sphNOG03019	K
sphNOG03020	S
sphNOG03021	S
sphNOG03022	S
sphNOG03023	S
sphNOG03024	S
sphNOG03025	P
sphNOG03026	S
sphNOG03027	P
sphNOG03028	M
sphNOG03029	E
sphNOG03030	P
sphNOG03031	T
sphNOG03032	G
sphNOG03033	R
sphNOG03034	M
sphNOG03035	G
sphNOG03036	G
sphNOG03037	G
sphNOG03038	S
sphNOG03039	S
sphNOG03040	T
sphNOG03041	G
sphNOG03042	P
sphNOG03043	P
sphNOG03044	R
sphNOG03045	H
sphNOG03046	G
sphNOG03047	C
sphNOG03048	R
sphNOG03049	L
sphNOG03050	C
sphNOG03051	H
sphNOG03052	EH
sphNOG03053	GM
sphNOG03054	E
sphNOG03055	NT
sphNOG03056	K
sphNOG03057	S
sphNOG03058	K
sphNOG03059	G
sphNOG03060	E
sphNOG03061	R
sphNOG03062	T
sphNOG03063	S
sphNOG03064	G
sphNOG03065	G
sphNOG03066	V
sphNOG03067	T
sphNOG03068	S
sphNOG03069	R
sphNOG03070	S
sphNOG03071	K
sphNOG03072	T
sphNOG03073	S
sphNOG03074	R
sphNOG03075	Q
sphNOG03076	S
sphNOG03077	T
sphNOG03078	K
sphNOG03079	S
sphNOG03080	S
sphNOG03081	M
sphNOG03082	L
sphNOG03083	E
sphNOG03084	L
sphNOG03085	T
sphNOG03086	P
sphNOG03087	S
sphNOG03088	G
sphNOG03089	PT
sphNOG03090	R
sphNOG03091	S
sphNOG03092	R
sphNOG03093	L
sphNOG03094	R
sphNOG03095	P
sphNOG03096	P
sphNOG03097	S
sphNOG03098	M
sphNOG03099	S
sphNOG03100	E
sphNOG03101	T
sphNOG03102	S
sphNOG03103	R
sphNOG03104	R
sphNOG03105	IQ
sphNOG03106	O
sphNOG03107	G
sphNOG03108	C
sphNOG03109	S
sphNOG03110	M
sphNOG03111	P
sphNOG03112	S
sphNOG03113	S
sphNOG03114	T
sphNOG03115	S
sphNOG03116	M
sphNOG03117	S
sphNOG03118	V
sphNOG03119	S
sphNOG03120	S
sphNOG03121	C
sphNOG03122	C
sphNOG03123	R
sphNOG03124	M
sphNOG03125	E
sphNOG03126	C
sphNOG03127	Q
sphNOG03128	F
sphNOG03129	G
sphNOG03130	R
sphNOG03131	G
sphNOG03132	S
sphNOG03133	L
sphNOG03134	P
sphNOG03135	R
sphNOG03136	P
sphNOG03137	M
sphNOG03138	G
sphNOG03139	M
sphNOG03140	E
sphNOG03141	S
sphNOG03142	G
sphNOG03143	G
sphNOG03144	E
sphNOG03145	O
sphNOG03146	E
sphNOG03147	R
sphNOG03148	L
sphNOG03149	R
sphNOG03150	G
sphNOG03151	S
sphNOG03152	S
sphNOG03153	P
sphNOG03154	R
sphNOG03155	S
sphNOG03156	I
sphNOG03157	K
sphNOG03158	G
sphNOG03159	S
sphNOG03160	R
sphNOG03161	E
sphNOG03162	V
sphNOG03163	R
sphNOG03164	S
sphNOG03165	M
sphNOG03166	S
sphNOG03167	P
sphNOG03168	R
sphNOG03169	S
sphNOG03170	S
sphNOG03171	P
sphNOG03172	EQ
sphNOG03173	E
sphNOG03174	T
sphNOG03175	S
sphNOG03176	CG
sphNOG03177	S
sphNOG03178	P
sphNOG03179	G
sphNOG03180	K
sphNOG03181	S
sphNOG03182	S
sphNOG03183	U
sphNOG03184	T
sphNOG03185	M
sphNOG03186	K
sphNOG03187	T
sphNOG03188	R
sphNOG03189	S
sphNOG03190	K
sphNOG03191	G
sphNOG03192	C
sphNOG03193	M
sphNOG03194	P
sphNOG03195	S
sphNOG03196	O
sphNOG03197	P
sphNOG03198	S
sphNOG03199	S
sphNOG03200	R
sphNOG03201	M
sphNOG03202	C
sphNOG03203	Q
sphNOG03204	IQ
sphNOG03205	R
sphNOG03206	E
sphNOG03207	K
sphNOG03208	S
sphNOG03209	T
sphNOG03210	R
sphNOG03211	K
sphNOG03212	S
sphNOG03213	M
sphNOG03214	K
sphNOG03215	C
sphNOG03216	G
sphNOG03217	R
sphNOG03218	P
sphNOG03219	S
sphNOG03220	G
sphNOG03221	E
sphNOG03222	S
sphNOG03223	U
sphNOG03224	M
sphNOG03225	G
sphNOG03226	S
sphNOG03227	V
sphNOG03228	G
sphNOG03229	S
sphNOG03230	R
sphNOG03231	G
sphNOG03232	G
sphNOG03233	E
sphNOG03234	R
sphNOG03235	P
sphNOG03236	R
sphNOG03237	R
sphNOG03238	G
sphNOG03239	S
sphNOG03240	R
sphNOG03241	S
sphNOG03242	M
sphNOG03243	H
sphNOG03244	E
sphNOG03245	R
sphNOG03246	G
sphNOG03247	S
sphNOG03248	S
sphNOG03249	S
sphNOG03250	G
sphNOG03251	E
sphNOG03252	S
sphNOG03253	T
sphNOG03254	K
sphNOG03255	K
sphNOG03256	G
sphNOG03257	S
sphNOG03258	S
sphNOG03259	V
sphNOG03260	S
sphNOG03261	G
sphNOG03262	G
sphNOG03263	S
sphNOG03264	S
sphNOG03265	R
sphNOG03266	S
sphNOG03267	R
sphNOG03268	GK
sphNOG03269	S
sphNOG03270	R
sphNOG03271	S
sphNOG03272	S
sphNOG03273	S
sphNOG03274	G
sphNOG03275	P
sphNOG03276	P
sphNOG03277	E
sphNOG03278	O
sphNOG03279	K
sphNOG03280	P
sphNOG03281	S
sphNOG03282	G
sphNOG03283	E
sphNOG03284	M
sphNOG03285	P
sphNOG03286	K
sphNOG03287	M
sphNOG03288	P
sphNOG03289	E
sphNOG03290	C
sphNOG03291	C
sphNOG03292	G
sphNOG03293	S
sphNOG03294	P
sphNOG03295	O
sphNOG03296	C
sphNOG03297	S
sphNOG03298	S
sphNOG03299	P
sphNOG03300	S
sphNOG03301	S
sphNOG03302	GM
sphNOG03303	R
sphNOG03304	S
sphNOG03305	R
sphNOG03306	G
sphNOG03307	S
sphNOG03308	R
sphNOG03309	K
sphNOG03310	C
sphNOG03311	E
sphNOG03312	S
sphNOG03313	K
sphNOG03314	S
sphNOG03315	E
sphNOG03316	G
sphNOG03317	V
sphNOG03318	U
sphNOG03319	V
sphNOG03320	E
sphNOG03321	V
sphNOG03322	R
sphNOG03323	G
sphNOG03324	I
sphNOG03325	M
sphNOG03326	G
sphNOG03327	R
sphNOG03328	G
sphNOG03329	S
sphNOG03330	L
sphNOG03331	E
sphNOG03332	K
sphNOG03333	G
sphNOG03334	G
sphNOG03335	I
sphNOG03336	L
sphNOG03337	S
sphNOG03338	S
sphNOG03339	S
sphNOG03340	P
sphNOG03341	S
sphNOG03342	C
sphNOG03343	S
sphNOG03344	T
sphNOG03345	S
sphNOG03346	H
sphNOG03347	S
sphNOG03348	O
sphNOG03349	S
sphNOG03350	Q
sphNOG03351	M
sphNOG03352	S
sphNOG03353	S
sphNOG03354	G
sphNOG03355	R
sphNOG03356	K
sphNOG03357	O
sphNOG03358	C
sphNOG03359	P
sphNOG03360	I
sphNOG03361	O
sphNOG03362	G
sphNOG03363	S
sphNOG03364	R
sphNOG03365	S
sphNOG03366	V
sphNOG03367	S
sphNOG03368	S
sphNOG03369	P
sphNOG03370	K
sphNOG03371	E
sphNOG03372	G
sphNOG03373	S
sphNOG03374	F
sphNOG03375	S
sphNOG03376	S
sphNOG03377	S
sphNOG03378	I
sphNOG03379	G
sphNOG03380	K
sphNOG03381	P
sphNOG03382	L
sphNOG03383	M
sphNOG03384	S
sphNOG03385	P
sphNOG03386	C
sphNOG03387	V
sphNOG03388	S
sphNOG03389	T
sphNOG03390	S
sphNOG03391	CH
sphNOG03392	O
sphNOG03393	K
sphNOG03394	P
sphNOG03395	S
sphNOG03396	S
sphNOG03397	S
sphNOG03398	R
sphNOG03399	C
sphNOG03400	S
sphNOG03401	P
sphNOG03402	R
sphNOG03403	C
sphNOG03404	P
sphNOG03405	R
sphNOG03406	P
sphNOG03407	G
sphNOG03408	S
sphNOG03409	G
sphNOG03410	GM
sphNOG03411	K
sphNOG03412	P
sphNOG03413	O
sphNOG03414	K
sphNOG03415	R
sphNOG03416	S
sphNOG03417	S
sphNOG03418	K
sphNOG03419	P
sphNOG03420	F
sphNOG03421	O
sphNOG03422	E
sphNOG03423	S
sphNOG03424	S
sphNOG03425	S
sphNOG03426	C
sphNOG03427	S
sphNOG03428	O
sphNOG03429	P
sphNOG03430	S
sphNOG03431	S
sphNOG03432	P
sphNOG03433	S
sphNOG03434	E
sphNOG03435	S
sphNOG03436	G
sphNOG03437	I
sphNOG03438	K
sphNOG03439	S
sphNOG03440	G
sphNOG03441	P
sphNOG03442	P
sphNOG03443	S
sphNOG03444	G
sphNOG03445	S
sphNOG03446	E
sphNOG03447	M
sphNOG03448	O
sphNOG03449	S
sphNOG03450	O
sphNOG03451	T
sphNOG03452	R
sphNOG03453	R
sphNOG03454	P
sphNOG03455	G
sphNOG03456	C
sphNOG03457	R
sphNOG03458	S
sphNOG03459	K
sphNOG03460	S
sphNOG03461	P
sphNOG03462	L
sphNOG03463	L
sphNOG03464	R
sphNOG03465	P
sphNOG03466	R
sphNOG03467	E
sphNOG03468	M
sphNOG03469	M
sphNOG03470	G
sphNOG03471	M
sphNOG03472	GM
sphNOG03473	M
sphNOG03474	M
sphNOG03475	R
sphNOG03476	S
sphNOG03477	G
sphNOG03478	T
sphNOG03479	S
sphNOG03480	O
sphNOG03481	S
sphNOG03482	R
sphNOG03483	S
sphNOG03484	S
sphNOG03485	S
sphNOG03486	S
sphNOG03487	T
sphNOG03488	K
sphNOG03489	E
sphNOG03490	E
sphNOG03491	R
sphNOG03492	R
sphNOG03493	Q
sphNOG03494	F
sphNOG03495	V
sphNOG03496	P
sphNOG03497	P
sphNOG03498	Q
sphNOG03499	C
sphNOG03500	IQ
sphNOG03501	L
sphNOG03502	G
sphNOG03503	G
sphNOG03504	S
sphNOG03505	R
sphNOG03506	IQ
sphNOG03507	O
sphNOG03508	L
sphNOG03509	T
sphNOG03510	S
sphNOG03511	H
sphNOG03512	C
sphNOG03513	H
sphNOG03514	R
sphNOG03515	G
sphNOG03516	G
sphNOG03517	I
sphNOG03518	R
sphNOG03519	S
sphNOG03520	S
sphNOG03521	G
sphNOG03522	V
sphNOG03523	R
sphNOG03524	M
sphNOG03525	G
sphNOG03526	R
sphNOG03527	G
sphNOG03528	L
sphNOG03529	S
sphNOG03530	S
sphNOG03531	S
sphNOG03532	L
sphNOG03533	T
sphNOG03534	R
sphNOG03535	K
sphNOG03536	G
sphNOG03537	S
sphNOG03538	T
sphNOG03539	M
sphNOG03540	V
sphNOG03541	I
sphNOG03542	V
sphNOG03543	V
sphNOG03544	S
sphNOG03545	G
sphNOG03546	Q
sphNOG03547	E
sphNOG03548	S
sphNOG03549	I
sphNOG03550	K
sphNOG03551	S
sphNOG03552	G
sphNOG03553	L
sphNOG03554	S
sphNOG03555	S
sphNOG03556	P
sphNOG03557	T
sphNOG03558	E
sphNOG03559	T
sphNOG03560	M
sphNOG03561	G
sphNOG03562	C
sphNOG03563	D
sphNOG03564	E
sphNOG03565	G
sphNOG03566	F
sphNOG03567	G
sphNOG03568	G
sphNOG03569	S
sphNOG03570	O
sphNOG03571	S
sphNOG03572	P
sphNOG03573	S
sphNOG03574	R
sphNOG03575	R
sphNOG03576	J
sphNOG03577	P
sphNOG03578	G
sphNOG03579	G
sphNOG03580	P
sphNOG03581	S
sphNOG03582	GM
sphNOG03583	T
sphNOG03584	C
sphNOG03585	K
sphNOG03586	R
sphNOG03587	CG
sphNOG03588	C
sphNOG03589	V
sphNOG03590	I
sphNOG03591	G
sphNOG03592	C
sphNOG03593	R
sphNOG03594	S
sphNOG03595	L
sphNOG03596	S
sphNOG03597	G
sphNOG03598	G
sphNOG03599	S
sphNOG03600	S
sphNOG03601	IQ
sphNOG03602	S
sphNOG03603	I
sphNOG03604	V
sphNOG03605	R
sphNOG03606	P
sphNOG03607	P
sphNOG03608	S
sphNOG03609	G
sphNOG03610	S
sphNOG03611	M
sphNOG03612	T
sphNOG03613	T
sphNOG03614	E
sphNOG03615	S
sphNOG03616	S
sphNOG03617	I
sphNOG03618	R
sphNOG03619	S
sphNOG03620	M
sphNOG03621	S
sphNOG03622	P
sphNOG03623	K
sphNOG03624	S
sphNOG03625	K
sphNOG03626	M
sphNOG03627	K
sphNOG03628	R
sphNOG03629	R
sphNOG03630	C
sphNOG03631	P
sphNOG03632	S
sphNOG03633	C
sphNOG03634	P
sphNOG03635	C
sphNOG03636	G
sphNOG03637	R
sphNOG03638	S
sphNOG03639	R
sphNOG03640	O
sphNOG03641	E
sphNOG03642	S
sphNOG03643	M
sphNOG03644	T
sphNOG03645	O
sphNOG03646	O
sphNOG03647	V
sphNOG03648	S
sphNOG03649	S
sphNOG03650	K
sphNOG03651	H
sphNOG03652	R
sphNOG03653	S
sphNOG03654	R
sphNOG03655	S
sphNOG03656	S
sphNOG03657	T
sphNOG03658	T
sphNOG03659	P
sphNOG03660	V
sphNOG03661	S
sphNOG03662	C
sphNOG03663	R
sphNOG03664	K
sphNOG03665	S
sphNOG03666	R
sphNOG03667	S
sphNOG03668	O
sphNOG03669	KT
sphNOG03670	S
sphNOG03671	M
sphNOG03672	P
sphNOG03673	S
sphNOG03674	G
sphNOG03675	V
sphNOG03676	G
sphNOG03677	K
sphNOG03678	E
sphNOG03679	E
sphNOG03680	G
sphNOG03681	H
sphNOG03682	R
sphNOG03683	P
sphNOG03684	P
sphNOG03685	G
sphNOG03686	E
sphNOG03687	T
sphNOG03688	S
sphNOG03689	E
sphNOG03690	S
sphNOG03691	R
sphNOG03692	IQ
sphNOG03693	C
sphNOG03694	S
sphNOG03695	K
sphNOG03696	T
sphNOG03697	P
sphNOG03698	S
sphNOG03699	E
sphNOG03700	S
sphNOG03701	P
sphNOG03702	G
sphNOG03703	V
sphNOG03704	R
sphNOG03705	S
sphNOG03706	K
sphNOG03707	Q
sphNOG03708	T
sphNOG03709	C
sphNOG03710	I
sphNOG03711	R
sphNOG03712	F
sphNOG03713	P
sphNOG03714	R
sphNOG03715	E
sphNOG03716	R
sphNOG03717	E
sphNOG03718	S
sphNOG03719	R
sphNOG03720	Q
sphNOG03721	P
sphNOG03722	M
sphNOG03723	S
sphNOG03724	S
sphNOG03725	G
sphNOG03726	G
sphNOG03727	P
sphNOG03728	S
sphNOG03729	S
sphNOG03730	T
sphNOG03731	P
sphNOG03732	S
sphNOG03733	K
sphNOG03734	V
sphNOG03735	P
sphNOG03736	IQ
sphNOG03737	S
sphNOG03738	G
sphNOG03739	S
sphNOG03740	G
sphNOG03741	O
sphNOG03742	V
sphNOG03743	S
sphNOG03744	F
sphNOG03745	M
sphNOG03746	E
sphNOG03747	S
sphNOG03748	S
sphNOG03749	O
sphNOG03750	C
sphNOG03751	S
sphNOG03752	T
sphNOG03753	M
sphNOG03754	F
sphNOG03755	P
sphNOG03756	S
sphNOG03757	F
sphNOG03758	IQ
sphNOG03759	I
sphNOG03760	S
sphNOG03761	P
sphNOG03762	S
sphNOG03763	L
sphNOG03764	P
sphNOG03765	G
sphNOG03766	R
sphNOG03767	L
sphNOG03768	H
sphNOG03769	P
sphNOG03770	I
sphNOG03771	P
sphNOG03772	H
sphNOG03773	K
sphNOG03774	V
sphNOG03775	U
sphNOG03776	H
sphNOG03777	T
sphNOG03778	G
sphNOG03779	S
sphNOG03780	IQ
sphNOG03781	S
sphNOG03782	F
sphNOG03783	R
sphNOG03784	P
sphNOG03785	S
sphNOG03786	G
sphNOG03787	S
sphNOG03788	K
sphNOG03789	R
sphNOG03790	G
sphNOG03791	S
sphNOG03792	P
sphNOG03793	F
sphNOG03794	K
sphNOG03795	S
sphNOG03796	R
sphNOG03797	CH
sphNOG03798	P
sphNOG03799	I
sphNOG03800	H
sphNOG03801	GM
sphNOG03802	G
sphNOG03803	S
sphNOG03804	O
sphNOG03805	S
sphNOG03806	M
sphNOG03807	O
sphNOG03808	S
sphNOG03809	S
sphNOG03810	S
sphNOG03811	C
sphNOG03812	I
sphNOG03813	K
sphNOG03814	S
sphNOG03815	S
sphNOG03816	L
sphNOG03817	S
sphNOG03818	H
sphNOG03819	F
sphNOG03820	S
sphNOG03821	R
sphNOG03822	R
sphNOG03823	CG
sphNOG03824	K
sphNOG03825	S
sphNOG03826	C
sphNOG03827	C
sphNOG03828	E
sphNOG03829	K
sphNOG03830	M
sphNOG03831	F
sphNOG03832	T
sphNOG03833	P
sphNOG03834	P
sphNOG03835	R
sphNOG03836	P
sphNOG03837	G
sphNOG03838	G
sphNOG03839	G
sphNOG03840	P
sphNOG03841	S
sphNOG03842	R
sphNOG03843	S
sphNOG03844	Q
sphNOG03845	T
sphNOG03846	S
sphNOG03847	S
sphNOG03848	G
sphNOG03849	R
sphNOG03850	I
sphNOG03851	R
sphNOG03852	S
sphNOG03853	S
sphNOG03854	C
sphNOG03855	S
sphNOG03856	S
sphNOG03857	K
sphNOG03858	S
sphNOG03859	KO
sphNOG03860	R
sphNOG03861	I
sphNOG03862	S
sphNOG03863	S
sphNOG03864	T
sphNOG03865	E
sphNOG03866	P
sphNOG03867	P
sphNOG03868	T
sphNOG03869	C
sphNOG03870	S
sphNOG03871	P
sphNOG03872	R
sphNOG03873	P
sphNOG03874	M
sphNOG03875	M
sphNOG03876	R
sphNOG03877	R
sphNOG03878	S
sphNOG03879	S
sphNOG03880	S
sphNOG03881	K
sphNOG03882	S
sphNOG03883	S
sphNOG03884	K
sphNOG03885	C
sphNOG03886	G
sphNOG03887	G
sphNOG03888	S
sphNOG03889	V
sphNOG03890	S
sphNOG03891	P
sphNOG03892	G
sphNOG03893	S
sphNOG03894	P
sphNOG03895	S
sphNOG03896	M
sphNOG03897	S
sphNOG03898	F
sphNOG03899	P
sphNOG03900	S
sphNOG03901	K
sphNOG03902	S
sphNOG03903	S
sphNOG03904	S
sphNOG03905	R
sphNOG03906	S
sphNOG03907	S
sphNOG03908	G
sphNOG03909	K
sphNOG03910	S
sphNOG03911	T
sphNOG03912	S
sphNOG03913	K
sphNOG03914	S
sphNOG03915	G
sphNOG03916	C
sphNOG03917	L
sphNOG03918	S
sphNOG03919	P
sphNOG03920	S
sphNOG03921	Q
sphNOG03922	E
sphNOG03923	G
sphNOG03924	S
sphNOG03925	G
sphNOG03926	L
sphNOG03927	M
sphNOG03928	T
sphNOG03929	S
sphNOG03930	R
sphNOG03931	S
sphNOG03932	I
sphNOG03933	G
sphNOG03934	K
sphNOG03935	Q
sphNOG03936	P
sphNOG03937	S
sphNOG03938	M
sphNOG03939	S
sphNOG03940	T
sphNOG03941	R
sphNOG03942	R
sphNOG03943	G
sphNOG03944	F
sphNOG03945	P
sphNOG03946	S
sphNOG03947	R
sphNOG03948	S
sphNOG03949	G
sphNOG03950	T
sphNOG03951	K
sphNOG03952	S
sphNOG03953	V
sphNOG03954	S
sphNOG03955	T
sphNOG03956	G
sphNOG03957	S
sphNOG03958	R
sphNOG03959	R
sphNOG03960	M
sphNOG03961	C
sphNOG03962	E
sphNOG03963	M
sphNOG03964	S
sphNOG03965	I
sphNOG03966	I
sphNOG03967	R
sphNOG03968	I
sphNOG03969	V
sphNOG03970	C
sphNOG03971	S
sphNOG03972	R
sphNOG03973	E
sphNOG03974	R
sphNOG03975	G
sphNOG03976	T
sphNOG03977	O
sphNOG03978	M
sphNOG03979	F
sphNOG03980	E
sphNOG03981	G
sphNOG03982	S
sphNOG03983	R
sphNOG03984	G
sphNOG03985	E
sphNOG03986	G
sphNOG03987	M
sphNOG03988	R
sphNOG03989	H
sphNOG03990	O
sphNOG03991	I
sphNOG03992	I
sphNOG03993	R
sphNOG03994	C
sphNOG03995	IQ
sphNOG03996	P
sphNOG03997	L
sphNOG03998	S
sphNOG03999	P
sphNOG04000	M
sphNOG04001	S
sphNOG04002	P
sphNOG04003	G
sphNOG04004	Q
sphNOG04005	S
sphNOG04006	C
sphNOG04007	S
sphNOG04008	S
sphNOG04009	S
sphNOG04010	M
sphNOG04011	U
sphNOG04012	S
sphNOG04013	G
sphNOG04014	E
sphNOG04015	C
sphNOG04016	G
sphNOG04017	S
sphNOG04018	H
sphNOG04019	R
sphNOG04020	T
sphNOG04021	E
sphNOG04022	S
sphNOG04023	M
sphNOG04024	R
sphNOG04025	G
sphNOG04026	P
sphNOG04027	E
sphNOG04028	V
sphNOG04029	G
sphNOG04030	C
sphNOG04031	G
sphNOG04032	O
sphNOG04033	E
sphNOG04034	S
sphNOG04035	L
sphNOG04036	T
sphNOG04037	S
sphNOG04038	M
sphNOG04039	I
sphNOG04040	GM
sphNOG04041	S
sphNOG04042	E
sphNOG04043	P
sphNOG04044	S
sphNOG04045	E
sphNOG04046	G
sphNOG04047	H
sphNOG04048	R
sphNOG04049	L
sphNOG04050	S
sphNOG04051	E
sphNOG04052	L
sphNOG04053	P
sphNOG04054	E
sphNOG04055	G
sphNOG04056	P
sphNOG04057	K
sphNOG04058	E
sphNOG04059	S
sphNOG04060	S
sphNOG04061	E
sphNOG04062	R
sphNOG04063	F
sphNOG04064	R
sphNOG04065	M
sphNOG04066	S
sphNOG04067	S
sphNOG04068	S
sphNOG04069	S
sphNOG04070	S
sphNOG04071	G
sphNOG04072	R
sphNOG04073	E
sphNOG04074	S
sphNOG04075	P
sphNOG04076	K
sphNOG04077	C
sphNOG04078	S
sphNOG04079	S
sphNOG04080	S
sphNOG04081	G
sphNOG04082	G
sphNOG04083	L
sphNOG04084	R
sphNOG04085	E
sphNOG04086	S
sphNOG04087	R
sphNOG04088	S
sphNOG04089	T
sphNOG04090	E
sphNOG04091	M
sphNOG04092	K
sphNOG04093	S
sphNOG04094	G
sphNOG04095	R
sphNOG04096	G
sphNOG04097	S
sphNOG04098	P
sphNOG04099	S
sphNOG04100	T
sphNOG04101	M
sphNOG04102	K
sphNOG04103	S
sphNOG04104	O
sphNOG04105	S
sphNOG04106	G
sphNOG04107	K
sphNOG04108	K
sphNOG04109	S
sphNOG04110	S
sphNOG04111	C
sphNOG04112	I
sphNOG04113	G
sphNOG04114	S
sphNOG04115	P
sphNOG04116	P
sphNOG04117	F
sphNOG04118	T
sphNOG04119	S
sphNOG04120	S
sphNOG04121	G
sphNOG04122	E
sphNOG04123	G
sphNOG04124	L
sphNOG04125	R
sphNOG04126	O
sphNOG04127	G
sphNOG04128	S
sphNOG04129	S
sphNOG04130	S
sphNOG04131	P
sphNOG04132	P
sphNOG04133	P
sphNOG04134	T
sphNOG04135	S
sphNOG04136	O
sphNOG04137	P
sphNOG04138	E
sphNOG04139	S
sphNOG04140	I
sphNOG04141	K
sphNOG04142	G
sphNOG04143	G
sphNOG04144	S
sphNOG04145	M
sphNOG04146	M
sphNOG04147	M
sphNOG04148	H
sphNOG04149	GM
sphNOG04150	M
sphNOG04151	S
sphNOG04152	G
sphNOG04153	M
sphNOG04154	G
sphNOG04155	Q
sphNOG04156	R
sphNOG04157	K
sphNOG04158	T
sphNOG04159	S
sphNOG04160	S
sphNOG04161	T
sphNOG04162	M
sphNOG04163	S
sphNOG04164	P
sphNOG04165	P
sphNOG04166	P
sphNOG04167	G
sphNOG04168	P
sphNOG04169	E
sphNOG04170	K
sphNOG04171	H
sphNOG04172	P
sphNOG04173	G
sphNOG04174	F
sphNOG04175	S
sphNOG04176	S
sphNOG04177	I
sphNOG04178	R
sphNOG04179	T
sphNOG04180	S
sphNOG04181	O
sphNOG04182	G
sphNOG04183	H
sphNOG04184	S
sphNOG04185	P
sphNOG04186	R
sphNOG04187	L
sphNOG04188	K
sphNOG04189	K
sphNOG04190	S
sphNOG04191	S
sphNOG04192	G
sphNOG04193	O
sphNOG04194	L
sphNOG04195	R
sphNOG04196	K
sphNOG04197	H
sphNOG04198	R
sphNOG04199	Q
sphNOG04200	R
sphNOG04201	T
sphNOG04202	R
sphNOG04203	C
sphNOG04204	NT
sphNOG04205	S
sphNOG04206	S
sphNOG04207	T
sphNOG04208	K
sphNOG04209	S
sphNOG04210	T
sphNOG04211	K
sphNOG04212	K
sphNOG04213	K
sphNOG04214	PQ
sphNOG04215	M
sphNOG04216	G
sphNOG04217	M
sphNOG04218	R
sphNOG04219	T
sphNOG04220	H
sphNOG04221	O
sphNOG04222	S
sphNOG04223	R
sphNOG04224	H
sphNOG04225	R
sphNOG04226	K
sphNOG04227	G
sphNOG04228	T
sphNOG04229	T
sphNOG04230	F
sphNOG04231	P
sphNOG04232	T
sphNOG04233	S
sphNOG04234	U
sphNOG04235	M
sphNOG04236	M
sphNOG04237	J
sphNOG04238	R
sphNOG04239	V
sphNOG04240	P
sphNOG04241	G
sphNOG04242	G
sphNOG04243	S
sphNOG04244	H
sphNOG04245	S
sphNOG04246	R
sphNOG04247	S
sphNOG04248	S
sphNOG04249	M
sphNOG04250	L
sphNOG04251	E
sphNOG04252	O
sphNOG04253	P
sphNOG04254	R
sphNOG04255	S
sphNOG04256	T
sphNOG04257	K
sphNOG04258	R
sphNOG04259	S
sphNOG04260	S
sphNOG04261	S
sphNOG04262	S
sphNOG04263	S
sphNOG04264	F
sphNOG04265	KT
sphNOG04266	S
sphNOG04267	S
sphNOG04268	S
sphNOG04269	S
sphNOG04270	S
sphNOG04271	M
sphNOG04272	T
sphNOG04273	S
sphNOG04274	S
sphNOG04275	T
sphNOG04276	S
sphNOG04277	Q
sphNOG04278	S
sphNOG04279	T
sphNOG04280	P
sphNOG04281	R
sphNOG04282	R
sphNOG04283	T
sphNOG04284	S
sphNOG04285	C
sphNOG04286	K
sphNOG04287	S
sphNOG04288	S
sphNOG04289	M
sphNOG04290	S
sphNOG04291	S
sphNOG04292	S
sphNOG04293	M
sphNOG04294	J
sphNOG04295	S
sphNOG04296	R
sphNOG04297	S
sphNOG04298	R
sphNOG04299	C
sphNOG04300	S
sphNOG04301	S
sphNOG04302	S
sphNOG04303	R
sphNOG04304	S
sphNOG04305	I
sphNOG04306	T
sphNOG04307	S
sphNOG04308	H
sphNOG04309	R
sphNOG04310	G
sphNOG04311	S
sphNOG04312	S
sphNOG04313	P
sphNOG04314	S
sphNOG04315	R
sphNOG04316	S
sphNOG04317	S
sphNOG04318	K
sphNOG04319	S
sphNOG04320	S
sphNOG04321	T
sphNOG04322	M
sphNOG04323	IQ
sphNOG04324	S
sphNOG04325	J
sphNOG04326	G
sphNOG04327	S
sphNOG04328	S
sphNOG04329	H
sphNOG04330	R
sphNOG04331	T
sphNOG04332	Q
sphNOG04333	S
sphNOG04334	S
sphNOG04335	T
sphNOG04336	E
sphNOG04337	G
sphNOG04338	S
sphNOG04339	T
sphNOG04340	C
sphNOG04341	M
sphNOG04342	R
sphNOG04343	E
sphNOG04344	V
sphNOG04345	L
sphNOG04346	M
sphNOG04347	S
sphNOG04348	M
sphNOG04349	K
sphNOG04350	K
sphNOG04351	R
sphNOG04352	R
sphNOG04353	H
sphNOG04354	V
sphNOG04355	C
sphNOG04356	S
sphNOG04357	D
sphNOG04358	S
sphNOG04359	E
sphNOG04360	I
sphNOG04361	G
sphNOG04362	L
sphNOG04363	K
sphNOG04364	P
sphNOG04365	S
sphNOG04366	S
sphNOG04367	L
sphNOG04368	M
sphNOG04369	O
sphNOG04370	R
sphNOG04371	I
sphNOG04372	R
sphNOG04373	T
sphNOG04374	S
sphNOG04375	L
sphNOG04376	R
sphNOG04377	S
sphNOG04378	S
sphNOG04379	K
sphNOG04380	M
sphNOG04381	H
sphNOG04382	R
sphNOG04383	I
sphNOG04384	T
sphNOG04385	T
sphNOG04386	S
sphNOG04387	R
sphNOG04388	O
sphNOG04389	M
sphNOG04390	M
sphNOG04391	S
sphNOG04392	T
sphNOG04393	S
sphNOG04394	S
sphNOG04395	K
sphNOG04396	T
sphNOG04397	C
sphNOG04398	R
sphNOG04399	S
sphNOG04400	T
sphNOG04401	K
sphNOG04402	M
sphNOG04403	H
sphNOG04404	K
sphNOG04405	S
sphNOG04406	K
sphNOG04407	E
sphNOG04408	S
sphNOG04409	S
sphNOG04410	P
sphNOG04411	T
sphNOG04412	S
sphNOG04413	S
sphNOG04414	S
sphNOG04415	S
sphNOG04416	S
sphNOG04417	M
sphNOG04418	M
sphNOG04419	P
sphNOG04420	K
sphNOG04421	K
sphNOG04422	T
sphNOG04423	I
sphNOG04424	M
sphNOG04425	J
sphNOG04426	R
sphNOG04427	K
sphNOG04428	T
sphNOG04429	IQ
sphNOG04430	R
sphNOG04431	T
sphNOG04432	T
sphNOG04433	R
sphNOG04434	M
sphNOG04435	G
sphNOG04436	R
sphNOG04437	S
sphNOG04438	R
sphNOG04439	C
sphNOG04440	S
sphNOG04441	R
sphNOG04442	S
sphNOG04443	R
sphNOG04444	K
sphNOG04445	E
sphNOG04446	S
sphNOG04447	S
sphNOG04448	R
sphNOG04449	S
sphNOG04450	F
sphNOG04451	I
sphNOG04452	R
sphNOG04453	T
sphNOG04454	U
sphNOG04455	G
sphNOG04456	V
sphNOG04457	S
sphNOG04458	S
sphNOG04459	S
sphNOG04460	C
sphNOG04461	S
sphNOG04462	S
sphNOG04463	V
sphNOG04464	T
sphNOG04465	P
sphNOG04466	I
sphNOG04467	M
sphNOG04468	M
sphNOG04469	M
sphNOG04470	S
sphNOG04471	R
sphNOG04472	S
sphNOG04473	V
sphNOG04474	K
sphNOG04475	K
sphNOG04476	L
sphNOG04477	S
sphNOG04478	R
sphNOG04479	T
sphNOG04480	T
sphNOG04481	S
sphNOG04482	C
sphNOG04483	O
sphNOG04484	M
sphNOG04485	GM
sphNOG04486	S
sphNOG04487	S
sphNOG04488	T
sphNOG04489	S
sphNOG04490	R
sphNOG04491	M
sphNOG04492	C
sphNOG04493	R
sphNOG04494	R
sphNOG04495	T
sphNOG04496	T
sphNOG04497	S
sphNOG04498	R
sphNOG04499	I
sphNOG04500	GK
sphNOG04501	O
sphNOG04502	S
sphNOG04503	S
sphNOG04504	M
sphNOG04505	S
sphNOG04506	R
sphNOG04507	R
sphNOG04508	T
sphNOG04509	M
sphNOG04510	S
sphNOG04511	O
sphNOG04512	S
sphNOG04513	M
sphNOG04514	K
sphNOG04515	R
sphNOG04516	S
sphNOG04517	S
sphNOG04518	S
sphNOG04519	T
sphNOG04520	S
sphNOG04521	K
sphNOG04522	T
sphNOG04523	S
sphNOG04524	S
sphNOG04525	T
sphNOG04526	S
sphNOG04527	C
sphNOG04528	S
sphNOG04529	S
sphNOG04530	V
sphNOG04531	G
sphNOG04532	P
sphNOG04533	T
sphNOG04534	R
sphNOG04535	S
sphNOG04536	T
sphNOG04537	S
sphNOG04538	T
sphNOG04539	O
sphNOG04540	S
sphNOG04541	R
sphNOG04542	I
sphNOG04543	S
sphNOG04544	M
sphNOG04545	K
sphNOG04546	R
sphNOG04547	S
sphNOG04548	K
sphNOG04549	S
sphNOG04550	Q
sphNOG04551	S
sphNOG04552	L
sphNOG04553	E
sphNOG04554	S
sphNOG04555	S
sphNOG04556	S
sphNOG04557	S
sphNOG04558	G
sphNOG04559	S
sphNOG04560	S
sphNOG04561	R
sphNOG04562	M
sphNOG04563	C
sphNOG04564	P
sphNOG04565	R
sphNOG04566	C
sphNOG04567	S
sphNOG04568	EG
sphNOG04569	S
sphNOG04570	T
sphNOG04571	S
sphNOG04572	R
sphNOG04573	T
sphNOG04574	J
sphNOG04575	K
sphNOG04576	O
sphNOG04577	K
sphNOG04578	S
sphNOG04579	S
sphNOG04580	S
sphNOG04581	K
sphNOG04582	K
sphNOG04583	S
sphNOG04584	K
sphNOG04585	S
sphNOG04586	T
sphNOG04587	S
sphNOG04588	S
sphNOG04589	N
sphNOG04590	I
sphNOG04591	M
sphNOG04592	T
sphNOG04593	O
sphNOG04594	S
sphNOG04595	K
sphNOG04596	S
sphNOG04597	L
sphNOG04598	K
sphNOG04599	K
sphNOG04600	S
sphNOG04601	R
sphNOG04602	O
sphNOG04603	E
sphNOG04604	T
sphNOG04605	S
sphNOG04606	R
sphNOG04607	IQ
sphNOG04608	H
sphNOG04609	J
sphNOG04610	S
sphNOG04611	R
sphNOG04612	O
sphNOG04613	S
sphNOG04614	R
sphNOG04615	S
sphNOG04616	T
sphNOG04617	S
sphNOG04618	S
sphNOG04619	S
sphNOG04620	K
sphNOG04621	T
sphNOG04622	H
sphNOG04623	S
sphNOG04624	F
sphNOG04625	S
sphNOG04626	S
sphNOG04627	R
sphNOG04628	F
sphNOG04629	R
sphNOG04630	R
sphNOG04631	S
sphNOG04632	O
sphNOG04633	S
sphNOG04634	K
sphNOG04635	S
sphNOG04636	H
sphNOG04637	P
sphNOG04638	O
sphNOG04639	S
sphNOG04640	S
sphNOG04641	S
sphNOG04642	R
sphNOG04643	R
sphNOG04644	S
sphNOG04645	S
sphNOG04646	R
sphNOG04647	S
sphNOG04648	R
sphNOG04649	P
sphNOG04650	S
sphNOG04651	R
sphNOG04652	J
sphNOG04653	T
sphNOG04654	S
sphNOG04655	I
sphNOG04656	R
sphNOG04657	S
sphNOG04658	R
sphNOG04659	S
sphNOG04660	L
sphNOG04661	F
sphNOG04662	C
sphNOG04663	S
sphNOG04664	G
sphNOG04665	S
sphNOG04666	I
sphNOG04667	R
sphNOG04668	S
sphNOG04669	S
sphNOG04670	S
sphNOG04671	Q
sphNOG04672	C
sphNOG04673	K
sphNOG04674	S
sphNOG04675	S
sphNOG04676	S
sphNOG04677	P
sphNOG04678	T
sphNOG04679	S
sphNOG04680	S
sphNOG04681	KT
sphNOG04682	S
sphNOG04683	S
sphNOG04684	CH
sphNOG04685	Q
sphNOG04686	S
sphNOG04687	S
sphNOG04688	K
sphNOG04689	T
sphNOG04690	K
sphNOG04691	P
sphNOG04692	O
sphNOG04693	S
sphNOG04694	T
sphNOG04695	K
sphNOG04696	S
sphNOG04697	R
sphNOG04698	V
sphNOG04699	S
sphNOG04700	M
sphNOG04701	M
sphNOG04702	Q
sphNOG04703	R
sphNOG04704	S
sphNOG04705	R
sphNOG04706	K
sphNOG04707	S
sphNOG04708	T
sphNOG04709	S
sphNOG04710	S
sphNOG04711	K
sphNOG04712	R
sphNOG04713	M
sphNOG04714	R
sphNOG04715	L
sphNOG04716	K
sphNOG04717	K
sphNOG04718	K
sphNOG04719	NT
sphNOG04720	K
sphNOG04721	S
sphNOG04722	S
sphNOG04723	S
sphNOG04724	K
sphNOG04725	G
sphNOG04726	K
sphNOG04727	S
sphNOG04728	S
sphNOG04729	S
sphNOG04730	R
sphNOG04731	T
sphNOG04732	P
sphNOG04733	V
sphNOG04734	S
sphNOG04735	Q
sphNOG04736	S
sphNOG04737	T
sphNOG04738	K
sphNOG04739	Q
sphNOG04740	S
sphNOG04741	K
sphNOG04742	M
sphNOG04743	K
sphNOG04744	S
sphNOG04745	T
sphNOG04746	S
sphNOG04747	K
sphNOG04748	R
sphNOG04749	S
sphNOG04750	T
sphNOG04751	S
sphNOG04752	NT
sphNOG04753	I
sphNOG04754	S
sphNOG04755	S
sphNOG04756	M
sphNOG04757	J
sphNOG04758	R
sphNOG04759	K
sphNOG04760	G
sphNOG04761	K
sphNOG04762	C
sphNOG04763	G
sphNOG04764	R
sphNOG04765	S
sphNOG04766	S
sphNOG04767	J
sphNOG04768	E
sphNOG04769	S
sphNOG04770	T
sphNOG04771	K
sphNOG04772	R
sphNOG04773	S
sphNOG04774	S
sphNOG04775	S
sphNOG04776	R
sphNOG04777	R
sphNOG04778	M
sphNOG04779	M
sphNOG04780	V
sphNOG04781	R
sphNOG04782	S
sphNOG04783	E
sphNOG04784	K
sphNOG04785	D
sphNOG04786	S
sphNOG04787	O
sphNOG04788	S
sphNOG04789	O
sphNOG04790	S
sphNOG04791	C
sphNOG04792	E
sphNOG04793	S
sphNOG04794	T
sphNOG04795	S
sphNOG04796	L
sphNOG04797	K
sphNOG04798	R
sphNOG04799	S
sphNOG04800	S
sphNOG04801	O
sphNOG04802	S
sphNOG04803	S
sphNOG04804	S
sphNOG04805	L
sphNOG04806	T
sphNOG04807	R
sphNOG04808	S
sphNOG04809	S
sphNOG04810	S
sphNOG04811	L
sphNOG04812	R
sphNOG04813	S
sphNOG04814	L
sphNOG04815	K
sphNOG04816	S
sphNOG04817	I
sphNOG04818	J
sphNOG04819	P
sphNOG04820	S
sphNOG04821	S
sphNOG04822	S
sphNOG04823	T
sphNOG04824	T
sphNOG04825	O
sphNOG04826	L
sphNOG04827	R
sphNOG04828	S
sphNOG04829	R
sphNOG04830	I
sphNOG04831	M
sphNOG04832	G
sphNOG04833	S
sphNOG04834	S
sphNOG04835	T
sphNOG04836	L
sphNOG04837	S
sphNOG04838	K
sphNOG04839	T
sphNOG04840	Q
sphNOG04841	S
sphNOG04842	M
sphNOG04843	R
sphNOG04844	F
sphNOG04845	S
sphNOG04846	S
sphNOG04847	C
sphNOG04848	L
sphNOG04849	J
sphNOG04850	P
sphNOG04851	K
sphNOG04852	T
sphNOG04853	R
sphNOG04854	K
sphNOG04855	P
sphNOG04856	K
sphNOG04857	T
sphNOG04858	P
sphNOG04859	T
sphNOG04860	O
sphNOG04861	S
sphNOG04862	S
sphNOG04863	S
sphNOG04864	G
sphNOG04865	K
sphNOG04866	R
sphNOG04867	S
sphNOG04868	S
sphNOG04869	R
sphNOG04870	S
sphNOG04871	G
sphNOG04872	S
sphNOG04873	G
sphNOG04874	S
sphNOG04875	S
sphNOG04876	R
sphNOG04877	S
sphNOG04878	K
sphNOG04879	M
sphNOG04880	S
sphNOG04881	K
sphNOG04882	K
sphNOG04883	O
sphNOG04884	I
sphNOG04885	K
sphNOG04886	S
sphNOG04887	K
sphNOG04888	R
sphNOG04889	E
sphNOG04890	H
sphNOG04891	K
sphNOG04892	O
sphNOG04893	S
sphNOG04894	K
sphNOG04895	S
sphNOG04896	I
sphNOG04897	I
sphNOG04898	S
sphNOG04899	R
sphNOG04900	R
sphNOG04901	G
sphNOG04902	T
sphNOG04903	GM
sphNOG04904	K
sphNOG04905	K
sphNOG04906	S
sphNOG04907	R
sphNOG04908	S
sphNOG04909	R
sphNOG04910	S
sphNOG04911	T
sphNOG04912	S
sphNOG04913	T
sphNOG04914	V
sphNOG04915	S
sphNOG04916	P
sphNOG04917	S
sphNOG04918	I
sphNOG04919	S
sphNOG04920	S
sphNOG04921	K
sphNOG04922	O
sphNOG04923	R
sphNOG04924	S
sphNOG04925	K
sphNOG04926	G
sphNOG04927	H
sphNOG04928	S
sphNOG04929	S
sphNOG04930	K
sphNOG04931	T
sphNOG04932	E
sphNOG04933	K
sphNOG04934	S
sphNOG04935	S
sphNOG04936	K
sphNOG04937	S
sphNOG04938	S
sphNOG04939	T
sphNOG04940	S
sphNOG04941	R
sphNOG04942	S
sphNOG04943	K
sphNOG04944	S
sphNOG04945	K
sphNOG04946	S
sphNOG04947	J
sphNOG04948	K
sphNOG04949	R
sphNOG04950	O
sphNOG04951	S
sphNOG04952	V
sphNOG04953	S
sphNOG04954	T
sphNOG04955	R
sphNOG04956	K
sphNOG04957	S
sphNOG04958	R
sphNOG04959	U
sphNOG04960	S
sphNOG04961	T
sphNOG04962	G
sphNOG04963	K
sphNOG04964	S
sphNOG04965	I
sphNOG04966	S
sphNOG04967	J
sphNOG04968	I
sphNOG04969	T
sphNOG04970	S
sphNOG04971	M
sphNOG04972	G
sphNOG04973	R
sphNOG04974	S
sphNOG04975	S
sphNOG04976	Q
sphNOG04977	P
sphNOG04978	E
sphNOG04979	S
sphNOG04980	H
sphNOG04981	O
sphNOG04982	S
sphNOG04983	S
sphNOG04984	T
sphNOG04985	R
sphNOG04986	S
sphNOG04987	FJ
sphNOG04988	S
sphNOG04989	S
sphNOG04990	S
sphNOG04991	M
sphNOG04992	K
sphNOG04993	S
sphNOG04994	S
sphNOG04995	J
sphNOG04996	R
sphNOG04997	K
sphNOG04998	S
sphNOG04999	K
sphNOG05000	S
sphNOG05001	H
sphNOG05002	S
sphNOG05003	S
sphNOG05004	O
sphNOG05005	M
sphNOG05006	K
sphNOG05007	C
sphNOG05008	K
sphNOG05009	S
sphNOG05010	T
sphNOG05011	K
sphNOG05012	K
sphNOG05013	S
sphNOG05014	H
sphNOG05015	M
sphNOG05016	S
sphNOG05017	K
sphNOG05018	R
sphNOG05019	R
sphNOG05020	S
sphNOG05021	S
sphNOG05022	S
sphNOG05023	S
sphNOG05024	L
sphNOG05025	S
sphNOG05026	S
sphNOG05027	T
sphNOG05028	V
sphNOG05029	G
sphNOG05030	M
sphNOG05031	S
sphNOG05032	S
sphNOG05033	S
sphNOG05034	H
sphNOG05035	K
sphNOG05036	H
sphNOG05037	P
sphNOG05038	R
sphNOG05039	K
sphNOG05040	S
sphNOG05041	S
sphNOG05042	T
sphNOG05043	L
sphNOG05044	R
sphNOG05045	T
sphNOG05046	S
sphNOG05047	C
sphNOG05048	S
sphNOG05049	K
sphNOG05050	C
sphNOG05051	K
sphNOG05052	S
sphNOG05053	S
sphNOG05054	S
sphNOG05055	T
sphNOG05056	K
sphNOG05057	E
sphNOG05058	S
sphNOG05059	P
sphNOG05060	Q
sphNOG05061	M
sphNOG05062	V
sphNOG05063	R
sphNOG05064	M
sphNOG05065	C
sphNOG05066	S
sphNOG05067	K
sphNOG05068	O
sphNOG05069	S
sphNOG05070	T
sphNOG05071	S
sphNOG05072	S
sphNOG05073	K
sphNOG05074	S
sphNOG05075	S
sphNOG05076	S
sphNOG05077	K
sphNOG05078	S
sphNOG05079	K
sphNOG05080	K
sphNOG05081	S
sphNOG05082	S
sphNOG05083	S
sphNOG05084	NT
sphNOG05085	K
sphNOG05086	S
sphNOG05087	S
sphNOG05088	K
sphNOG05089	K
sphNOG05090	R
sphNOG05091	T
sphNOG05092	S
sphNOG05093	S
sphNOG05094	S
sphNOG05095	O
sphNOG05096	S
sphNOG05097	R
sphNOG05098	S
sphNOG05099	C
sphNOG05100	R
sphNOG05101	K
sphNOG05102	M
sphNOG05103	K
sphNOG05104	S
sphNOG05105	R
sphNOG05106	K
sphNOG05107	K
sphNOG05108	R
sphNOG05109	S
sphNOG05110	R
sphNOG05111	O
sphNOG05112	K
sphNOG05113	S
sphNOG05114	S
sphNOG05115	S
sphNOG05116	K
sphNOG05117	S
sphNOG05118	R
sphNOG05119	K
sphNOG05120	S
sphNOG05121	S
sphNOG05122	I
sphNOG05123	S
sphNOG05124	S
sphNOG05125	K
sphNOG05126	S
sphNOG05127	K
sphNOG05128	S
sphNOG05129	S
sphNOG05130	C
sphNOG05131	S
sphNOG05132	K
sphNOG05133	S
sphNOG05134	R
sphNOG05135	R
sphNOG05136	T
sphNOG05137	S
sphNOG05138	C
sphNOG05139	S
sphNOG05140	T
sphNOG05141	S
sphNOG05142	S
sphNOG05143	S
sphNOG05144	S
sphNOG05145	R
sphNOG05146	E
sphNOG05147	H
sphNOG05148	R
sphNOG05149	S
sphNOG05150	S
sphNOG05151	O
sphNOG05152	S
sphNOG05153	S
sphNOG05154	P
sphNOG05155	T
sphNOG05156	K
sphNOG05157	S
sphNOG05158	K
sphNOG05159	S
sphNOG05160	K
sphNOG05161	R
sphNOG05162	P
sphNOG05163	S
sphNOG05164	P
sphNOG05165	T
sphNOG05166	O
sphNOG05167	S
sphNOG05168	R
sphNOG05169	S
sphNOG05170	P
sphNOG05171	S
sphNOG05172	R
sphNOG05173	K
sphNOG05174	T
sphNOG05175	S
sphNOG05176	S
sphNOG05177	R
sphNOG05178	K
sphNOG05179	R
sphNOG05180	S
sphNOG05181	S
sphNOG05182	S
sphNOG05183	R
sphNOG05184	S
sphNOG05185	P
sphNOG05186	R
sphNOG05187	S
sphNOG05188	M
sphNOG05189	R
sphNOG05190	S
sphNOG05191	S
sphNOG05192	S
sphNOG05193	S
sphNOG05194	S
sphNOG05195	R
sphNOG05196	S
sphNOG05197	S
sphNOG05198	S
sphNOG05199	T
sphNOG05200	K
sphNOG05201	K
sphNOG05202	R
sphNOG05203	S
sphNOG05204	S
sphNOG05205	R
sphNOG05206	R
sphNOG05207	S
sphNOG05208	T
sphNOG05209	R
sphNOG05210	R
sphNOG05211	S
sphNOG05212	S
sphNOG05213	S
sphNOG05214	S
sphNOG05215	O
sphNOG05216	T
sphNOG05217	K
sphNOG05218	K
sphNOG05219	M
sphNOG05220	M
sphNOG05221	S
sphNOG05222	S
sphNOG05223	S
sphNOG05224	S
sphNOG05225	R
sphNOG05226	S
sphNOG05227	T
sphNOG05228	S
sphNOG05229	I
sphNOG05230	S
sphNOG05231	R
sphNOG05232	S
sphNOG05233	E
sphNOG05234	K
sphNOG05235	T
sphNOG05236	O
sphNOG05237	S
sphNOG05238	T
sphNOG05239	S
sphNOG05240	M
sphNOG05241	K
sphNOG05242	S
sphNOG05243	K
sphNOG05244	K
sphNOG05245	S
sphNOG05246	S
sphNOG05247	S
sphNOG05248	K
sphNOG05249	K
sphNOG05250	K
sphNOG05251	S
sphNOG05252	T
sphNOG05253	S
sphNOG05254	K
sphNOG05255	S
sphNOG05256	D
sphNOG05257	S
sphNOG05258	S
sphNOG05259	S
sphNOG05260	S
sphNOG05261	S
sphNOG05262	S
sphNOG05263	K
sphNOG05264	S
sphNOG05265	M
sphNOG05266	O
sphNOG05267	K
sphNOG05268	T
sphNOG05269	S
sphNOG05270	K
sphNOG05271	S
sphNOG05272	S
sphNOG05273	K
sphNOG05274	F
sphNOG05275	S
sphNOG05276	G
sphNOG05277	C
sphNOG05278	K
sphNOG05279	S
sphNOG05280	S
sphNOG05281	R
sphNOG05282	K
sphNOG05283	S
sphNOG05284	S
sphNOG05285	E
sphNOG05286	L
sphNOG05287	K
sphNOG05288	S
sphNOG05289	S
sphNOG05290	S
sphNOG05291	K
sphNOG05292	S
sphNOG05293	R
sphNOG05294	S
sphNOG05295	S
sphNOG05296	J
sphNOG05297	T
sphNOG05298	S
sphNOG05299	S
sphNOG05300	R
sphNOG05301	S
sphNOG05302	O
sphNOG05303	L
sphNOG05304	S
sphNOG05305	S
sphNOG05306	S
sphNOG05307	S
sphNOG05308	K
sphNOG05309	S
sphNOG05310	S
sphNOG05311	M
sphNOG05312	C
sphNOG05313	K
sphNOG05314	K
sphNOG05315	S
sphNOG05316	S
sphNOG05317	C
sphNOG05318	S
sphNOG05319	T
sphNOG05320	S
sphNOG05321	S
sphNOG05322	K
sphNOG05323	S
sphNOG05324	K
sphNOG05325	K
sphNOG05326	K
sphNOG05327	K
sphNOG05328	G
sphNOG05329	R
sphNOG05330	C
sphNOG05331	K
sphNOG05332	K
sphNOG05333	K
sphNOG05334	S
sphNOG05335	R
sphNOG05336	S
sphNOG05337	K
sphNOG05338	S
sphNOG05339	K
sphNOG05340	K
sphNOG05341	K
sphNOG05342	T
sphNOG05343	R
sphNOG05344	S
sphNOG05345	O
sphNOG05346	S
sphNOG05347	M
sphNOG05348	K
sphNOG05349	M
sphNOG05350	C
sphNOG05351	S
sphNOG05352	S
sphNOG05353	K
sphNOG05354	K
sphNOG05355	O
sphNOG05356	S
sphNOG05357	CO
sphNOG05358	S
sphNOG05359	P
sphNOG05360	S
sphNOG05361	K
sphNOG05362	M
sphNOG05363	R
sphNOG05364	K
sphNOG05365	K
sphNOG05366	R
sphNOG05367	R
sphNOG05368	I
sphNOG05369	S
sphNOG05370	S
sphNOG05371	Q
sphNOG05372	S
sphNOG05373	S
sphNOG05374	J
sphNOG05375	K
sphNOG05376	L
sphNOG05377	S
sphNOG05378	C
sphNOG05379	S
sphNOG05380	S
sphNOG05381	O
sphNOG05382	S
sphNOG05383	S
sphNOG05384	S
sphNOG05385	K
sphNOG05386	S
sphNOG05387	S
sphNOG05388	M
sphNOG05389	O
sphNOG05390	U
sphNOG05391	S
sphNOG05392	Q
sphNOG05393	S
sphNOG05394	R
sphNOG05395	V
sphNOG05396	S
sphNOG05397	R
sphNOG05398	Q
sphNOG05399	S
sphNOG05400	K
sphNOG05401	S
sphNOG05402	R
sphNOG05403	T
sphNOG05404	R
sphNOG05405	V
sphNOG05406	H
sphNOG05407	R
sphNOG05408	S
sphNOG05409	K
sphNOG05410	K
sphNOG05411	S
sphNOG05412	O
sphNOG05413	S
sphNOG05414	V
sphNOG05415	R
sphNOG05416	R
sphNOG05417	O
sphNOG05418	T
sphNOG05419	K
sphNOG05420	S
sphNOG05421	R
sphNOG05422	R
sphNOG05423	S
sphNOG05424	O
sphNOG05425	S
sphNOG05426	S
sphNOG05427	J
sphNOG05428	S
sphNOG05429	H
sphNOG05430	O
sphNOG05431	S
sphNOG05432	S
sphNOG05433	S
sphNOG05434	S
sphNOG05435	T
sphNOG05436	S
sphNOG05437	S
sphNOG05438	S
sphNOG05439	S
sphNOG05440	S
sphNOG05441	C
sphNOG05442	S
sphNOG05443	T
sphNOG05444	S
sphNOG05445	S
sphNOG05446	K
sphNOG05447	S
sphNOG05448	S
sphNOG05449	S
sphNOG05450	K
sphNOG05451	S
sphNOG05452	S
sphNOG05453	S
sphNOG05454	S
sphNOG05455	K
sphNOG05456	S
sphNOG05457	S
sphNOG05458	S
sphNOG05459	S
sphNOG05460	R
sphNOG05461	R
sphNOG05462	S
sphNOG05463	S
sphNOG05464	S
sphNOG05465	S
sphNOG05466	H
sphNOG05467	J
sphNOG05468	S
sphNOG05469	S
sphNOG05470	S
sphNOG05471	V
sphNOG05472	S
sphNOG05473	S
sphNOG05474	G
sphNOG05475	I
sphNOG05476	CO
sphNOG05477	C
sphNOG05478	K
sphNOG05479	R
sphNOG05480	S
sphNOG05481	S
sphNOG05482	S
sphNOG05483	S
sphNOG05484	K
sphNOG05485	M
sphNOG05486	S
sphNOG05487	K
sphNOG05488	S
sphNOG05489	L
sphNOG05490	S
sphNOG05491	K
sphNOG05492	C
sphNOG05493	S
sphNOG05494	L
sphNOG05495	S
sphNOG05496	S
sphNOG05497	R
sphNOG05498	S
sphNOG05499	S
sphNOG05500	S
sphNOG05501	T
sphNOG05502	O
sphNOG05503	S
sphNOG05504	S
sphNOG05505	S
sphNOG05506	E
sphNOG05507	Q
sphNOG05508	S
sphNOG05509	S
sphNOG05510	S
sphNOG05511	S
sphNOG05512	S
sphNOG05513	R
sphNOG05514	T
sphNOG05515	S
sphNOG05516	E
sphNOG05517	R
sphNOG05518	E
sphNOG05519	S
sphNOG05520	S
sphNOG05521	S
sphNOG05522	S
sphNOG05523	C
sphNOG05524	R
sphNOG05525	S
sphNOG05526	S
sphNOG05527	S
sphNOG05528	T
sphNOG05529	S
sphNOG05530	S
sphNOG05531	S
sphNOG05532	CH
sphNOG05533	R
sphNOG05534	S
sphNOG05535	S
sphNOG05536	S
sphNOG05537	S
sphNOG05538	S
sphNOG05539	S
sphNOG05540	F
sphNOG05541	S
sphNOG05542	J
sphNOG05543	E
sphNOG05544	S
sphNOG05545	S
sphNOG05546	S
sphNOG05547	K
sphNOG05548	S
sphNOG05549	S
sphNOG05550	O
sphNOG05551	R
sphNOG05552	S
sphNOG05553	KT
sphNOG05554	K
sphNOG05555	P
sphNOG05556	S
sphNOG05557	S
sphNOG05558	S
sphNOG05559	S
sphNOG05560	O
sphNOG05561	O
sphNOG05562	M
sphNOG05563	K
sphNOG05564	O
sphNOG05565	G
sphNOG05566	M
sphNOG05567	K
sphNOG05568	S
sphNOG05569	S
sphNOG05570	S
sphNOG05571	T
sphNOG05572	R
sphNOG05573	S
sphNOG05574	P
sphNOG05575	M
sphNOG05576	S
sphNOG05577	S
sphNOG05578	S
sphNOG05579	T
sphNOG05580	S
sphNOG05581	S
sphNOG05582	S
sphNOG05583	K
sphNOG05584	S
sphNOG05585	S
sphNOG05586	K
sphNOG05587	R
sphNOG05588	L
sphNOG05589	E
sphNOG05590	S
sphNOG05591	S
sphNOG05592	M
sphNOG05593	K
sphNOG05594	S
sphNOG05595	S
sphNOG05596	S
sphNOG05597	R
sphNOG05598	S
sphNOG05599	S
sphNOG05600	K
sphNOG05601	K
sphNOG05602	K
sphNOG05603	S
sphNOG05604	P
sphNOG05605	S
sphNOG05606	S
sphNOG05607	K
sphNOG05608	R
sphNOG05609	S
sphNOG05610	T
sphNOG05611	S
sphNOG05612	S
sphNOG05613	S
sphNOG05614	H
sphNOG05615	S
sphNOG05616	S
sphNOG05617	K
sphNOG05618	C
sphNOG05619	G
sphNOG05620	S
sphNOG05621	R
sphNOG05622	S
sphNOG05623	S
sphNOG05624	C
sphNOG05625	S
sphNOG05626	G
sphNOG05627	S
sphNOG05628	S
sphNOG05629	R
sphNOG05630	R
sphNOG05631	R
sphNOG05632	S
sphNOG05633	R
sphNOG05634	O
sphNOG05635	S
sphNOG05636	K
sphNOG05637	S
sphNOG05638	E
sphNOG05639	S
sphNOG05640	I
sphNOG05641	S
sphNOG05642	K
sphNOG05643	K
sphNOG05644	S
sphNOG05645	S
sphNOG05646	R
sphNOG05647	S
sphNOG05648	S
sphNOG05649	S
sphNOG05650	O
sphNOG05651	S
sphNOG05652	S
sphNOG05653	S
sphNOG05654	S
sphNOG05655	G
sphNOG05656	O
sphNOG05657	J
sphNOG05658	S
sphNOG05659	S
sphNOG05660	C
sphNOG05661	S
sphNOG05662	R
sphNOG05663	S
sphNOG05664	S
sphNOG05665	R
sphNOG05666	J
sphNOG05667	S
sphNOG05668	S
sphNOG05669	S
sphNOG05670	S
sphNOG05671	P
sphNOG05672	S
sphNOG05673	S
sphNOG05674	E
sphNOG05675	S
sphNOG05676	K
sphNOG05677	L
sphNOG05678	S
sphNOG05679	S
sphNOG05680	S
sphNOG05681	S
sphNOG05682	P
sphNOG05683	S
sphNOG05684	L
sphNOG05685	L
sphNOG05686	S
sphNOG05687	R
sphNOG05688	F
sphNOG05689	Q
sphNOG05690	R
sphNOG05691	S
sphNOG05692	R
sphNOG05693	S
sphNOG05694	K
sphNOG05695	S
sphNOG05696	R
sphNOG05697	S
sphNOG05698	S
sphNOG05699	S
sphNOG05700	S
sphNOG05701	D
sphNOG05702	S
sphNOG05703	R
sphNOG05704	S
sphNOG05705	S
sphNOG05706	O
sphNOG05707	S
sphNOG05708	R
sphNOG05709	Q
sphNOG05710	S
sphNOG05711	S
sphNOG05712	T
sphNOG05713	Q
sphNOG05714	C
sphNOG05715	T
sphNOG05716	S
sphNOG05717	G
sphNOG05718	S
sphNOG05719	S
sphNOG05720	S
sphNOG05721	S
sphNOG05722	G
sphNOG05723	K
sphNOG05724	L
sphNOG05725	M
sphNOG05726	L
sphNOG05727	S
sphNOG05728	K
sphNOG05729	J
sphNOG05730	S
sphNOG05731	S
sphNOG05732	T
sphNOG05733	K
sphNOG05734	FJ
sphNOG05735	S
sphNOG05736	S
sphNOG05737	PT
sphNOG05738	S
sphNOG05739	S
sphNOG05740	S
sphNOG05741	S
sphNOG05742	S
sphNOG05743	S
sphNOG05744	K
sphNOG05745	S
sphNOG05746	S
sphNOG05747	S
sphNOG05748	R
sphNOG05749	R
sphNOG05750	O
sphNOG05751	S
sphNOG05752	S
sphNOG05753	R
sphNOG05754	S
sphNOG05755	S
sphNOG05756	S
sphNOG05757	S
sphNOG05758	S
sphNOG05759	G
sphNOG05760	S
sphNOG05761	R
sphNOG05762	K
sphNOG05763	L
sphNOG05764	S
sphNOG05765	S
sphNOG05766	S
sphNOG05767	S
sphNOG05768	O
sphNOG05769	S
sphNOG05770	S
sphNOG05771	S
sphNOG05772	S
sphNOG05773	C
sphNOG05774	S
sphNOG05775	S
sphNOG05776	M
sphNOG05777	S
sphNOG05778	S
sphNOG05779	S
sphNOG05780	S
sphNOG05781	S
sphNOG05782	K
sphNOG05783	G
sphNOG05784	S
sphNOG05785	S
sphNOG05786	S
sphNOG05787	P
sphNOG05788	S
sphNOG05789	S
sphNOG05790	S
sphNOG05791	S
sphNOG05792	R
sphNOG05793	J
sphNOG05794	S
sphNOG05795	S
sphNOG05796	T
sphNOG05797	S
sphNOG05798	R
sphNOG05799	S
sphNOG05800	K
sphNOG05801	S
sphNOG05802	T
sphNOG05803	K
sphNOG05804	S
sphNOG05805	R
sphNOG05806	S
sphNOG05807	T
sphNOG05808	T
sphNOG05809	K
sphNOG05810	Q
sphNOG05811	S
sphNOG05812	R
sphNOG05813	G
sphNOG05814	S
sphNOG05815	S
sphNOG05816	M
sphNOG05817	S
sphNOG05818	IQ
sphNOG05819	S
sphNOG05820	K
sphNOG05821	S
sphNOG05822	K
sphNOG05823	L
sphNOG05824	T
sphNOG05825	S
sphNOG05826	S
sphNOG05827	S
sphNOG05828	P
sphNOG05829	S
sphNOG05830	S
sphNOG05831	S
sphNOG05832	S
sphNOG05833	S
sphNOG05834	S
sphNOG05835	S
sphNOG05836	S
sphNOG05837	S
sphNOG05838	T
sphNOG05839	S
sphNOG05840	O
sphNOG05841	S
sphNOG05842	R
sphNOG05843	S
sphNOG05844	S
sphNOG05845	K
sphNOG05846	U
sphNOG05847	S
sphNOG05848	S
sphNOG05849	C
sphNOG05850	S
sphNOG05851	S
sphNOG05852	O
sphNOG05853	K
sphNOG05854	O
sphNOG05855	T
sphNOG05856	R
sphNOG05857	S
sphNOG05858	S
sphNOG05859	S
sphNOG05860	M
sphNOG05861	C
sphNOG05862	K
sphNOG05863	S
sphNOG05864	K
sphNOG05865	S
sphNOG05866	S
sphNOG05867	K
sphNOG05868	K
sphNOG05869	K
sphNOG05870	S
sphNOG05871	T
sphNOG05872	S
sphNOG05873	S
sphNOG05874	R
sphNOG05875	S
sphNOG05876	T
sphNOG05877	P
sphNOG05878	T
sphNOG05879	S
sphNOG05880	H
sphNOG05881	R
sphNOG05882	S
sphNOG05883	V
sphNOG05884	S
sphNOG05885	R
sphNOG05886	S
sphNOG05887	O
sphNOG05888	J
sphNOG05889	S
sphNOG05890	S
sphNOG05891	S
sphNOG05892	S
sphNOG05893	R
sphNOG05894	S
sphNOG05895	S
sphNOG05896	S
sphNOG05897	S
sphNOG05898	S
sphNOG05899	R
sphNOG05900	S
sphNOG05901	S
sphNOG05902	S
sphNOG05903	S
sphNOG05904	S
sphNOG05905	R
sphNOG05906	S
sphNOG05907	S
sphNOG05908	S
sphNOG05909	S
sphNOG05910	S
sphNOG05911	S
sphNOG05912	S
sphNOG05913	S
sphNOG05914	S
sphNOG05915	S
sphNOG05916	S
sphNOG05917	S
sphNOG05918	K
sphNOG05919	S
sphNOG05920	S
sphNOG05921	S
sphNOG05922	S
sphNOG05923	S
sphNOG05924	S
sphNOG05925	S
sphNOG05926	S
sphNOG05927	K
sphNOG05928	E
sphNOG05929	S
sphNOG05930	S
sphNOG05931	S
sphNOG05932	S
sphNOG05933	L
sphNOG05934	S
sphNOG05935	R
sphNOG05936	L
sphNOG05937	S
sphNOG05938	S
sphNOG05939	S
sphNOG05940	S
sphNOG05941	S
sphNOG05942	S
sphNOG05943	S
sphNOG05944	R
sphNOG05945	S
sphNOG05946	S
sphNOG05947	S
sphNOG05948	R
sphNOG05949	S
sphNOG05950	S
sphNOG05951	S
sphNOG05952	S
sphNOG05953	S
sphNOG05954	S
sphNOG05955	S
sphNOG05956	S
sphNOG05957	L
sphNOG05958	E
sphNOG05959	H
sphNOG05960	S
sphNOG05961	S
sphNOG05962	S
sphNOG05963	S
sphNOG05964	C
sphNOG05965	P
sphNOG05966	M
sphNOG05967	S
sphNOG05968	M
sphNOG05969	S
sphNOG05970	S
sphNOG05971	I
sphNOG05972	S
sphNOG05973	S
sphNOG05974	K
sphNOG05975	S
sphNOG05976	S
sphNOG05977	S
sphNOG05978	R
sphNOG05979	T
sphNOG05980	S
sphNOG05981	U
sphNOG05982	S
sphNOG05983	R
sphNOG05984	G
sphNOG05985	S
sphNOG05986	S
sphNOG05987	S
sphNOG05988	S
sphNOG05989	S
sphNOG05990	R
sphNOG05991	K
sphNOG05992	S
sphNOG05993	L
sphNOG05994	S
sphNOG05995	R
sphNOG05996	S
sphNOG05997	S
sphNOG05998	S
sphNOG05999	S
sphNOG06000	S
sphNOG06001	S
sphNOG06002	E
sphNOG06003	S
sphNOG06004	S
sphNOG06005	S
sphNOG06006	T
sphNOG06007	S
sphNOG06008	S
sphNOG06009	S
sphNOG06010	S
sphNOG06011	S
sphNOG06012	S
sphNOG06013	S
sphNOG06014	S
sphNOG06015	S
sphNOG06016	S
sphNOG06017	S
sphNOG06018	S
sphNOG06019	L
sphNOG06020	R
sphNOG06021	S
sphNOG06022	R
sphNOG06023	S
sphNOG06024	K
sphNOG06025	S
sphNOG06026	S
sphNOG06027	S
sphNOG06028	S
sphNOG06029	S
sphNOG06030	S
sphNOG06031	S
sphNOG06032	K
sphNOG06033	K
sphNOG06034	S
sphNOG06035	S
sphNOG06036	H
sphNOG06037	S
sphNOG06038	S
sphNOG06039	S
sphNOG06040	M
sphNOG06041	S
sphNOG06042	S
sphNOG06043	S
sphNOG06044	H
sphNOG06045	S
sphNOG06046	S
sphNOG06047	S
sphNOG06048	S
sphNOG06049	S
sphNOG06050	S
sphNOG06051	S
sphNOG06052	S
sphNOG06053	S
sphNOG06054	L
sphNOG06055	S
sphNOG06056	G
sphNOG06057	S
sphNOG06058	S
sphNOG06059	S
sphNOG06060	C
sphNOG06061	S
sphNOG06062	M
sphNOG06063	S
sphNOG06064	R
sphNOG06065	R
sphNOG06066	H
sphNOG06067	S
sphNOG06068	S
sphNOG06069	S
sphNOG06070	T
sphNOG06071	S
sphNOG06072	S
sphNOG06073	S
sphNOG06074	H
sphNOG06075	S
sphNOG06076	S
sphNOG06077	S
sphNOG06078	S
sphNOG06079	S
sphNOG06080	I
sphNOG06081	P
sphNOG06082	S
sphNOG06083	S
sphNOG06084	R
sphNOG06085	S
sphNOG06086	S
sphNOG06087	S
sphNOG06088	S
sphNOG06089	S
sphNOG06090	J
sphNOG06091	DZ
sphNOG06092	S
sphNOG06093	S
sphNOG06094	S
sphNOG06095	T
sphNOG06096	C
sphNOG06097	S
sphNOG06098	S
sphNOG06099	S
sphNOG06100	R
sphNOG06101	K
sphNOG06102	S
sphNOG06103	S
sphNOG06104	S
sphNOG06105	S
sphNOG06106	S
sphNOG06107	S
sphNOG06108	S
sphNOG06109	S
sphNOG06110	C
sphNOG06111	S
sphNOG06112	R
sphNOG06113	G
sphNOG06114	S
sphNOG06115	S
sphNOG06116	J
sphNOG06117	S
sphNOG06118	S
sphNOG06119	C
sphNOG06120	R
sphNOG06121	S
sphNOG06122	S
sphNOG06123	M
sphNOG06124	S
sphNOG06125	S
sphNOG06126	S
sphNOG06127	S
sphNOG06128	S
sphNOG06129	S
sphNOG06130	S
sphNOG06131	O
sphNOG06132	S
sphNOG06133	S
sphNOG06134	S
sphNOG06135	S
sphNOG06136	S
sphNOG06137	S
sphNOG06138	S
sphNOG06139	R
sphNOG06140	S
sphNOG06141	R
sphNOG06142	R
sphNOG06143	S
sphNOG06144	S
sphNOG06145	R
sphNOG06146	S
sphNOG06147	U
sphNOG06148	S
sphNOG06149	S
sphNOG06150	S
sphNOG06151	S
sphNOG06152	S
sphNOG06153	S
sphNOG06154	S
sphNOG06155	M
sphNOG06156	S
sphNOG06157	S
sphNOG06158	S
sphNOG06159	S
sphNOG06160	S
sphNOG06161	S
sphNOG06162	S
sphNOG06163	S
sphNOG06164	S
sphNOG06165	S
sphNOG06166	K
sphNOG06167	S
sphNOG06168	S
sphNOG06169	S
sphNOG06170	M
sphNOG06171	S
sphNOG06172	S
sphNOG06173	S
sphNOG06174	G
sphNOG06175	S
sphNOG06176	S
sphNOG06177	S
sphNOG06178	S
sphNOG06179	S
sphNOG06180	S
sphNOG06181	J
sphNOG06182	S
sphNOG06183	O
sphNOG06184	K
sphNOG06185	S
sphNOG06186	S
sphNOG06187	S
sphNOG06188	S
sphNOG06189	S
sphNOG06190	L
sphNOG06191	S
sphNOG06192	S
sphNOG06193	S
sphNOG06194	S
sphNOG06195	S
sphNOG06196	S
sphNOG06197	J
sphNOG06198	S
sphNOG06199	S
sphNOG06200	S
sphNOG06201	M
sphNOG06202	K
sphNOG06203	P
sphNOG06204	T
sphNOG06205	S
sphNOG06206	R
sphNOG06207	S
sphNOG06208	C
sphNOG06209	K
sphNOG06210	S
sphNOG06211	S
sphNOG06212	S
sphNOG06213	S
sphNOG06214	R
sphNOG06215	S
sphNOG06216	S
sphNOG06217	S
sphNOG06218	S
sphNOG06219	S
sphNOG06220	S
sphNOG06221	S
sphNOG06222	S
sphNOG06223	S
sphNOG06224	S
sphNOG06225	S
sphNOG06226	G
sphNOG06227	S
sphNOG06228	S
sphNOG06229	M
sphNOG06230	S
sphNOG06231	S
sphNOG06232	S
sphNOG06233	S
sphNOG06234	S
sphNOG06235	K
sphNOG06236	S
sphNOG06237	S
sphNOG06238	S
sphNOG06239	S
sphNOG06240	S
sphNOG06241	S
sphNOG06242	T
sphNOG06243	S
sphNOG06244	E
sphNOG06245	S
sphNOG06246	S
sphNOG06247	R
sphNOG06248	R
sphNOG06249	S
sphNOG06250	O
sphNOG06251	S
sphNOG06252	S
sphNOG06253	M
sphNOG06254	R
sphNOG06255	S
sphNOG06256	S
sphNOG06257	S
sphNOG06258	S
sphNOG06259	S
sphNOG06260	S
sphNOG06261	S
sphNOG06262	R
sphNOG06263	K
sphNOG06264	S
sphNOG06265	S
sphNOG06266	M
sphNOG06267	S
sphNOG06268	S
sphNOG06269	S
sphNOG06270	S
sphNOG06271	M
sphNOG06272	T
sphNOG06273	S
sphNOG06274	S
sphNOG06275	S
sphNOG06276	S
sphNOG06277	S
sphNOG06278	S
sphNOG06279	K
sphNOG06280	S
sphNOG06281	S
sphNOG06282	S
sphNOG06283	R
sphNOG06284	S
sphNOG06285	S
sphNOG06286	S
sphNOG06287	S
sphNOG06288	S
sphNOG06289	S
sphNOG06290	K
sphNOG06291	S
sphNOG06292	L
sphNOG06293	R
sphNOG06294	S
sphNOG06295	S
sphNOG06296	S
sphNOG06297	S
sphNOG06298	I
sphNOG06299	S
sphNOG06300	S
sphNOG06301	S
sphNOG06302	S
sphNOG06303	O
sphNOG06304	S
sphNOG06305	S
sphNOG06306	M
sphNOG06307	S
sphNOG06308	S
sphNOG06309	S
sphNOG06310	R
sphNOG06311	S
sphNOG06312	S
sphNOG06313	S
sphNOG06314	U
sphNOG06315	L
sphNOG06316	S
sphNOG06317	S
sphNOG06318	R
sphNOG06319	O
sphNOG06320	L
sphNOG06321	S
sphNOG06322	S
sphNOG06323	R
sphNOG06324	I
sphNOG06325	S
sphNOG06326	T
sphNOG06327	T
sphNOG06328	S
sphNOG06329	F
sphNOG06330	T
sphNOG06331	S
sphNOG06332	S
sphNOG06333	S
sphNOG06334	S
sphNOG06335	S
sphNOG06336	H
sphNOG06337	M
sphNOG06338	T
sphNOG06339	P
sphNOG06340	S
sphNOG06341	M
sphNOG06342	G
sphNOG06343	T
sphNOG06344	S
sphNOG06345	S
sphNOG06346	G
sphNOG06347	Q
sphNOG06348	K
sphNOG06349	PT
sphNOG06350	T
sphNOG06351	K
sphNOG06352	K
sphNOG06353	K
sphNOG06354	S
sphNOG06355	S
sphNOG06356	R
sphNOG06357	S
sphNOG06358	T
sphNOG06359	S
sphNOG06360	Q
sphNOG06361	S
sphNOG06362	C
sphNOG06363	S
sphNOG06364	U
sphNOG06365	S
sphNOG06366	S
sphNOG06367	S
sphNOG06368	R
sphNOG06369	S
sphNOG06370	R
sphNOG06371	S
sphNOG06372	R
sphNOG06373	S
sphNOG06374	G
sphNOG06375	T
sphNOG06376	T
sphNOG06377	S
sphNOG06378	R
sphNOG06379	S
