theNOG00001	E
theNOG00002	E
theNOG00003	C
theNOG00004	J
theNOG00005	G
theNOG00006	C
theNOG00007	I
theNOG00008	C
theNOG00009	C
theNOG00010	R
theNOG00011	J
theNOG00012	R
theNOG00013	R
theNOG00014	K
theNOG00015	C
theNOG00016	C
theNOG00017	C
theNOG00018	R
theNOG00019	J
theNOG00020	R
theNOG00021	K
theNOG00022	L
theNOG00023	E
theNOG00024	H
theNOG00025	F
theNOG00026	J
theNOG00027	L
theNOG00028	J
theNOG00029	O
theNOG00030	G
theNOG00031	R
theNOG00032	J
theNOG00033	V
theNOG00034	F
theNOG00035	M
theNOG00036	E
theNOG00037	R
theNOG00038	H
theNOG00039	K
theNOG00040	J
theNOG00041	F
theNOG00042	S
theNOG00043	J
theNOG00044	J
theNOG00045	M
theNOG00046	E
theNOG00047	G
theNOG00048	J
theNOG00049	G
theNOG00050	H
theNOG00051	G
theNOG00052	J
theNOG00053	J
theNOG00054	J
theNOG00055	O
theNOG00056	O
theNOG00057	H
theNOG00058	E
theNOG00059	G
theNOG00060	M
theNOG00061	H
theNOG00062	J
theNOG00063	S
theNOG00064	U
theNOG00065	O
theNOG00066	G
theNOG00067	G
theNOG00068	I
theNOG00069	R
theNOG00070	R
theNOG00071	E
theNOG00072	F
theNOG00073	L
theNOG00074	L
theNOG00075	G
theNOG00076	R
theNOG00077	E
theNOG00078	S
theNOG00079	G
theNOG00080	E
theNOG00081	R
theNOG00082	L
theNOG00083	I
theNOG00084	M
theNOG00085	E
theNOG00086	L
theNOG00087	H
theNOG00088	F
theNOG00089	F
theNOG00090	J
theNOG00091	J
theNOG00092	E
theNOG00093	J
theNOG00094	L
theNOG00095	J
theNOG00096	O
theNOG00097	E
theNOG00098	F
theNOG00099	P
theNOG00100	I
theNOG00101	K
theNOG00102	J
theNOG00103	F
theNOG00104	P
theNOG00105	E
theNOG00106	G
theNOG00107	P
theNOG00108	J
theNOG00109	E
theNOG00110	O
theNOG00111	C
theNOG00112	G
theNOG00113	F
theNOG00114	V
theNOG00115	E
theNOG00116	C
theNOG00117	E
theNOG00118	F
theNOG00119	J
theNOG00120	I
theNOG00121	O
theNOG00122	E
theNOG00123	F
theNOG00124	O
theNOG00125	R
theNOG00126	C
theNOG00127	D
theNOG00128	H
theNOG00129	G
theNOG00130	C
theNOG00131	L
theNOG00132	E
theNOG00133	F
theNOG00134	G
theNOG00135	J
theNOG00136	F
theNOG00137	R
theNOG00138	F
theNOG00139	R
theNOG00140	O
theNOG00141	G
theNOG00142	S
theNOG00143	C
theNOG00144	E
theNOG00145	E
theNOG00146	J
theNOG00147	G
theNOG00148	I
theNOG00149	E
theNOG00150	O
theNOG00151	C
theNOG00152	J
theNOG00153	R
theNOG00154	L
theNOG00155	J
theNOG00156	F
theNOG00157	J
theNOG00158	V
theNOG00159	F
theNOG00160	F
theNOG00161	C
theNOG00162	H
theNOG00163	E
theNOG00164	C
theNOG00165	I
theNOG00166	J
theNOG00167	E
theNOG00168	R
theNOG00169	K
theNOG00170	O
theNOG00171	R
theNOG00172	G
theNOG00173	I
theNOG00174	C
theNOG00175	H
theNOG00176	M
theNOG00177	D
theNOG00178	U
theNOG00179	C
theNOG00180	S
theNOG00181	H
theNOG00182	J
theNOG00183	J
theNOG00184	P
theNOG00185	G
theNOG00186	H
theNOG00187	C
theNOG00188	R
theNOG00189	V
theNOG00190	G
theNOG00191	O
theNOG00192	R
theNOG00193	J
theNOG00194	M
theNOG00195	E
theNOG00196	G
theNOG00197	C
theNOG00198	P
theNOG00199	C
theNOG00200	J
theNOG00201	K
theNOG00202	C
theNOG00203	G
theNOG00204	E
theNOG00205	C
theNOG00206	J
theNOG00207	C
theNOG00208	J
theNOG00209	M
theNOG00210	C
theNOG00211	C
theNOG00212	R
theNOG00213	V
theNOG00214	C
theNOG00215	I
theNOG00216	C
theNOG00217	G
theNOG00218	C
theNOG00219	V
theNOG00220	G
theNOG00221	R
theNOG00222	M
theNOG00223	O
theNOG00224	L
theNOG00225	I
theNOG00226	E
theNOG00227	L
theNOG00228	D
theNOG00229	G
theNOG00230	J
theNOG00231	C
theNOG00232	C
theNOG00233	R
theNOG00234	E
theNOG00235	L
theNOG00236	F
theNOG00237	E
theNOG00238	C
theNOG00239	J
theNOG00240	C
theNOG00241	C
theNOG00242	I
theNOG00243	K
theNOG00244	L
theNOG00245	H
theNOG00246	H
theNOG00247	D
theNOG00248	J
theNOG00249	C
theNOG00250	I
theNOG00251	P
theNOG00252	E
theNOG00253	J
theNOG00254	S
theNOG00255	K
theNOG00256	G
theNOG00257	J
theNOG00258	F
theNOG00259	R
theNOG00260	C
theNOG00261	R
theNOG00262	O
theNOG00263	L
theNOG00264	R
theNOG00265	C
theNOG00266	E
theNOG00267	L
theNOG00268	L
theNOG00269	E
theNOG00270	E
theNOG00271	G
theNOG00272	S
theNOG00273	E
theNOG00274	F
theNOG00275	K
theNOG00276	K
theNOG00277	L
theNOG00278	C
theNOG00279	P
theNOG00280	M
theNOG00281	C
theNOG00282	K
theNOG00283	F
theNOG00284	C
theNOG00285	F
theNOG00286	G
theNOG00287	I
theNOG00288	E
theNOG00289	J
theNOG00290	E
theNOG00291	G
theNOG00292	I
theNOG00293	G
theNOG00294	I
theNOG00295	L
theNOG00296	J
theNOG00297	S
theNOG00298	M
theNOG00299	E
theNOG00300	G
theNOG00301	G
theNOG00302	E
theNOG00303	E
theNOG00304	C
theNOG00305	O
theNOG00306	H
theNOG00307	G
theNOG00308	G
theNOG00309	E
theNOG00310	G
theNOG00311	G
theNOG00312	I
theNOG00313	E
theNOG00314	S
theNOG00315	I
theNOG00316	R
theNOG00317	V
theNOG00318	G
theNOG00319	J
theNOG00320	R
theNOG00321	J
theNOG00322	L
theNOG00323	P
theNOG00324	J
theNOG00325	V
theNOG00326	J
theNOG00327	R
theNOG00328	J
theNOG00329	C
theNOG00330	L
theNOG00331	E
theNOG00332	E
theNOG00333	R
theNOG00334	H
theNOG00335	L
theNOG00336	H
theNOG00337	H
theNOG00338	C
theNOG00339	C
theNOG00340	K
theNOG00341	C
theNOG00342	O
theNOG00343	L
theNOG00344	M
theNOG00345	F
theNOG00346	O
theNOG00347	R
theNOG00348	E
theNOG00349	C
theNOG00350	C
theNOG00351	J
theNOG00352	M
theNOG00353	J
theNOG00354	C
theNOG00355	L
theNOG00356	F
theNOG00357	R
theNOG00358	O
theNOG00359	E
theNOG00360	E
theNOG00361	J
theNOG00362	C
theNOG00363	S
theNOG00364	C
theNOG00365	E
theNOG00366	O
theNOG00367	H
theNOG00368	G
theNOG00369	P
theNOG00370	E
theNOG00371	R
theNOG00372	L
theNOG00373	E
theNOG00374	E
theNOG00375	O
theNOG00376	G
theNOG00377	M
theNOG00378	C
theNOG00379	J
theNOG00380	G
theNOG00381	R
theNOG00382	H
theNOG00383	S
theNOG00384	J
theNOG00385	K
theNOG00386	E
theNOG00387	P
theNOG00388	E
theNOG00389	H
theNOG00390	J
theNOG00391	I
theNOG00392	E
theNOG00393	E
theNOG00394	R
theNOG00395	C
theNOG00396	U
theNOG00397	E
theNOG00398	P
theNOG00399	E
theNOG00400	F
theNOG00401	J
theNOG00402	H
theNOG00403	J
theNOG00404	C
theNOG00405	R
theNOG00406	K
theNOG00407	R
theNOG00408	J
theNOG00409	L
theNOG00410	E
theNOG00411	V
theNOG00412	E
theNOG00413	R
theNOG00414	H
theNOG00415	G
theNOG00416	E
theNOG00417	F
theNOG00418	E
theNOG00419	P
theNOG00420	H
theNOG00421	H
theNOG00422	S
theNOG00423	E
theNOG00424	L
theNOG00425	H
theNOG00426	P
theNOG00427	E
theNOG00428	G
theNOG00429	L
theNOG00430	P
theNOG00431	E
theNOG00432	P
theNOG00433	S
theNOG00434	C
theNOG00435	J
theNOG00436	V
theNOG00437	F
theNOG00438	K
theNOG00439	J
theNOG00440	G
theNOG00441	H
theNOG00442	O
theNOG00443	I
theNOG00444	S
theNOG00445	E
theNOG00446	H
theNOG00447	J
theNOG00448	T
theNOG00449	E
theNOG00450	J
theNOG00451	I
theNOG00452	F
theNOG00453	C
theNOG00454	I
theNOG00455	J
theNOG00456	M
theNOG00457	H
theNOG00458	J
theNOG00459	M
theNOG00460	R
theNOG00461	H
theNOG00462	K
theNOG00463	H
theNOG00464	E
theNOG00465	R
theNOG00466	C
theNOG00467	L
theNOG00468	C
theNOG00469	L
theNOG00470	S
theNOG00471	J
theNOG00472	J
theNOG00473	S
theNOG00474	E
theNOG00475	U
theNOG00476	R
theNOG00477	F
theNOG00478	H
theNOG00479	G
theNOG00480	E
theNOG00481	J
theNOG00482	R
theNOG00483	J
theNOG00484	O
theNOG00485	J
theNOG00486	E
theNOG00487	S
theNOG00488	I
theNOG00489	L
theNOG00490	Q
theNOG00491	R
theNOG00492	K
theNOG00493	I
theNOG00494	R
theNOG00495	H
theNOG00496	J
theNOG00497	S
theNOG00498	J
theNOG00499	J
theNOG00500	H
theNOG00501	H
theNOG00502	O
theNOG00503	H
theNOG00504	H
theNOG00505	F
theNOG00506	T
theNOG00507	S
theNOG00508	M
theNOG00509	L
theNOG00510	R
theNOG00511	G
theNOG00512	Q
theNOG00513	L
theNOG00514	C
theNOG00515	R
theNOG00516	Q
theNOG00517	C
theNOG00518	R
theNOG00519	H
theNOG00520	H
theNOG00521	U
theNOG00522	R
theNOG00523	R
theNOG00524	E
theNOG00525	O
theNOG00526	H
theNOG00527	S
theNOG00528	C
theNOG00529	J
theNOG00530	J
theNOG00531	J
theNOG00532	M
theNOG00533	R
theNOG00534	K
theNOG00535	R
theNOG00536	E
theNOG00537	L
theNOG00538	E
theNOG00539	C
theNOG00540	S
theNOG00541	J
theNOG00542	R
theNOG00543	J
theNOG00544	K
theNOG00545	F
theNOG00546	L
theNOG00547	J
theNOG00548	I
theNOG00549	H
theNOG00550	R
theNOG00551	U
theNOG00552	R
theNOG00553	F
theNOG00554	E
theNOG00555	J
theNOG00556	H
theNOG00557	U
theNOG00558	R
theNOG00559	G
theNOG00560	O
theNOG00561	S
theNOG00562	G
theNOG00563	E
theNOG00564	M
theNOG00565	J
theNOG00566	H
theNOG00567	P
theNOG00568	E
theNOG00569	F
theNOG00570	U
theNOG00571	L
theNOG00572	F
theNOG00573	I
theNOG00574	R
theNOG00575	I
theNOG00576	R
theNOG00577	G
theNOG00578	T
theNOG00579	G
theNOG00580	R
theNOG00581	G
theNOG00582	R
theNOG00583	E
theNOG00584	J
theNOG00585	R
theNOG00586	J
theNOG00587	G
theNOG00588	H
theNOG00589	E
theNOG00590	S
theNOG00591	J
theNOG00592	R
theNOG00593	R
theNOG00594	G
theNOG00595	H
theNOG00596	J
theNOG00597	I
theNOG00598	J
theNOG00599	H
theNOG00600	R
theNOG00601	J
theNOG00602	J
theNOG00603	L
theNOG00604	J
theNOG00605	M
theNOG00606	V
theNOG00607	M
theNOG00608	O
theNOG00609	O
theNOG00610	G
theNOG00611	S
theNOG00612	R
theNOG00613	Q
theNOG00614	L
theNOG00615	K
theNOG00616	C
theNOG00617	R
theNOG00618	E
theNOG00619	J
theNOG00620	J
theNOG00621	J
theNOG00622	F
theNOG00623	C
theNOG00624	F
theNOG00625	I
theNOG00626	R
theNOG00627	J
theNOG00628	F
theNOG00629	L
theNOG00630	R
theNOG00631	J
theNOG00632	G
theNOG00633	G
theNOG00634	J
theNOG00635	R
theNOG00636	R
theNOG00637	L
theNOG00638	M
theNOG00639	S
theNOG00640	R
theNOG00641	H
theNOG00642	J
theNOG00643	F
theNOG00644	F
theNOG00645	S
theNOG00646	J
theNOG00647	E
theNOG00648	J
theNOG00649	J
theNOG00650	E
theNOG00651	G
theNOG00652	K
theNOG00653	S
theNOG00654	S
theNOG00655	G
theNOG00656	S
theNOG00657	I
theNOG00658	R
theNOG00659	M
theNOG00660	J
theNOG00661	J
theNOG00662	S
theNOG00663	E
theNOG00664	K
theNOG00665	C
theNOG00666	J
theNOG00667	S
theNOG00668	L
theNOG00669	L
theNOG00670	G
theNOG00671	F
theNOG00672	E
theNOG00673	L
theNOG00674	S
theNOG00675	J
theNOG00676	E
theNOG00677	G
theNOG00678	K
theNOG00679	E
theNOG00680	E
theNOG00681	G
theNOG00682	S
theNOG00683	K
theNOG00684	J
theNOG00685	G
theNOG00686	K
theNOG00687	K
theNOG00688	E
theNOG00689	J
theNOG00690	E
theNOG00691	V
theNOG00692	S
theNOG00693	S
theNOG00694	K
theNOG00695	I
theNOG00696	R
theNOG00697	H
theNOG00698	S
theNOG00699	M
theNOG00700	S
theNOG00701	E
theNOG00702	J
theNOG00703	K
theNOG00704	K
theNOG00705	S
theNOG00706	S
theNOG00707	E
theNOG00708	F
theNOG00709	J
theNOG00710	O
theNOG00711	I
theNOG00712	H
theNOG00713	S
theNOG00714	Q
theNOG00715	S
theNOG00716	R
theNOG00717	E
theNOG00718	S
theNOG00719	E
theNOG00720	K
theNOG00721	P
theNOG00722	H
theNOG00723	J
theNOG00724	J
theNOG00725	S
theNOG00726	S
theNOG00727	S
theNOG00728	S
theNOG00729	S
theNOG00730	S
theNOG00731	H
theNOG00732	P
theNOG00733	H
theNOG00734	O
theNOG00735	R
theNOG00736	J
theNOG00737	S
theNOG00738	K
theNOG00739	J
theNOG00740	C
theNOG00741	E
theNOG00742	E
theNOG00743	S
theNOG00744	J
theNOG00745	C
theNOG00746	P
theNOG00747	S
theNOG00748	R
theNOG00749	S
theNOG00750	J
theNOG00751	H
theNOG00752	R
theNOG00753	K
theNOG00754	S
theNOG00755	G
theNOG00756	S
theNOG00757	S
theNOG00758	P
theNOG00759	D
theNOG00760	K
theNOG00761	J
theNOG00762	M
theNOG00763	M
theNOG00764	S
theNOG00765	S
theNOG00766	O
theNOG00767	S
theNOG00768	K
theNOG00769	S
theNOG00770	Q
theNOG00771	P
theNOG00772	S
theNOG00773	J
theNOG00774	R
theNOG00775	S
theNOG00776	H
theNOG00777	H
theNOG00778	H
theNOG00779	F
theNOG00780	J
theNOG00781	F
theNOG00782	I
theNOG00783	J
theNOG00784	E
theNOG00785	Q
theNOG00786	K
theNOG00787	C
theNOG00788	L
theNOG00789	S
theNOG00790	L
theNOG00791	S
theNOG00792	S
theNOG00793	L
theNOG00794	P
theNOG00795	K
theNOG00796	S
theNOG00797	C
theNOG00798	S
theNOG00799	S
theNOG00800	F
theNOG00801	L
theNOG00802	S
theNOG00803	J
theNOG00804	J
theNOG00805	L
theNOG00806	S
theNOG00807	E
theNOG00808	K
theNOG00809	J
theNOG00810	S
theNOG00811	E
theNOG00812	E
theNOG00813	S
theNOG00814	S
theNOG00815	S
theNOG00816	J
theNOG00817	E
theNOG00818	J
theNOG00819	S
theNOG00820	R
theNOG00821	S
theNOG00822	S
theNOG00823	K
theNOG00824	K
theNOG00825	E
theNOG00826	K
theNOG00827	C
theNOG00828	K
theNOG00829	J
theNOG00830	S
theNOG00831	S
theNOG00832	S
theNOG00833	R
theNOG00834	F
theNOG00835	L
theNOG00836	I
theNOG00837	S
theNOG00838	S
theNOG00839	H
theNOG00840	U
theNOG00841	Q
theNOG00842	J
theNOG00843	J
theNOG00844	C
theNOG00845	S
theNOG00846	S
theNOG00847	K
theNOG00848	D
theNOG00849	S
theNOG00850	J
theNOG00851	U
theNOG00852	R
theNOG00853	J
theNOG00854	S
theNOG00855	K
theNOG00856	S
theNOG00857	J
theNOG00858	S
theNOG00859	U
theNOG00860	O
theNOG00861	K
theNOG00862	J
theNOG00863	K
theNOG00864	J
theNOG00865	L
theNOG00866	S
theNOG00867	K
theNOG00868	E
theNOG00869	U
theNOG00870	S
theNOG00871	K
theNOG00872	S
theNOG00873	L
theNOG00874	C
theNOG00875	P
theNOG00876	S
theNOG00877	S
theNOG00878	P
theNOG00879	K
theNOG00880	S
theNOG00881	S
theNOG00882	C
theNOG00883	S
theNOG00884	K
theNOG00885	H
theNOG00886	K
theNOG00887	R
theNOG00888	R
theNOG00889	K
theNOG00890	K
theNOG00891	C
theNOG00892	O
theNOG00893	P
theNOG00894	S
theNOG00895	S
theNOG00896	J
theNOG00897	S
theNOG00898	C
theNOG00899	O
theNOG00900	S
theNOG00901	S
theNOG00902	E
theNOG00903	H
theNOG00904	S
theNOG00905	S
theNOG00906	G
theNOG00907	S
theNOG00908	J
theNOG00909	P
theNOG00910	S
theNOG00911	K
theNOG00912	J
theNOG00913	M
theNOG00914	C
theNOG00915	S
theNOG00916	S
theNOG00917	K
theNOG00918	S
theNOG00919	O
theNOG00920	S
theNOG00921	J
theNOG00922	H
theNOG00923	J
theNOG00924	K
theNOG00925	F
theNOG00926	J
theNOG00927	S
theNOG00928	S
theNOG00929	S
theNOG00930	R
theNOG00931	S
theNOG00932	K
theNOG00933	H
theNOG00934	S
theNOG00935	H
theNOG00936	J
theNOG00937	S
theNOG00938	S
theNOG00939	L
theNOG00940	C
theNOG00941	S
theNOG00942	J
theNOG00943	S
theNOG00944	S
theNOG00945	V
theNOG00946	C
theNOG00947	Q
theNOG00948	K
theNOG00949	G
theNOG00950	F
theNOG00951	F
theNOG00952	Q
theNOG00953	S
theNOG00954	S
theNOG00955	H
theNOG00956	M
theNOG00957	S
theNOG00958	K
theNOG00959	J
theNOG00960	S
theNOG00961	K
theNOG00962	S
theNOG00963	C
theNOG00964	E
theNOG00965	S
theNOG00966	L
theNOG00967	C
theNOG00968	S
theNOG00969	R
theNOG00970	E
theNOG00971	L
theNOG00972	E
theNOG00973	G
theNOG00974	G
theNOG00975	E
theNOG00976	M
theNOG00977	C
theNOG00978	E
theNOG00979	F
theNOG00980	K
theNOG00981	G
theNOG00982	C
theNOG00983	V
theNOG00984	S
theNOG00985	C
theNOG00986	C
theNOG00987	K
theNOG00988	G
theNOG00989	M
theNOG00990	E
theNOG00991	R
theNOG00992	S
theNOG00993	I
theNOG00994	G
theNOG00995	G
theNOG00996	E
theNOG00997	S
theNOG00998	I
theNOG00999	G
theNOG01000	G
theNOG01001	E
theNOG01002	E
theNOG01003	R
theNOG01004	G
theNOG01005	L
theNOG01006	K
theNOG01007	E
theNOG01008	L
theNOG01009	V
theNOG01010	D
theNOG01011	P
theNOG01012	E
theNOG01013	G
theNOG01014	E
theNOG01015	E
theNOG01016	C
theNOG01017	S
theNOG01018	C
theNOG01019	V
theNOG01020	L
theNOG01021	G
theNOG01022	G
theNOG01023	V
theNOG01024	F
theNOG01025	C
theNOG01026	C
theNOG01027	G
theNOG01028	O
theNOG01029	E
theNOG01030	G
theNOG01031	E
theNOG01032	H
theNOG01033	C
theNOG01034	C
theNOG01035	R
theNOG01036	R
theNOG01037	S
theNOG01038	E
theNOG01039	I
theNOG01040	G
theNOG01041	L
theNOG01042	H
theNOG01043	H
theNOG01044	G
theNOG01045	E
theNOG01046	C
theNOG01047	R
theNOG01048	V
theNOG01049	E
theNOG01050	E
theNOG01051	R
theNOG01052	G
theNOG01053	E
theNOG01054	S
theNOG01055	P
theNOG01056	G
theNOG01057	E
theNOG01058	S
theNOG01059	L
theNOG01060	E
theNOG01061	L
theNOG01062	E
theNOG01063	R
theNOG01064	E
theNOG01065	V
theNOG01066	E
theNOG01067	C
theNOG01068	C
theNOG01069	I
theNOG01070	E
theNOG01071	G
theNOG01072	H
theNOG01073	H
theNOG01074	E
theNOG01075	C
theNOG01076	V
theNOG01077	E
theNOG01078	G
theNOG01079	G
theNOG01080	P
theNOG01081	G
theNOG01082	C
theNOG01083	G
theNOG01084	H
theNOG01085	E
theNOG01086	G
theNOG01087	M
theNOG01088	E
theNOG01089	E
theNOG01090	H
theNOG01091	L
theNOG01092	S
theNOG01093	V
theNOG01094	O
theNOG01095	E
theNOG01096	M
theNOG01097	R
theNOG01098	I
theNOG01099	O
theNOG01100	C
theNOG01101	G
theNOG01102	C
theNOG01103	L
theNOG01104	L
theNOG01105	E
theNOG01106	C
theNOG01107	P
theNOG01108	R
theNOG01109	S
theNOG01110	E
theNOG01111	E
theNOG01112	G
theNOG01113	E
theNOG01114	C
theNOG01115	E
theNOG01116	Q
theNOG01117	G
theNOG01118	E
theNOG01119	D
theNOG01120	H
theNOG01121	Q
theNOG01122	E
theNOG01123	O
theNOG01124	L
theNOG01125	L
theNOG01126	E
theNOG01127	I
theNOG01128	V
theNOG01129	C
theNOG01130	G
theNOG01131	G
theNOG01132	G
theNOG01133	M
theNOG01134	C
theNOG01135	E
theNOG01136	L
theNOG01137	R
theNOG01138	G
theNOG01139	E
theNOG01140	G
theNOG01141	E
theNOG01142	I
theNOG01143	E
theNOG01144	G
theNOG01145	M
theNOG01146	C
theNOG01147	C
theNOG01148	I
theNOG01149	R
theNOG01150	V
theNOG01151	G
theNOG01152	I
theNOG01153	S
theNOG01154	H
theNOG01155	O
theNOG01156	C
theNOG01157	E
theNOG01158	H
theNOG01159	P
theNOG01160	G
theNOG01161	E
theNOG01162	E
theNOG01163	H
theNOG01164	K
theNOG01165	Q
theNOG01166	M
theNOG01167	S
theNOG01168	G
theNOG01169	Q
theNOG01170	Q
theNOG01171	F
theNOG01172	G
theNOG01173	O
theNOG01174	E
theNOG01175	E
theNOG01176	E
theNOG01177	G
theNOG01178	G
theNOG01179	S
theNOG01180	G
theNOG01181	E
theNOG01182	E
theNOG01183	R
theNOG01184	R
theNOG01185	Q
theNOG01186	H
theNOG01187	H
theNOG01188	S
theNOG01189	S
theNOG01190	P
theNOG01191	I
theNOG01192	H
theNOG01193	G
theNOG01194	V
theNOG01195	G
theNOG01196	S
theNOG01197	F
theNOG01198	H
theNOG01199	H
theNOG01200	G
theNOG01201	O
theNOG01202	E
theNOG01203	I
theNOG01204	S
theNOG01205	P
theNOG01206	V
theNOG01207	C
theNOG01208	S
theNOG01209	K
theNOG01210	E
theNOG01211	V
theNOG01212	M
theNOG01213	S
theNOG01214	R
theNOG01215	V
theNOG01216	H
theNOG01217	S
theNOG01218	C
theNOG01219	M
theNOG01220	I
theNOG01221	C
theNOG01222	C
theNOG01223	S
theNOG01224	Q
theNOG01225	E
theNOG01226	C
theNOG01227	E
theNOG01228	K
theNOG01229	S
theNOG01230	G
theNOG01231	R
theNOG01232	E
theNOG01233	C
theNOG01234	I
theNOG01235	S
theNOG01236	I
theNOG01237	H
theNOG01238	G
theNOG01239	G
theNOG01240	K
theNOG01241	E
theNOG01242	Q
theNOG01243	M
theNOG01244	S
theNOG01245	K
theNOG01246	V
theNOG01247	I
theNOG01248	R
theNOG01249	E
theNOG01250	G
theNOG01251	E
theNOG01252	G
theNOG01253	C
theNOG01254	I
theNOG01255	R
theNOG01256	R
theNOG01257	Q
theNOG01258	T
theNOG01259	G
theNOG01260	G
theNOG01261	V
theNOG01262	L
theNOG01263	S
theNOG01264	R
theNOG01265	O
theNOG01266	M
theNOG01267	C
theNOG01268	M
theNOG01269	H
theNOG01270	L
theNOG01271	K
theNOG01272	H
theNOG01273	R
theNOG01274	S
theNOG01275	G
theNOG01276	S
theNOG01277	Q
theNOG01278	S
theNOG01279	R
theNOG01280	L
theNOG01281	K
theNOG01282	S
theNOG01283	H
theNOG01284	O
theNOG01285	V
theNOG01286	R
theNOG01287	S
theNOG01288	T
theNOG01289	S
theNOG01290	G
theNOG01291	C
theNOG01292	M
theNOG01293	S
theNOG01294	O
theNOG01295	V
theNOG01296	S
theNOG01297	M
theNOG01298	S
theNOG01299	K
theNOG01300	S
theNOG01301	S
theNOG01302	S
theNOG01303	K
theNOG01304	E
theNOG01305	O
theNOG01306	S
theNOG01307	S
theNOG01308	R
theNOG01309	H
theNOG01310	S
theNOG01311	M
theNOG01312	G
theNOG01313	S
theNOG01314	R
theNOG01315	Q
theNOG01316	S
theNOG01317	K
theNOG01318	M
theNOG01319	L
theNOG01320	S
theNOG01321	M
theNOG01322	F
theNOG01323	S
theNOG01324	S
theNOG01325	I
theNOG01326	S
theNOG01327	K
theNOG01328	V
theNOG01329	L
theNOG01330	S
theNOG01331	S
theNOG01332	J
theNOG01333	C
theNOG01334	L
theNOG01335	M
theNOG01336	S
theNOG01337	L
theNOG01338	S
theNOG01339	S
theNOG01340	S
theNOG01341	K
theNOG01342	S
theNOG01343	R
theNOG01344	S
theNOG01345	S
theNOG01346	S
theNOG01347	C
theNOG01348	R
theNOG01349	R
theNOG01350	S
theNOG01351	C
theNOG01352	O
theNOG01353	L
theNOG01354	K
theNOG01355	E
theNOG01356	G
theNOG01357	S
theNOG01358	I
theNOG01359	S
theNOG01360	S
theNOG01361	K
theNOG01362	K
theNOG01363	L
theNOG01364	K
theNOG01365	E
theNOG01366	K
theNOG01367	S
theNOG01368	S
theNOG01369	S
theNOG01370	S
theNOG01371	S
theNOG01372	S
theNOG01373	E
theNOG01374	K
theNOG01375	S
theNOG01376	S
theNOG01377	S
theNOG01378	K
theNOG01379	K
theNOG01380	S
theNOG01381	S
theNOG01382	G
theNOG01383	S
theNOG01384	K
theNOG01385	S
theNOG01386	S
theNOG01387	K
theNOG01388	K
theNOG01389	S
theNOG01390	S
theNOG01391	S
theNOG01392	S
theNOG01393	J
theNOG01394	G
theNOG01395	M
theNOG01396	E
theNOG01397	J
theNOG01398	S
theNOG01399	J
theNOG01400	S
theNOG01401	K
theNOG01402	S
theNOG01403	P
theNOG01404	G
theNOG01405	S
theNOG01406	S
theNOG01407	S
theNOG01408	P
theNOG01409	S
theNOG01410	S
theNOG01411	S
theNOG01412	L
theNOG01413	S
theNOG01414	K
theNOG01415	S
theNOG01416	S
theNOG01417	L
theNOG01418	J
theNOG01419	P
theNOG01420	S
theNOG01421	R
theNOG01422	S
theNOG01423	S
theNOG01424	S
theNOG01425	S
theNOG01426	E
theNOG01427	L
theNOG01428	S
theNOG01429	M
theNOG01430	L
theNOG01431	L
theNOG01432	K
theNOG01433	K
theNOG01434	S
theNOG01435	V
theNOG01436	G
theNOG01437	S
theNOG01438	S
theNOG01439	S
theNOG01440	S
theNOG01441	S
theNOG01442	S
theNOG01443	C
theNOG01444	S
theNOG01445	R
theNOG01446	S
theNOG01447	S
theNOG01448	S
theNOG01449	S
theNOG01450	R
theNOG01451	S
theNOG01452	C
theNOG01453	R
theNOG01454	E
