Sample,,S1,S1,S1,S1,S1,S2,S2,S2,S2,S2,S3,S3,S3,S3,S3,S4,S4,S4,S4,S4,S5,S5,S5,S5,S5,S6,S6,S6,S6,S6
Organism,,Archaea,Bacteria,Chloroplast,Fungi,Unassigned,Archaea,Bacteria,Chloroplast,Fungi,Unassigned,Archaea,Bacteria,Chloroplast,Fungi,Unassigned,Archaea,Bacteria,Chloroplast,Fungi,Unassigned,Archaea,Bacteria,Chloroplast,Fungi,Unassigned,Archaea,Bacteria,Chloroplast,Fungi,Unassigned
Pathway,Function,,,,,,,,,,,,,,,,,,,,,,,,,,,,,,
3-hydroxypropionate bicycle,Propionyl-CoA carboxylase,17,1,0,0,0,6,2,0,0,0,11,0,0,0,0,17,0,0,0,0,5,0,0,0,0,3,0,0,0,0
3-hydroxypropionate/4-hydroxybutyrate cycle,Acetyl-CoA acetyltransferase,9,6,0,0,0,8,4,0,0,0,1,1,0,0,0,2,1,0,0,0,0,0,0,0,0,1,1,0,0,0
3-hydroxypropionate/4-hydroxybutyrate cycle,Enoyl-CoA hydratase,0,39,0,0,0,4,63,0,0,0,2,17,0,0,0,5,6,0,0,0,0,33,0,0,0,0,39,0,0,0
3-hydroxypropionate/4-hydroxybutyrate cycle,Methylmalonyl-CoA epimerase,0,0,0,0,0,0,0,0,0,0,2,0,0,0,0,3,0,0,0,0,0,0,0,0,0,0,0,0,0,0
3-hydroxypropionate/4-hydroxybutyrate cycle,Methylmalonyl-CoA mutase,9,3,0,0,0,4,0,0,0,0,8,0,0,0,0,18,0,0,0,0,1,0,0,0,0,2,1,0,0,0
3-hydroxypropionate/4-hydroxybutyrate cycle,Methylmalonyl-coA epimerase,0,0,0,0,0,0,5,0,0,0,0,0,0,0,0,0,0,0,0,0,0,0,0,0,0,0,1,0,0,0
3-hydroxypropionate/4-hydroxybutyrate cycle,Methylmalonyl-coA mutase,0,3,0,0,0,0,6,0,0,0,0,2,0,0,0,0,3,0,0,0,0,8,0,0,0,0,6,0,0,0
3-hydroxypropionate/4-hydroxybutyrate cycle,Propionyl-CoA carboxylase,17,1,0,0,0,6,2,0,0,0,11,0,0,0,0,17,0,0,0,0,5,0,0,0,0,3,0,0,0,0
Calvin-Benson-Bassham (CBB) Cycle,Aldolase,0,121,0,0,0,0,139,0,0,0,0,27,0,0,0,0,11,0,0,0,0,52,0,0,0,0,93,0,0,0
Calvin-Benson-Bassham (CBB) Cycle,"Fructose-1,6-bisphosphatase",0,14,0,0,0,0,16,0,0,0,0,8,0,0,0,0,1,0,0,0,0,13,0,0,0,0,19,0,0,0
Calvin-Benson-Bassham (CBB) Cycle,Fructose-1-6-bisphosphatase,0,0,1,0,0,0,0,0,0,0,0,0,0,0,0,0,0,0,0,0,0,0,0,0,0,0,0,0,0,0
Calvin-Benson-Bassham (CBB) Cycle,Fructose-16-bisphosphatase,0,0,0,0,0,1,0,0,0,0,8,0,0,0,0,10,0,0,0,0,0,0,0,0,0,0,0,0,0,0
Calvin-Benson-Bassham (CBB) Cycle,Fructose-bisphosphate aldolase,0,38,0,0,0,0,40,0,0,0,0,12,0,0,0,0,1,0,0,0,0,27,0,0,0,0,35,0,0,0
Calvin-Benson-Bassham (CBB) Cycle,L-ribulose-5-phosphate 4-epimerase,0,0,0,0,0,0,1,0,0,0,0,0,0,0,0,0,1,0,0,0,0,0,0,0,0,0,0,0,0,0
Calvin-Benson-Bassham (CBB) Cycle,NAD(P)-dependent glyceraldehyde-3-phosphate dehydrogenase,3,0,0,0,0,3,0,0,0,0,1,0,0,0,0,1,0,0,0,0,0,0,0,0,0,2,0,0,0,0
Calvin-Benson-Bassham (CBB) Cycle,NADPH-dependent glycerol-3-phosphate dehydrogenase,0,6,0,0,0,0,3,0,0,0,0,0,0,0,0,0,1,0,0,0,0,1,0,0,0,0,2,0,0,0
Calvin-Benson-Bassham (CBB) Cycle,Phosphoglycerate kinase,0,28,2,0,0,0,22,1,0,0,0,9,0,0,0,0,1,0,0,0,0,10,0,0,0,0,22,0,0,0
Calvin-Benson-Bassham (CBB) Cycle,Phosphoriboisomerase A,0,7,0,0,0,0,10,0,0,0,0,0,0,0,0,0,0,0,0,0,0,1,0,0,0,0,1,0,0,0
Calvin-Benson-Bassham (CBB) Cycle,Ribose 5-phosphate isomerase,0,2,0,0,0,0,10,0,0,0,0,0,0,0,0,0,0,0,0,0,0,4,0,0,0,0,5,0,0,0
Calvin-Benson-Bassham (CBB) Cycle,Ribulose-phosphate 3-epimerase,0,40,0,0,0,0,40,0,0,0,0,7,0,0,0,0,6,0,0,0,0,18,0,0,0,0,31,0,0,0
Calvin-Benson-Bassham (CBB) Cycle,Transketolase,2,129,0,0,0,3,132,0,0,0,3,39,0,0,0,8,9,0,0,0,1,76,0,0,0,1,95,0,0,0
Calvin-Benson-Bassham (CBB) Cycle,Triose-phosphate isomerase,0,3,1,0,0,0,2,0,0,0,0,0,0,0,0,0,1,0,0,0,0,4,0,0,0,0,1,0,0,0
N respiration,Cytochrome c,0,31,0,0,0,0,38,0,0,0,0,5,0,0,0,0,1,0,0,0,0,7,0,0,0,0,19,0,0,0
N respiration,Cytochrome c1,0,1,0,0,0,0,3,0,0,0,0,1,0,0,0,0,0,0,0,0,0,0,0,0,0,0,0,0,0,0
N respiration,Nitrite reductase,0,0,0,0,0,0,0,0,0,0,0,1,0,0,0,0,0,0,0,0,0,0,0,0,0,0,0,0,0,0
dicarboxylate/4-hydroxybutyrate cycle,Acetyl-CoA acetyltransferase,9,6,0,0,0,8,4,0,0,0,1,1,0,0,0,2,1,0,0,0,0,0,0,0,0,1,1,0,0,0
dicarboxylate/4-hydroxybutyrate cycle,Enoyl-CoA hydratase,0,39,0,0,0,4,63,0,0,0,2,17,0,0,0,5,6,0,0,0,0,33,0,0,0,0,39,0,0,0
dicarboxylate/4-hydroxybutyrate cycle,Malate dehydrogenase,5,0,0,0,0,6,0,0,0,0,0,2,0,0,0,0,2,0,0,0,0,0,0,0,0,1,0,0,0,0
dicarboxylate/4-hydroxybutyrate cycle,Phosphoenolpyruvate carboxykinase,2,0,0,0,0,5,0,0,0,0,6,0,0,0,0,4,0,0,0,0,0,0,0,0,0,0,0,0,0,0
dicarboxylate/4-hydroxybutyrate cycle,Phosphoenolpyruvate carboxylase,0,18,0,0,0,0,22,1,0,0,0,7,0,0,0,0,2,0,0,0,0,13,0,0,0,0,12,0,0,0
dicarboxylate/4-hydroxybutyrate cycle,Phosphonopyruvate decarboxylase,0,2,0,0,0,0,1,0,0,0,0,0,0,0,0,0,0,0,0,0,0,1,0,0,0,0,2,0,0,0
reductive tricarboxylic acid cycle,Aconitase,0,1,0,0,0,0,0,0,0,0,0,0,0,0,0,0,0,0,0,0,0,0,0,0,0,0,0,0,0,0
reductive tricarboxylic acid cycle,Aconitate hydratase,3,10,0,0,0,4,11,0,0,0,2,6,0,0,0,13,5,0,0,0,0,7,0,0,0,1,10,0,0,0
reductive tricarboxylic acid cycle,Aconitate hydratase 2,0,56,0,0,0,0,83,0,0,0,0,18,0,0,0,0,4,0,0,0,0,50,0,0,0,0,104,0,0,0
reductive tricarboxylic acid cycle,Isocitrate dehydrogenase (NADP),0,65,0,0,0,0,75,0,0,0,0,18,0,0,0,0,10,0,0,0,0,56,0,0,0,0,74,0,0,0
reductive tricarboxylic acid cycle,Isocitrate dehydrogenase NADP,0,0,0,1,0,0,0,0,0,0,0,0,0,0,0,0,0,0,0,0,0,0,0,1,0,0,0,0,0,0
reductive tricarboxylic acid cycle,Malate dehydrogenase,5,0,0,0,0,6,0,0,0,0,0,2,0,0,0,0,2,0,0,0,0,0,0,0,0,1,0,0,0,0
